%!PS-Adobe-3.0 EPSF-3.0
%%Creator: cairo 1.14.8 (http://cairographics.org)
%%CreationDate: Sun Aug  6 22:23:15 2017
%%Pages: 1
%%DocumentData: Clean7Bit
%%LanguageLevel: 2
%%BoundingBox: 0 -1 147 134
%%EndComments
%%BeginProlog
save
50 dict begin
/q { gsave } bind def
/Q { grestore } bind def
/cm { 6 array astore concat } bind def
/w { setlinewidth } bind def
/J { setlinecap } bind def
/j { setlinejoin } bind def
/M { setmiterlimit } bind def
/d { setdash } bind def
/m { moveto } bind def
/l { lineto } bind def
/c { curveto } bind def
/h { closepath } bind def
/re { exch dup neg 3 1 roll 5 3 roll moveto 0 rlineto
      0 exch rlineto 0 rlineto closepath } bind def
/S { stroke } bind def
/f { fill } bind def
/f* { eofill } bind def
/n { newpath } bind def
/W { clip } bind def
/W* { eoclip } bind def
/BT { } bind def
/ET { } bind def
/pdfmark where { pop globaldict /?pdfmark /exec load put }
    { globaldict begin /?pdfmark /pop load def /pdfmark
    /cleartomark load def end } ifelse
/BDC { mark 3 1 roll /BDC pdfmark } bind def
/EMC { mark /EMC pdfmark } bind def
/cairo_store_point { /cairo_point_y exch def /cairo_point_x exch def } def
/Tj { show currentpoint cairo_store_point } bind def
/TJ {
  {
    dup
    type /stringtype eq
    { show } { -0.001 mul 0 cairo_font_matrix dtransform rmoveto } ifelse
  } forall
  currentpoint cairo_store_point
} bind def
/cairo_selectfont { cairo_font_matrix aload pop pop pop 0 0 6 array astore
    cairo_font exch selectfont cairo_point_x cairo_point_y moveto } bind def
/Tf { pop /cairo_font exch def /cairo_font_matrix where
      { pop cairo_selectfont } if } bind def
/Td { matrix translate cairo_font_matrix matrix concatmatrix dup
      /cairo_font_matrix exch def dup 4 get exch 5 get cairo_store_point
      /cairo_font where { pop cairo_selectfont } if } bind def
/Tm { 2 copy 8 2 roll 6 array astore /cairo_font_matrix exch def
      cairo_store_point /cairo_font where { pop cairo_selectfont } if } bind def
/g { setgray } bind def
/rg { setrgbcolor } bind def
/d1 { setcachedevice } bind def
%%EndProlog
%%BeginSetup
%%EndSetup
%%Page: 1 1
%%BeginPageSetup
%%PageBoundingBox: 0 -1 147 134
%%EndPageSetup
q 0 -1 147 135 rectclip q
0.113725 0.239216 0.560784 rg
12.602 133.5 134.398 -133.5 re f
1 g
132.824 70.051 m 137.398 72.227 139.727 77.102 139.727 81.977 c 139.727
 87.824 136.051 93.449 130.875 96.074 c 125.625 98.699 119.852 98.477 114.148
 98.477 c 99.602 98.477 l 99.602 35.852 l 118.5 35.852 l 124.5 36 130.875
 36.375 135.898 39.977 c 140.773 43.648 143.551 48.824 143.551 54.898 c 
143.551 62.023 139.727 67.875 132.824 70.051 c 111.227 87.227 m 116.551 
87.227 l 119.023 87.227 122.477 87.375 124.199 86.625 c 126.523 85.727 128.102
 83.625 128.102 81.148 c 128.102 78.75 126.75 76.426 124.5 75.375 c 122.324
 74.324 119.102 74.477 116.625 74.477 c 111.227 74.477 l h
128.852 49.273 m 125.773 47.25 122.625 47.102 119.25 47.102 c 111.227 47.102
 l 111.227 63.074 l 119.477 63.074 l 122.25 63.074 125.102 63.148 127.727
 61.801 c 130.426 60.301 131.852 58.426 131.852 55.352 c 131.926 52.727 
130.949 50.699 128.852 49.273 c f
0.92549 0.403922 0.113725 rg
12.602 65.176 m 12.602 98.477 l 0 98.477 l h
12.602 65.176 m f
1 g
96.074 98.477 m 84.824 98.477 l 84.824 56.102 l 84.75 54 84.523 52.051 
83.625 50.176 c 82.125 47.477 79.273 45.602 75.977 45.227 c 75.824 45.227
 75.75 45.227 75.602 45.227 c 75.301 45.227 75 45.148 74.699 45.148 c 74.398
 45.148 74.102 45.148 73.801 45.227 c 73.648 45.227 73.574 45.227 73.426
 45.227 c 70.125 45.602 67.273 47.551 65.773 50.176 c 64.801 52.051 64.574
 54.074 64.574 56.102 c 64.574 98.477 l 50.324 98.477 l 46.949 98.477 44.023
 96.227 43.125 93.074 c 43.125 93 43.051 92.926 43.051 92.926 c 29.102 52.125
 l 29.023 52.125 l 12.602 98.477 l 12.602 65.25 l 23.477 35.852 l 34.801
 35.852 l 53.102 86.398 l 53.25 86.773 l 53.324 86.773 l 53.324 58.5 l 53.324
 54 53.625 49.727 55.426 45.824 c 58.727 39.227 65.625 34.648 73.727 34.352
 c 74.023 34.352 74.324 34.352 74.625 34.352 c 74.926 34.352 75.227 34.352
 75.523 34.352 c 83.625 34.648 90.523 39.301 93.824 45.824 c 95.625 49.727
 95.926 54 95.926 58.5 c 95.926 98.477 l h
96.074 98.477 m f
Q Q
showpage
%%Trailer
end restore
%%EOF
