%!PS-Adobe-3.0 EPSF-3.0
%%Creator: graphviz version 2.38.0 (20140413.2041)
%%Title: Scala-AM
%%Pages: 1
%%BoundingBox: 36 36 687 574
%%EndComments
save
%%BeginProlog
/DotDict 200 dict def
DotDict begin

/setupLatin1 {
mark
/EncodingVector 256 array def
 EncodingVector 0

ISOLatin1Encoding 0 255 getinterval putinterval
EncodingVector 45 /hyphen put

% Set up ISO Latin 1 character encoding
/starnetISO {
        dup dup findfont dup length dict begin
        { 1 index /FID ne { def }{ pop pop } ifelse
        } forall
        /Encoding EncodingVector def
        currentdict end definefont
} def
/Times-Roman starnetISO def
/Times-Italic starnetISO def
/Times-Bold starnetISO def
/Times-BoldItalic starnetISO def
/Helvetica starnetISO def
/Helvetica-Oblique starnetISO def
/Helvetica-Bold starnetISO def
/Helvetica-BoldOblique starnetISO def
/Courier starnetISO def
/Courier-Oblique starnetISO def
/Courier-Bold starnetISO def
/Courier-BoldOblique starnetISO def
cleartomark
} bind def

%%BeginResource: procset graphviz 0 0
/coord-font-family /Times-Roman def
/default-font-family /Times-Roman def
/coordfont coord-font-family findfont 8 scalefont def

/InvScaleFactor 1.0 def
/set_scale {
       dup 1 exch div /InvScaleFactor exch def
       scale
} bind def

% styles
/solid { [] 0 setdash } bind def
/dashed { [9 InvScaleFactor mul dup ] 0 setdash } bind def
/dotted { [1 InvScaleFactor mul 6 InvScaleFactor mul] 0 setdash } bind def
/invis {/fill {newpath} def /stroke {newpath} def /show {pop newpath} def} bind def
/bold { 2 setlinewidth } bind def
/filled { } bind def
/unfilled { } bind def
/rounded { } bind def
/diagonals { } bind def
/tapered { } bind def

% hooks for setting color 
/nodecolor { sethsbcolor } bind def
/edgecolor { sethsbcolor } bind def
/graphcolor { sethsbcolor } bind def
/nopcolor {pop pop pop} bind def

/beginpage {	% i j npages
	/npages exch def
	/j exch def
	/i exch def
	/str 10 string def
	npages 1 gt {
		gsave
			coordfont setfont
			0 0 moveto
			(\() show i str cvs show (,) show j str cvs show (\)) show
		grestore
	} if
} bind def

/set_font {
	findfont exch
	scalefont setfont
} def

% draw text fitted to its expected width
/alignedtext {			% width text
	/text exch def
	/width exch def
	gsave
		width 0 gt {
			[] 0 setdash
			text stringwidth pop width exch sub text length div 0 text ashow
		} if
	grestore
} def

/boxprim {				% xcorner ycorner xsize ysize
		4 2 roll
		moveto
		2 copy
		exch 0 rlineto
		0 exch rlineto
		pop neg 0 rlineto
		closepath
} bind def

/ellipse_path {
	/ry exch def
	/rx exch def
	/y exch def
	/x exch def
	matrix currentmatrix
	newpath
	x y translate
	rx ry scale
	0 0 1 0 360 arc
	setmatrix
} bind def

/endpage { showpage } bind def
/showpage { } def

/layercolorseq
	[	% layer color sequence - darkest to lightest
		[0 0 0]
		[.2 .8 .8]
		[.4 .8 .8]
		[.6 .8 .8]
		[.8 .8 .8]
	]
def

/layerlen layercolorseq length def

/setlayer {/maxlayer exch def /curlayer exch def
	layercolorseq curlayer 1 sub layerlen mod get
	aload pop sethsbcolor
	/nodecolor {nopcolor} def
	/edgecolor {nopcolor} def
	/graphcolor {nopcolor} def
} bind def

/onlayer { curlayer ne {invis} if } def

/onlayers {
	/myupper exch def
	/mylower exch def
	curlayer mylower lt
	curlayer myupper gt
	or
	{invis} if
} def

/curlayer 0 def

%%EndResource
%%EndProlog
%%BeginSetup
14 default-font-family set_font
1 setmiterlimit
% /arrowlength 10 def
% /arrowwidth 5 def

% make sure pdfmark is harmless for PS-interpreters other than Distiller
/pdfmark where {pop} {userdict /pdfmark /cleartomark load put} ifelse
% make '<<' and '>>' safe on PS Level 1 devices
/languagelevel where {pop languagelevel}{1} ifelse
2 lt {
    userdict (<<) cvn ([) cvn load put
    userdict (>>) cvn ([) cvn load put
} if

%%EndSetup
setupLatin1
%%Page: 1 1
%%PageBoundingBox: 36 36 687 574
%%PageOrientation: Portrait
0 0 1 beginpage
gsave
36 36 651 538 boxprim clip newpath
1 1 set_scale 0 rotate 40 40 translate
% 0
gsave
0.33333 0.33333 1 nodecolor
newpath 359 499 moveto
7 499 lineto
7 463 lineto
359 463 lineto
closepath fill
1 setlinewidth
filled
0 0 0 nodecolor
newpath 359 499 moveto
7 499 lineto
7 463 lineto
359 463 lineto
closepath stroke
0 0 0 nodecolor
14 /Times-Roman set_font
15 477.3 moveto 336 (ev\(\(letrec \(\(abs \(lambda \(x\) \(if \(>= x 0\) x \(- x\)\)\)\)\) \(abs -42\)\)\)) alignedtext
0 0 0 nodecolor
14 /Times-Roman set_font
0 502.8 moveto 7 (0) alignedtext
grestore
% 1
gsave
0.33333 0.13333 1 nodecolor
newpath 226.5 396 moveto
139.5 396 lineto
139.5 360 lineto
226.5 360 lineto
closepath fill
1 setlinewidth
filled
0 0 0 nodecolor
newpath 226.5 396 moveto
139.5 396 lineto
139.5 360 lineto
226.5 360 lineto
closepath stroke
0 0 0 nodecolor
14 /Times-Roman set_font
147.5 374.3 moveto 71 (ev\(\(abs -42\)\)) alignedtext
0 0 0 nodecolor
14 /Times-Roman set_font
132.5 399.8 moveto 7 (1) alignedtext
grestore
% 0->1
gsave
1 setlinewidth
0 0 0 edgecolor
newpath 183 462.87 moveto
183 447.41 183 424.42 183 406.41 curveto
stroke
0 0 0 edgecolor
newpath 186.5 406.22 moveto
183 396.22 lineto
179.5 406.22 lineto
closepath fill
1 setlinewidth
solid
0 0 0 edgecolor
newpath 186.5 406.22 moveto
183 396.22 lineto
179.5 406.22 lineto
closepath stroke
grestore
% 2
gsave
0.33333 0.13333 1 nodecolor
newpath 255 324 moveto
111 324 lineto
111 288 lineto
255 288 lineto
closepath fill
1 setlinewidth
filled
0 0 0 nodecolor
newpath 255 324 moveto
111 324 lineto
111 288 lineto
255 288 lineto
closepath stroke
0 0 0 nodecolor
14 /Times-Roman set_font
119 302.3 moveto 128 (ev\(\(if \(>= x 0\) x \(- x\)\)\)) alignedtext
0 0 0 nodecolor
14 /Times-Roman set_font
104 327.8 moveto 7 (2) alignedtext
grestore
% 1->2
gsave
1 setlinewidth
0 0 0 edgecolor
newpath 183 359.7 moveto
183 351.98 183 342.71 183 334.11 curveto
stroke
0 0 0 edgecolor
newpath 186.5 334.1 moveto
183 324.1 lineto
179.5 334.1 lineto
closepath fill
1 setlinewidth
solid
0 0 0 edgecolor
newpath 186.5 334.1 moveto
183 324.1 lineto
179.5 334.1 lineto
closepath stroke
grestore
% 3
gsave
0.33333 0.13333 1 nodecolor
newpath 225.5 252 moveto
140.5 252 lineto
140.5 216 lineto
225.5 216 lineto
closepath fill
1 setlinewidth
filled
0 0 0 nodecolor
newpath 225.5 252 moveto
140.5 252 lineto
140.5 216 lineto
225.5 216 lineto
closepath stroke
0 0 0 nodecolor
14 /Times-Roman set_font
148.5 230.3 moveto 69 (ev\(\(>= x 0\)\)) alignedtext
0 0 0 nodecolor
14 /Times-Roman set_font
133.5 255.8 moveto 7 (3) alignedtext
grestore
% 2->3
gsave
1 setlinewidth
0 0 0 edgecolor
newpath 183 287.7 moveto
183 279.98 183 270.71 183 262.11 curveto
stroke
0 0 0 edgecolor
newpath 186.5 262.1 moveto
183 252.1 lineto
179.5 262.1 lineto
closepath fill
1 setlinewidth
solid
0 0 0 edgecolor
newpath 186.5 262.1 moveto
183 252.1 lineto
179.5 262.1 lineto
closepath stroke
grestore
% 4
gsave
0.66667 0.13333 1 nodecolor
newpath 215.5 180 moveto
150.5 180 lineto
150.5 144 lineto
215.5 144 lineto
closepath fill
1 setlinewidth
filled
0 0 0 nodecolor
newpath 215.5 180 moveto
150.5 180 lineto
150.5 144 lineto
215.5 144 lineto
closepath stroke
0 0 0 nodecolor
14 /Times-Roman set_font
158.5 158.3 moveto 49 (ko\(Bool\)) alignedtext
0 0 0 nodecolor
14 /Times-Roman set_font
143.5 183.8 moveto 7 (4) alignedtext
grestore
% 3->4
gsave
1 setlinewidth
0 0 0 edgecolor
newpath 183 215.7 moveto
183 207.98 183 198.71 183 190.11 curveto
stroke
0 0 0 edgecolor
newpath 186.5 190.1 moveto
183 180.1 lineto
179.5 190.1 lineto
closepath fill
1 setlinewidth
solid
0 0 0 edgecolor
newpath 186.5 190.1 moveto
183 180.1 lineto
179.5 190.1 lineto
closepath stroke
grestore
% 5
gsave
0.33333 0.13333 1 nodecolor
newpath 172 108 moveto
118 108 lineto
118 72 lineto
172 72 lineto
closepath fill
1 setlinewidth
filled
0 0 0 nodecolor
newpath 172 108 moveto
118 108 lineto
118 72 lineto
172 72 lineto
closepath stroke
0 0 0 nodecolor
14 /Times-Roman set_font
130.5 86.3 moveto 29 (ev\(x\)) alignedtext
0 0 0 nodecolor
14 /Times-Roman set_font
111 111.8 moveto 7 (5) alignedtext
grestore
% 4->5
gsave
1 setlinewidth
0 0 0 edgecolor
newpath 173.61 143.7 moveto
169.24 135.64 163.94 125.89 159.1 116.98 curveto
stroke
0 0 0 edgecolor
newpath 162.13 115.22 moveto
154.29 108.1 lineto
155.98 118.56 lineto
closepath fill
1 setlinewidth
solid
0 0 0 edgecolor
newpath 162.13 115.22 moveto
154.29 108.1 lineto
155.98 118.56 lineto
closepath stroke
grestore
% 6
gsave
0.33333 0.13333 1 nodecolor
newpath 252 108 moveto
190 108 lineto
190 72 lineto
252 72 lineto
closepath fill
1 setlinewidth
filled
0 0 0 nodecolor
newpath 252 108 moveto
190 108 lineto
190 72 lineto
252 72 lineto
closepath stroke
0 0 0 nodecolor
14 /Times-Roman set_font
198 86.3 moveto 46 (ev\(\(- x\)\)) alignedtext
0 0 0 nodecolor
14 /Times-Roman set_font
183 111.8 moveto 7 (6) alignedtext
grestore
% 4->6
gsave
1 setlinewidth
0 0 0 edgecolor
newpath 192.39 143.7 moveto
196.76 135.64 202.06 125.89 206.9 116.98 curveto
stroke
0 0 0 edgecolor
newpath 210.02 118.56 moveto
211.71 108.1 lineto
203.87 115.22 lineto
closepath fill
1 setlinewidth
solid
0 0 0 edgecolor
newpath 210.02 118.56 moveto
211.71 108.1 lineto
203.87 115.22 lineto
closepath stroke
grestore
% 7
gsave
0.16667 0.33333 1 nodecolor
newpath 210 36 moveto
156 36 lineto
156 0 lineto
210 0 lineto
closepath fill
1 setlinewidth
filled
0 0 0 nodecolor
newpath 210 36 moveto
156 36 lineto
156 0 lineto
210 0 lineto
closepath stroke
0 0 0 nodecolor
14 /Times-Roman set_font
164 14.3 moveto 38 (ko\(Int\)) alignedtext
0 0 0 nodecolor
14 /Times-Roman set_font
149 39.8 moveto 7 (7) alignedtext
grestore
% 5->7
gsave
1 setlinewidth
0 0 0 edgecolor
newpath 154.39 71.7 moveto
158.76 63.64 164.06 53.89 168.9 44.98 curveto
stroke
0 0 0 edgecolor
newpath 172.02 46.56 moveto
173.71 36.1 lineto
165.87 43.22 lineto
closepath fill
1 setlinewidth
solid
0 0 0 edgecolor
newpath 172.02 46.56 moveto
173.71 36.1 lineto
165.87 43.22 lineto
closepath stroke
grestore
% 6->7
gsave
1 setlinewidth
0 0 0 edgecolor
newpath 211.61 71.7 moveto
207.24 63.64 201.94 53.89 197.1 44.98 curveto
stroke
0 0 0 edgecolor
newpath 200.13 43.22 moveto
192.29 36.1 lineto
193.98 46.56 lineto
closepath fill
1 setlinewidth
solid
0 0 0 edgecolor
newpath 200.13 43.22 moveto
192.29 36.1 lineto
193.98 46.56 lineto
closepath stroke
grestore
% stats
gsave
1 setlinewidth
0 0 0 nodecolor
newpath 496.5 530 moveto
496.5 530 389.5 530 389.5 530 curveto
383.5 530 377.5 524 377.5 518 curveto
377.5 518 377.5 444 377.5 444 curveto
377.5 438 383.5 432 389.5 432 curveto
389.5 432 496.5 432 496.5 432 curveto
502.5 432 508.5 438 508.5 444 curveto
508.5 444 508.5 518 508.5 518 curveto
508.5 524 502.5 530 496.5 530 curveto
stroke
0 0 0 nodecolor
14 /Times-Roman set_font
385.5 514.8 moveto 53 (#nodes: 8) alignedtext
0 0 0 nodecolor
14 /Times-Roman set_font
385.5 499.8 moveto 52 (#edges: 8) alignedtext
0 0 0 nodecolor
14 /Times-Roman set_font
385.5 484.8 moveto 112 (graph density: 0,143) alignedtext
0 0 0 nodecolor
14 /Times-Roman set_font
385.5 469.8 moveto 94 (outdegree min: 1) alignedtext
0 0 0 nodecolor
14 /Times-Roman set_font
385.5 454.8 moveto 96 (outdegree max: 2) alignedtext
0 0 0 nodecolor
14 /Times-Roman set_font
385.5 439.8 moveto 115 (outdegree avg: 1,000) alignedtext
grestore
% config
gsave
1 setlinewidth
0 0 0 nodecolor
newpath 631 515 moveto
631 515 539 515 539 515 curveto
533 515 527 509 527 503 curveto
527 503 527 459 527 459 curveto
527 453 533 447 539 447 curveto
539 447 631 447 631 447 curveto
637 447 643 453 643 459 curveto
643 459 643 503 643 503 curveto
643 509 637 515 631 515 curveto
stroke
0 0 0 nodecolor
14 /Times-Roman set_font
535 499.8 moveto 100 (language: Scheme) alignedtext
0 0 0 nodecolor
14 /Times-Roman set_font
535 484.8 moveto 87 (machine: AAM) alignedtext
0 0 0 nodecolor
14 /Times-Roman set_font
535 469.8 moveto 86 (lattice: TypeSet) alignedtext
0 0 0 nodecolor
14 /Times-Roman set_font
535 454.8 moveto 97 (address: Classical) alignedtext
grestore
endpage
showpage
grestore
%%PageTrailer
%%EndPage: 1
%%Trailer
end
restore
%%EOF
