%!PS-Adobe-3.0 EPSF-3.0
%%Creator: graphviz version 2.38.0 (20140413.2041)
%%Title: Scala-AM
%%Pages: 1
%%BoundingBox: 36 36 1286 1366
%%EndComments
save
%%BeginProlog
/DotDict 200 dict def
DotDict begin

/setupLatin1 {
mark
/EncodingVector 256 array def
 EncodingVector 0

ISOLatin1Encoding 0 255 getinterval putinterval
EncodingVector 45 /hyphen put

% Set up ISO Latin 1 character encoding
/starnetISO {
        dup dup findfont dup length dict begin
        { 1 index /FID ne { def }{ pop pop } ifelse
        } forall
        /Encoding EncodingVector def
        currentdict end definefont
} def
/Times-Roman starnetISO def
/Times-Italic starnetISO def
/Times-Bold starnetISO def
/Times-BoldItalic starnetISO def
/Helvetica starnetISO def
/Helvetica-Oblique starnetISO def
/Helvetica-Bold starnetISO def
/Helvetica-BoldOblique starnetISO def
/Courier starnetISO def
/Courier-Oblique starnetISO def
/Courier-Bold starnetISO def
/Courier-BoldOblique starnetISO def
cleartomark
} bind def

%%BeginResource: procset graphviz 0 0
/coord-font-family /Times-Roman def
/default-font-family /Times-Roman def
/coordfont coord-font-family findfont 8 scalefont def

/InvScaleFactor 1.0 def
/set_scale {
       dup 1 exch div /InvScaleFactor exch def
       scale
} bind def

% styles
/solid { [] 0 setdash } bind def
/dashed { [9 InvScaleFactor mul dup ] 0 setdash } bind def
/dotted { [1 InvScaleFactor mul 6 InvScaleFactor mul] 0 setdash } bind def
/invis {/fill {newpath} def /stroke {newpath} def /show {pop newpath} def} bind def
/bold { 2 setlinewidth } bind def
/filled { } bind def
/unfilled { } bind def
/rounded { } bind def
/diagonals { } bind def
/tapered { } bind def

% hooks for setting color 
/nodecolor { sethsbcolor } bind def
/edgecolor { sethsbcolor } bind def
/graphcolor { sethsbcolor } bind def
/nopcolor {pop pop pop} bind def

/beginpage {	% i j npages
	/npages exch def
	/j exch def
	/i exch def
	/str 10 string def
	npages 1 gt {
		gsave
			coordfont setfont
			0 0 moveto
			(\() show i str cvs show (,) show j str cvs show (\)) show
		grestore
	} if
} bind def

/set_font {
	findfont exch
	scalefont setfont
} def

% draw text fitted to its expected width
/alignedtext {			% width text
	/text exch def
	/width exch def
	gsave
		width 0 gt {
			[] 0 setdash
			text stringwidth pop width exch sub text length div 0 text ashow
		} if
	grestore
} def

/boxprim {				% xcorner ycorner xsize ysize
		4 2 roll
		moveto
		2 copy
		exch 0 rlineto
		0 exch rlineto
		pop neg 0 rlineto
		closepath
} bind def

/ellipse_path {
	/ry exch def
	/rx exch def
	/y exch def
	/x exch def
	matrix currentmatrix
	newpath
	x y translate
	rx ry scale
	0 0 1 0 360 arc
	setmatrix
} bind def

/endpage { showpage } bind def
/showpage { } def

/layercolorseq
	[	% layer color sequence - darkest to lightest
		[0 0 0]
		[.2 .8 .8]
		[.4 .8 .8]
		[.6 .8 .8]
		[.8 .8 .8]
	]
def

/layerlen layercolorseq length def

/setlayer {/maxlayer exch def /curlayer exch def
	layercolorseq curlayer 1 sub layerlen mod get
	aload pop sethsbcolor
	/nodecolor {nopcolor} def
	/edgecolor {nopcolor} def
	/graphcolor {nopcolor} def
} bind def

/onlayer { curlayer ne {invis} if } def

/onlayers {
	/myupper exch def
	/mylower exch def
	curlayer mylower lt
	curlayer myupper gt
	or
	{invis} if
} def

/curlayer 0 def

%%EndResource
%%EndProlog
%%BeginSetup
14 default-font-family set_font
1 setmiterlimit
% /arrowlength 10 def
% /arrowwidth 5 def

% make sure pdfmark is harmless for PS-interpreters other than Distiller
/pdfmark where {pop} {userdict /pdfmark /cleartomark load put} ifelse
% make '<<' and '>>' safe on PS Level 1 devices
/languagelevel where {pop languagelevel}{1} ifelse
2 lt {
    userdict (<<) cvn ([) cvn load put
    userdict (>>) cvn ([) cvn load put
} if

%%EndSetup
setupLatin1
%%Page: 1 1
%%PageBoundingBox: 36 36 1286 1366
%%PageOrientation: Portrait
0 0 1 beginpage
gsave
36 36 1250 1330 boxprim clip newpath
1 1 set_scale 0 rotate 40 40 translate
% 0
gsave
0.33333 0.33333 1 nodecolor
newpath 958 1291 moveto
7 1291 lineto
7 1255 lineto
958 1255 lineto
closepath fill
1 setlinewidth
filled
0 0 0 nodecolor
newpath 958 1291 moveto
7 1291 lineto
7 1255 lineto
958 1255 lineto
closepath stroke
0 0 0 nodecolor
14 /Times-Roman set_font
15 1269.3 moveto 935 (ev\(\(letrec \(\(fibonacci2 \(lambda \(n fn_1 fn\) \(if \(= n 0\) \(cons fn_1 fn\) \(fibonacci2 \(- n 1\) fn \(+ fn fn_1\)\)\)\)\) \(fibonacci \(lambda \(n\) \(cdr \(fibonacci2 n 1 0\)\)\)\)\) \(fibonacci 10\)\)\)) alignedtext
0 0 0 nodecolor
14 /Times-Roman set_font
0 1294.8 moveto 7 (0) alignedtext
grestore
% 1
gsave
0.33333 0.13333 1 nodecolor
newpath 540 1188 moveto
425 1188 lineto
425 1152 lineto
540 1152 lineto
closepath fill
1 setlinewidth
filled
0 0 0 nodecolor
newpath 540 1188 moveto
425 1188 lineto
425 1152 lineto
540 1152 lineto
closepath stroke
0 0 0 nodecolor
14 /Times-Roman set_font
433 1166.3 moveto 99 (ev\(\(fibonacci 10\)\)) alignedtext
0 0 0 nodecolor
14 /Times-Roman set_font
418 1191.8 moveto 7 (1) alignedtext
grestore
% 0->1
gsave
1 setlinewidth
0 0 0 edgecolor
newpath 482.5 1254.87 moveto
482.5 1239.41 482.5 1216.42 482.5 1198.41 curveto
stroke
0 0 0 edgecolor
newpath 486 1198.22 moveto
482.5 1188.22 lineto
479 1198.22 lineto
closepath fill
1 setlinewidth
solid
0 0 0 edgecolor
newpath 486 1198.22 moveto
482.5 1188.22 lineto
479 1198.22 lineto
closepath stroke
grestore
% 2
gsave
0.33333 0.13333 1 nodecolor
newpath 565.5 1116 moveto
399.5 1116 lineto
399.5 1080 lineto
565.5 1080 lineto
closepath fill
1 setlinewidth
filled
0 0 0 nodecolor
newpath 565.5 1116 moveto
399.5 1116 lineto
399.5 1080 lineto
565.5 1080 lineto
closepath stroke
0 0 0 nodecolor
14 /Times-Roman set_font
407.5 1094.3 moveto 150 (ev\(\(cdr \(fibonacci2 n 1 0\)\)\)) alignedtext
0 0 0 nodecolor
14 /Times-Roman set_font
392.5 1119.8 moveto 7 (2) alignedtext
grestore
% 1->2
gsave
1 setlinewidth
0 0 0 edgecolor
newpath 482.5 1151.7 moveto
482.5 1143.98 482.5 1134.71 482.5 1126.11 curveto
stroke
0 0 0 edgecolor
newpath 486 1126.1 moveto
482.5 1116.1 lineto
479 1126.1 lineto
closepath fill
1 setlinewidth
solid
0 0 0 edgecolor
newpath 486 1126.1 moveto
482.5 1116.1 lineto
479 1126.1 lineto
closepath stroke
grestore
% 3
gsave
0.33333 0.13333 1 nodecolor
newpath 550.5 1044 moveto
414.5 1044 lineto
414.5 1008 lineto
550.5 1008 lineto
closepath fill
1 setlinewidth
filled
0 0 0 nodecolor
newpath 550.5 1044 moveto
414.5 1044 lineto
414.5 1008 lineto
550.5 1008 lineto
closepath stroke
0 0 0 nodecolor
14 /Times-Roman set_font
422.5 1022.3 moveto 120 (ev\(\(fibonacci2 n 1 0\)\)) alignedtext
0 0 0 nodecolor
14 /Times-Roman set_font
407.5 1047.8 moveto 7 (3) alignedtext
grestore
% 2->3
gsave
1 setlinewidth
0 0 0 edgecolor
newpath 482.5 1079.7 moveto
482.5 1071.98 482.5 1062.71 482.5 1054.11 curveto
stroke
0 0 0 edgecolor
newpath 486 1054.1 moveto
482.5 1044.1 lineto
479 1054.1 lineto
closepath fill
1 setlinewidth
solid
0 0 0 edgecolor
newpath 486 1054.1 moveto
482.5 1044.1 lineto
479 1054.1 lineto
closepath stroke
grestore
% 4
gsave
0.33333 0.13333 1 nodecolor
newpath 665.5 972 moveto
299.5 972 lineto
299.5 936 lineto
665.5 936 lineto
closepath fill
1 setlinewidth
filled
0 0 0 nodecolor
newpath 665.5 972 moveto
299.5 972 lineto
299.5 936 lineto
665.5 936 lineto
closepath stroke
0 0 0 nodecolor
14 /Times-Roman set_font
307.5 950.3 moveto 350 (ev\(\(if \(= n 0\) \(cons fn_1 fn\) \(fibonacci2 \(- n 1\) fn \(+ fn fn_1\)\)\)\)) alignedtext
0 0 0 nodecolor
14 /Times-Roman set_font
292.5 975.8 moveto 7 (4) alignedtext
grestore
% 3->4
gsave
1 setlinewidth
0 0 0 edgecolor
newpath 482.5 1007.7 moveto
482.5 999.98 482.5 990.71 482.5 982.11 curveto
stroke
0 0 0 edgecolor
newpath 486 982.1 moveto
482.5 972.1 lineto
479 982.1 lineto
closepath fill
1 setlinewidth
solid
0 0 0 edgecolor
newpath 486 982.1 moveto
482.5 972.1 lineto
479 982.1 lineto
closepath stroke
grestore
% 5
gsave
0.33333 0.13333 1 nodecolor
newpath 521 900 moveto
444 900 lineto
444 864 lineto
521 864 lineto
closepath fill
1 setlinewidth
filled
0 0 0 nodecolor
newpath 521 900 moveto
444 900 lineto
444 864 lineto
521 864 lineto
closepath stroke
0 0 0 nodecolor
14 /Times-Roman set_font
452 878.3 moveto 61 (ev\(\(= n 0\)\)) alignedtext
0 0 0 nodecolor
14 /Times-Roman set_font
437 903.8 moveto 7 (5) alignedtext
grestore
% 4->5
gsave
1 setlinewidth
0 0 0 edgecolor
newpath 482.5 935.7 moveto
482.5 927.98 482.5 918.71 482.5 910.11 curveto
stroke
0 0 0 edgecolor
newpath 486 910.1 moveto
482.5 900.1 lineto
479 910.1 lineto
closepath fill
1 setlinewidth
solid
0 0 0 edgecolor
newpath 486 910.1 moveto
482.5 900.1 lineto
479 910.1 lineto
closepath stroke
grestore
% 6
gsave
0.66667 0.13333 1 nodecolor
newpath 521.5 828 moveto
443.5 828 lineto
443.5 792 lineto
521.5 792 lineto
closepath fill
1 setlinewidth
filled
0 0 0 nodecolor
newpath 521.5 828 moveto
443.5 828 lineto
443.5 792 lineto
521.5 792 lineto
closepath stroke
0 0 0 nodecolor
14 /Times-Roman set_font
451.5 806.3 moveto 62 (ko\({#f,#t}\)) alignedtext
0 0 0 nodecolor
14 /Times-Roman set_font
436.5 831.8 moveto 7 (6) alignedtext
grestore
% 5->6
gsave
1 setlinewidth
0 0 0 edgecolor
newpath 482.5 863.7 moveto
482.5 855.98 482.5 846.71 482.5 838.11 curveto
stroke
0 0 0 edgecolor
newpath 486 838.1 moveto
482.5 828.1 lineto
479 838.1 lineto
closepath fill
1 setlinewidth
solid
0 0 0 edgecolor
newpath 486 838.1 moveto
482.5 828.1 lineto
479 838.1 lineto
closepath stroke
grestore
% 7
gsave
0.33333 0.13333 1 nodecolor
newpath 447.5 756 moveto
331.5 756 lineto
331.5 720 lineto
447.5 720 lineto
closepath fill
1 setlinewidth
filled
0 0 0 nodecolor
newpath 447.5 756 moveto
331.5 756 lineto
331.5 720 lineto
447.5 720 lineto
closepath stroke
0 0 0 nodecolor
14 /Times-Roman set_font
339.5 734.3 moveto 100 (ev\(\(cons fn_1 fn\)\)) alignedtext
0 0 0 nodecolor
14 /Times-Roman set_font
324.5 759.8 moveto 7 (7) alignedtext
grestore
% 6->7
gsave
1 setlinewidth
0 0 0 edgecolor
newpath 459.51 791.7 moveto
447.69 782.8 433.11 771.82 420.32 762.2 curveto
stroke
0 0 0 edgecolor
newpath 422.32 759.32 moveto
412.22 756.1 lineto
418.11 764.91 lineto
closepath fill
1 setlinewidth
solid
0 0 0 edgecolor
newpath 422.32 759.32 moveto
412.22 756.1 lineto
418.11 764.91 lineto
closepath stroke
grestore
% 8
gsave
0.33333 0.13333 1 nodecolor
newpath 687.5 756 moveto
465.5 756 lineto
465.5 720 lineto
687.5 720 lineto
closepath fill
1 setlinewidth
filled
0 0 0 nodecolor
newpath 687.5 756 moveto
465.5 756 lineto
465.5 720 lineto
687.5 720 lineto
closepath stroke
0 0 0 nodecolor
14 /Times-Roman set_font
473.5 734.3 moveto 206 (ev\(\(fibonacci2 \(- n 1\) fn \(+ fn fn_1\)\)\)) alignedtext
0 0 0 nodecolor
14 /Times-Roman set_font
458.5 759.8 moveto 7 (8) alignedtext
grestore
% 6->8
gsave
1 setlinewidth
0 0 0 edgecolor
newpath 505.74 791.7 moveto
517.69 782.8 532.42 771.82 545.35 762.2 curveto
stroke
0 0 0 edgecolor
newpath 547.6 764.88 moveto
553.53 756.1 lineto
543.42 759.27 lineto
closepath fill
1 setlinewidth
solid
0 0 0 edgecolor
newpath 547.6 764.88 moveto
553.53 756.1 lineto
543.42 759.27 lineto
closepath stroke
grestore
% 9
gsave
0.66667 0.13333 1 nodecolor
newpath 503 684 moveto
276 684 lineto
276 648 lineto
503 648 lineto
closepath fill
1 setlinewidth
filled
0 0 0 nodecolor
newpath 503 684 moveto
276 684 lineto
276 648 lineto
503 648 lineto
closepath stroke
0 0 0 nodecolor
14 /Times-Roman set_font
284 662.3 moveto 211 (ko\(Cons\(@fn_1-Time\(\),@fn-Time\(\)\)\)) alignedtext
0 0 0 nodecolor
14 /Times-Roman set_font
269 687.8 moveto 7 (9) alignedtext
grestore
% 7->9
gsave
1 setlinewidth
0 0 0 edgecolor
newpath 389.5 719.7 moveto
389.5 711.98 389.5 702.71 389.5 694.11 curveto
stroke
0 0 0 edgecolor
newpath 393 694.1 moveto
389.5 684.1 lineto
386 694.1 lineto
closepath fill
1 setlinewidth
solid
0 0 0 edgecolor
newpath 393 694.1 moveto
389.5 684.1 lineto
386 694.1 lineto
closepath stroke
grestore
% 10
gsave
0.33333 0.13333 1 nodecolor
newpath 613 684 moveto
540 684 lineto
540 648 lineto
613 648 lineto
closepath fill
1 setlinewidth
filled
0 0 0 nodecolor
newpath 613 684 moveto
540 684 lineto
540 648 lineto
613 648 lineto
closepath stroke
0 0 0 nodecolor
14 /Times-Roman set_font
548 662.3 moveto 57 (ev\(\(- n 1\)\)) alignedtext
0 0 0 nodecolor
14 /Times-Roman set_font
526 687.8 moveto 14 (10) alignedtext
grestore
% 8->10
gsave
1 setlinewidth
0 0 0 edgecolor
newpath 576.5 719.7 moveto
576.5 711.98 576.5 702.71 576.5 694.11 curveto
stroke
0 0 0 edgecolor
newpath 580 694.1 moveto
576.5 684.1 lineto
573 694.1 lineto
closepath fill
1 setlinewidth
solid
0 0 0 edgecolor
newpath 580 694.1 moveto
576.5 684.1 lineto
573 694.1 lineto
closepath stroke
grestore
% 11
gsave
0.16667 0.33333 1 nodecolor
newpath 416.5 612 moveto
362.5 612 lineto
362.5 576 lineto
416.5 576 lineto
closepath fill
1 setlinewidth
filled
0 0 0 nodecolor
newpath 416.5 612 moveto
362.5 612 lineto
362.5 576 lineto
416.5 576 lineto
closepath stroke
0 0 0 nodecolor
14 /Times-Roman set_font
370.5 590.3 moveto 38 (ko\(Int\)) alignedtext
0 0 0 nodecolor
14 /Times-Roman set_font
348.5 615.8 moveto 14 (11) alignedtext
grestore
% 9->11
gsave
1 setlinewidth
0 0 0 edgecolor
newpath 389.5 647.7 moveto
389.5 639.98 389.5 630.71 389.5 622.11 curveto
stroke
0 0 0 edgecolor
newpath 393 622.1 moveto
389.5 612.1 lineto
386 622.1 lineto
closepath fill
1 setlinewidth
solid
0 0 0 edgecolor
newpath 393 622.1 moveto
389.5 612.1 lineto
386 622.1 lineto
closepath stroke
grestore
% 12
gsave
0.66667 0.13333 1 nodecolor
newpath 603.5 612 moveto
549.5 612 lineto
549.5 576 lineto
603.5 576 lineto
closepath fill
1 setlinewidth
filled
0 0 0 nodecolor
newpath 603.5 612 moveto
549.5 612 lineto
549.5 576 lineto
603.5 576 lineto
closepath stroke
0 0 0 nodecolor
14 /Times-Roman set_font
557.5 590.3 moveto 38 (ko\(Int\)) alignedtext
0 0 0 nodecolor
14 /Times-Roman set_font
535.5 615.8 moveto 14 (12) alignedtext
grestore
% 10->12
gsave
1 setlinewidth
0 0 0 edgecolor
newpath 576.5 647.7 moveto
576.5 639.98 576.5 630.71 576.5 622.11 curveto
stroke
0 0 0 edgecolor
newpath 580 622.1 moveto
576.5 612.1 lineto
573 622.1 lineto
closepath fill
1 setlinewidth
solid
0 0 0 edgecolor
newpath 580 622.1 moveto
576.5 612.1 lineto
573 622.1 lineto
closepath stroke
grestore
% 13
gsave
0.33333 0.13333 1 nodecolor
newpath 626 540 moveto
527 540 lineto
527 504 lineto
626 504 lineto
closepath fill
1 setlinewidth
filled
0 0 0 nodecolor
newpath 626 540 moveto
527 540 lineto
527 504 lineto
626 504 lineto
closepath stroke
0 0 0 nodecolor
14 /Times-Roman set_font
535 518.3 moveto 83 (ev\(\(+ fn fn_1\)\)) alignedtext
0 0 0 nodecolor
14 /Times-Roman set_font
513 543.8 moveto 14 (13) alignedtext
grestore
% 12->13
gsave
1 setlinewidth
0 0 0 edgecolor
newpath 576.5 575.7 moveto
576.5 567.98 576.5 558.71 576.5 550.11 curveto
stroke
0 0 0 edgecolor
newpath 580 550.1 moveto
576.5 540.1 lineto
573 550.1 lineto
closepath fill
1 setlinewidth
solid
0 0 0 edgecolor
newpath 580 550.1 moveto
576.5 540.1 lineto
573 550.1 lineto
closepath stroke
grestore
% 14
gsave
0.66667 0.13333 1 nodecolor
newpath 498.5 468 moveto
444.5 468 lineto
444.5 432 lineto
498.5 432 lineto
closepath fill
1 setlinewidth
filled
0 0 0 nodecolor
newpath 498.5 468 moveto
444.5 468 lineto
444.5 432 lineto
498.5 432 lineto
closepath stroke
0 0 0 nodecolor
14 /Times-Roman set_font
452.5 446.3 moveto 38 (ko\(Int\)) alignedtext
0 0 0 nodecolor
14 /Times-Roman set_font
430.5 471.8 moveto 14 (14) alignedtext
grestore
% 13->14
gsave
1 setlinewidth
0 0 0 edgecolor
newpath 550.81 503.88 moveto
537.21 494.81 520.33 483.55 505.64 473.76 curveto
stroke
0 0 0 edgecolor
newpath 507.55 470.82 moveto
497.28 468.19 lineto
503.66 476.65 lineto
closepath fill
1 setlinewidth
solid
0 0 0 edgecolor
newpath 507.55 470.82 moveto
497.28 468.19 lineto
503.66 476.65 lineto
closepath stroke
grestore
% 15
gsave
0.33333 0.13333 1 nodecolor
newpath 601.5 396 moveto
235.5 396 lineto
235.5 360 lineto
601.5 360 lineto
closepath fill
1 setlinewidth
filled
0 0 0 nodecolor
newpath 601.5 396 moveto
235.5 396 lineto
235.5 360 lineto
601.5 360 lineto
closepath stroke
0 0 0 nodecolor
14 /Times-Roman set_font
243.5 374.3 moveto 350 (ev\(\(if \(= n 0\) \(cons fn_1 fn\) \(fibonacci2 \(- n 1\) fn \(+ fn fn_1\)\)\)\)) alignedtext
0 0 0 nodecolor
14 /Times-Roman set_font
221.5 399.8 moveto 14 (15) alignedtext
grestore
% 14->15
gsave
1 setlinewidth
0 0 0 edgecolor
newpath 458.4 431.7 moveto
452.11 423.39 444.45 413.28 437.54 404.14 curveto
stroke
0 0 0 edgecolor
newpath 440.28 401.96 moveto
431.45 396.1 lineto
434.7 406.19 lineto
closepath fill
1 setlinewidth
solid
0 0 0 edgecolor
newpath 440.28 401.96 moveto
431.45 396.1 lineto
434.7 406.19 lineto
closepath stroke
grestore
% 16
gsave
0.33333 0.13333 1 nodecolor
newpath 457 324 moveto
380 324 lineto
380 288 lineto
457 288 lineto
closepath fill
1 setlinewidth
filled
0 0 0 nodecolor
newpath 457 324 moveto
380 324 lineto
380 288 lineto
457 288 lineto
closepath stroke
0 0 0 nodecolor
14 /Times-Roman set_font
388 302.3 moveto 61 (ev\(\(= n 0\)\)) alignedtext
0 0 0 nodecolor
14 /Times-Roman set_font
366 327.8 moveto 14 (16) alignedtext
grestore
% 15->16
gsave
1 setlinewidth
0 0 0 edgecolor
newpath 418.5 359.7 moveto
418.5 351.98 418.5 342.71 418.5 334.11 curveto
stroke
0 0 0 edgecolor
newpath 422 334.1 moveto
418.5 324.1 lineto
415 334.1 lineto
closepath fill
1 setlinewidth
solid
0 0 0 edgecolor
newpath 422 334.1 moveto
418.5 324.1 lineto
415 334.1 lineto
closepath stroke
grestore
% 17
gsave
0.66667 0.13333 1 nodecolor
newpath 457.5 252 moveto
379.5 252 lineto
379.5 216 lineto
457.5 216 lineto
closepath fill
1 setlinewidth
filled
0 0 0 nodecolor
newpath 457.5 252 moveto
379.5 252 lineto
379.5 216 lineto
457.5 216 lineto
closepath stroke
0 0 0 nodecolor
14 /Times-Roman set_font
387.5 230.3 moveto 62 (ko\({#f,#t}\)) alignedtext
0 0 0 nodecolor
14 /Times-Roman set_font
365.5 255.8 moveto 14 (17) alignedtext
grestore
% 16->17
gsave
1 setlinewidth
0 0 0 edgecolor
newpath 418.5 287.7 moveto
418.5 279.98 418.5 270.71 418.5 262.11 curveto
stroke
0 0 0 edgecolor
newpath 422 262.1 moveto
418.5 252.1 lineto
415 262.1 lineto
closepath fill
1 setlinewidth
solid
0 0 0 edgecolor
newpath 422 262.1 moveto
418.5 252.1 lineto
415 262.1 lineto
closepath stroke
grestore
% 18
gsave
0.33333 0.13333 1 nodecolor
newpath 361.5 180 moveto
245.5 180 lineto
245.5 144 lineto
361.5 144 lineto
closepath fill
1 setlinewidth
filled
0 0 0 nodecolor
newpath 361.5 180 moveto
245.5 180 lineto
245.5 144 lineto
361.5 144 lineto
closepath stroke
0 0 0 nodecolor
14 /Times-Roman set_font
253.5 158.3 moveto 100 (ev\(\(cons fn_1 fn\)\)) alignedtext
0 0 0 nodecolor
14 /Times-Roman set_font
231.5 183.8 moveto 14 (18) alignedtext
grestore
% 17->18
gsave
1 setlinewidth
0 0 0 edgecolor
newpath 390.37 215.88 moveto
375.33 206.72 356.63 195.34 340.44 185.48 curveto
stroke
0 0 0 edgecolor
newpath 342.1 182.4 moveto
331.74 180.19 lineto
338.46 188.38 lineto
closepath fill
1 setlinewidth
solid
0 0 0 edgecolor
newpath 342.1 182.4 moveto
331.74 180.19 lineto
338.46 188.38 lineto
closepath stroke
grestore
% 19
gsave
0.33333 0.13333 1 nodecolor
newpath 601.5 180 moveto
379.5 180 lineto
379.5 144 lineto
601.5 144 lineto
closepath fill
1 setlinewidth
filled
0 0 0 nodecolor
newpath 601.5 180 moveto
379.5 180 lineto
379.5 144 lineto
601.5 144 lineto
closepath stroke
0 0 0 nodecolor
14 /Times-Roman set_font
387.5 158.3 moveto 206 (ev\(\(fibonacci2 \(- n 1\) fn \(+ fn fn_1\)\)\)) alignedtext
0 0 0 nodecolor
14 /Times-Roman set_font
365.5 183.8 moveto 14 (19) alignedtext
grestore
% 17->19
gsave
1 setlinewidth
0 0 0 edgecolor
newpath 436.3 215.7 moveto
445.1 207.14 455.88 196.66 465.5 187.3 curveto
stroke
0 0 0 edgecolor
newpath 468.18 189.58 moveto
472.91 180.1 lineto
463.3 184.57 lineto
closepath fill
1 setlinewidth
solid
0 0 0 edgecolor
newpath 468.18 189.58 moveto
472.91 180.1 lineto
463.3 184.57 lineto
closepath stroke
grestore
% 20
gsave
0.66667 0.13333 1 nodecolor
newpath 417 108 moveto
190 108 lineto
190 72 lineto
417 72 lineto
closepath fill
1 setlinewidth
filled
0 0 0 nodecolor
newpath 417 108 moveto
190 108 lineto
190 72 lineto
417 72 lineto
closepath stroke
0 0 0 nodecolor
14 /Times-Roman set_font
198 86.3 moveto 211 (ko\(Cons\(@fn_1-Time\(\),@fn-Time\(\)\)\)) alignedtext
0 0 0 nodecolor
14 /Times-Roman set_font
176 111.8 moveto 14 (20) alignedtext
grestore
% 18->20
gsave
1 setlinewidth
0 0 0 edgecolor
newpath 303.5 143.7 moveto
303.5 135.98 303.5 126.71 303.5 118.11 curveto
stroke
0 0 0 edgecolor
newpath 307 118.1 moveto
303.5 108.1 lineto
300 118.1 lineto
closepath fill
1 setlinewidth
solid
0 0 0 edgecolor
newpath 307 118.1 moveto
303.5 108.1 lineto
300 118.1 lineto
closepath stroke
grestore
% 21
gsave
0.33333 0.13333 1 nodecolor
newpath 564 108 moveto
491 108 lineto
491 72 lineto
564 72 lineto
closepath fill
1 setlinewidth
filled
0 0 0 nodecolor
newpath 564 108 moveto
491 108 lineto
491 72 lineto
564 72 lineto
closepath stroke
0 0 0 nodecolor
14 /Times-Roman set_font
499 86.3 moveto 57 (ev\(\(- n 1\)\)) alignedtext
0 0 0 nodecolor
14 /Times-Roman set_font
477 111.8 moveto 14 (21) alignedtext
grestore
% 19->21
gsave
1 setlinewidth
0 0 0 edgecolor
newpath 499.65 143.7 moveto
503.9 135.64 509.06 125.89 513.77 116.98 curveto
stroke
0 0 0 edgecolor
newpath 516.88 118.58 moveto
518.46 108.1 lineto
510.69 115.31 lineto
closepath fill
1 setlinewidth
solid
0 0 0 edgecolor
newpath 516.88 118.58 moveto
518.46 108.1 lineto
510.69 115.31 lineto
closepath stroke
grestore
% 22
gsave
0.16667 0.33333 1 nodecolor
newpath 330.5 36 moveto
276.5 36 lineto
276.5 0 lineto
330.5 0 lineto
closepath fill
1 setlinewidth
filled
0 0 0 nodecolor
newpath 330.5 36 moveto
276.5 36 lineto
276.5 0 lineto
330.5 0 lineto
closepath stroke
0 0 0 nodecolor
14 /Times-Roman set_font
284.5 14.3 moveto 38 (ko\(Int\)) alignedtext
0 0 0 nodecolor
14 /Times-Roman set_font
262.5 39.8 moveto 14 (22) alignedtext
grestore
% 20->22
gsave
1 setlinewidth
0 0 0 edgecolor
newpath 303.5 71.7 moveto
303.5 63.98 303.5 54.71 303.5 46.11 curveto
stroke
0 0 0 edgecolor
newpath 307 46.1 moveto
303.5 36.1 lineto
300 46.1 lineto
closepath fill
1 setlinewidth
solid
0 0 0 edgecolor
newpath 307 46.1 moveto
303.5 36.1 lineto
300 46.1 lineto
closepath stroke
grestore
% 23
gsave
0.66667 0.13333 1 nodecolor
newpath 605.5 36 moveto
551.5 36 lineto
551.5 0 lineto
605.5 0 lineto
closepath fill
1 setlinewidth
filled
0 0 0 nodecolor
newpath 605.5 36 moveto
551.5 36 lineto
551.5 0 lineto
605.5 0 lineto
closepath stroke
0 0 0 nodecolor
14 /Times-Roman set_font
559.5 14.3 moveto 38 (ko\(Int\)) alignedtext
0 0 0 nodecolor
14 /Times-Roman set_font
537.5 39.8 moveto 14 (23) alignedtext
grestore
% 21->23
gsave
1 setlinewidth
0 0 0 edgecolor
newpath 540.11 71.7 moveto
546.1 63.47 553.38 53.48 559.98 44.42 curveto
stroke
0 0 0 edgecolor
newpath 562.98 46.25 moveto
566.04 36.1 lineto
557.32 42.13 lineto
closepath fill
1 setlinewidth
solid
0 0 0 edgecolor
newpath 562.98 46.25 moveto
566.04 36.1 lineto
557.32 42.13 lineto
closepath stroke
grestore
% 23->13
gsave
1 setlinewidth
0 0 0 edgecolor
newpath 589.07 36.21 moveto
604.01 62.23 629.5 113.59 629.5 161 curveto
629.5 379 629.5 379 629.5 379 curveto
629.5 421.79 608.11 467.52 592.51 495.18 curveto
stroke
0 0 0 edgecolor
newpath 589.48 493.44 moveto
587.48 503.84 lineto
595.53 496.95 lineto
closepath fill
1 setlinewidth
solid
0 0 0 edgecolor
newpath 589.48 493.44 moveto
587.48 503.84 lineto
595.53 496.95 lineto
closepath stroke
grestore
% stats
gsave
1 setlinewidth
0 0 0 nodecolor
newpath 1095 1322 moveto
1095 1322 988 1322 988 1322 curveto
982 1322 976 1316 976 1310 curveto
976 1310 976 1236 976 1236 curveto
976 1230 982 1224 988 1224 curveto
988 1224 1095 1224 1095 1224 curveto
1101 1224 1107 1230 1107 1236 curveto
1107 1236 1107 1310 1107 1310 curveto
1107 1316 1101 1322 1095 1322 curveto
stroke
0 0 0 nodecolor
14 /Times-Roman set_font
984 1306.8 moveto 60 (#nodes: 24) alignedtext
0 0 0 nodecolor
14 /Times-Roman set_font
984 1291.8 moveto 59 (#edges: 24) alignedtext
0 0 0 nodecolor
14 /Times-Roman set_font
984 1276.8 moveto 112 (graph density: 0,043) alignedtext
0 0 0 nodecolor
14 /Times-Roman set_font
984 1261.8 moveto 94 (outdegree min: 1) alignedtext
0 0 0 nodecolor
14 /Times-Roman set_font
984 1246.8 moveto 96 (outdegree max: 2) alignedtext
0 0 0 nodecolor
14 /Times-Roman set_font
984 1231.8 moveto 115 (outdegree avg: 1,000) alignedtext
grestore
% config
gsave
1 setlinewidth
0 0 0 nodecolor
newpath 1229.5 1307 moveto
1229.5 1307 1137.5 1307 1137.5 1307 curveto
1131.5 1307 1125.5 1301 1125.5 1295 curveto
1125.5 1295 1125.5 1251 1125.5 1251 curveto
1125.5 1245 1131.5 1239 1137.5 1239 curveto
1137.5 1239 1229.5 1239 1229.5 1239 curveto
1235.5 1239 1241.5 1245 1241.5 1251 curveto
1241.5 1251 1241.5 1295 1241.5 1295 curveto
1241.5 1301 1235.5 1307 1229.5 1307 curveto
stroke
0 0 0 nodecolor
14 /Times-Roman set_font
1133.5 1291.8 moveto 100 (language: Scheme) alignedtext
0 0 0 nodecolor
14 /Times-Roman set_font
1133.5 1276.8 moveto 87 (machine: AAM) alignedtext
0 0 0 nodecolor
14 /Times-Roman set_font
1133.5 1261.8 moveto 86 (lattice: TypeSet) alignedtext
0 0 0 nodecolor
14 /Times-Roman set_font
1133.5 1246.8 moveto 97 (address: Classical) alignedtext
grestore
endpage
showpage
grestore
%%PageTrailer
%%EndPage: 1
%%Trailer
end
restore
%%EOF
