%!PS-Adobe-3.0 EPSF-3.0
%%Creator: graphviz version 2.38.0 (20140413.2041)
%%Title: Scala-Par-AM Scheme-examples/OPi/tree/tree_04.scm
%%Pages: 1
%%BoundingBox: 36 36 1585 1175
%%EndComments
save
%%BeginProlog
/DotDict 200 dict def
DotDict begin

/setupLatin1 {
mark
/EncodingVector 256 array def
 EncodingVector 0

ISOLatin1Encoding 0 255 getinterval putinterval
EncodingVector 45 /hyphen put

% Set up ISO Latin 1 character encoding
/starnetISO {
        dup dup findfont dup length dict begin
        { 1 index /FID ne { def }{ pop pop } ifelse
        } forall
        /Encoding EncodingVector def
        currentdict end definefont
} def
/Times-Roman starnetISO def
/Times-Italic starnetISO def
/Times-Bold starnetISO def
/Times-BoldItalic starnetISO def
/Helvetica starnetISO def
/Helvetica-Oblique starnetISO def
/Helvetica-Bold starnetISO def
/Helvetica-BoldOblique starnetISO def
/Courier starnetISO def
/Courier-Oblique starnetISO def
/Courier-Bold starnetISO def
/Courier-BoldOblique starnetISO def
cleartomark
} bind def

%%BeginResource: procset graphviz 0 0
/coord-font-family /Times-Roman def
/default-font-family /Times-Roman def
/coordfont coord-font-family findfont 8 scalefont def

/InvScaleFactor 1.0 def
/set_scale {
       dup 1 exch div /InvScaleFactor exch def
       scale
} bind def

% styles
/solid { [] 0 setdash } bind def
/dashed { [9 InvScaleFactor mul dup ] 0 setdash } bind def
/dotted { [1 InvScaleFactor mul 6 InvScaleFactor mul] 0 setdash } bind def
/invis {/fill {newpath} def /stroke {newpath} def /show {pop newpath} def} bind def
/bold { 2 setlinewidth } bind def
/filled { } bind def
/unfilled { } bind def
/rounded { } bind def
/diagonals { } bind def
/tapered { } bind def

% hooks for setting color 
/nodecolor { sethsbcolor } bind def
/edgecolor { sethsbcolor } bind def
/graphcolor { sethsbcolor } bind def
/nopcolor {pop pop pop} bind def

/beginpage {	% i j npages
	/npages exch def
	/j exch def
	/i exch def
	/str 10 string def
	npages 1 gt {
		gsave
			coordfont setfont
			0 0 moveto
			(\() show i str cvs show (,) show j str cvs show (\)) show
		grestore
	} if
} bind def

/set_font {
	findfont exch
	scalefont setfont
} def

% draw text fitted to its expected width
/alignedtext {			% width text
	/text exch def
	/width exch def
	gsave
		width 0 gt {
			[] 0 setdash
			text stringwidth pop width exch sub text length div 0 text ashow
		} if
	grestore
} def

/boxprim {				% xcorner ycorner xsize ysize
		4 2 roll
		moveto
		2 copy
		exch 0 rlineto
		0 exch rlineto
		pop neg 0 rlineto
		closepath
} bind def

/ellipse_path {
	/ry exch def
	/rx exch def
	/y exch def
	/x exch def
	matrix currentmatrix
	newpath
	x y translate
	rx ry scale
	0 0 1 0 360 arc
	setmatrix
} bind def

/endpage { showpage } bind def
/showpage { } def

/layercolorseq
	[	% layer color sequence - darkest to lightest
		[0 0 0]
		[.2 .8 .8]
		[.4 .8 .8]
		[.6 .8 .8]
		[.8 .8 .8]
	]
def

/layerlen layercolorseq length def

/setlayer {/maxlayer exch def /curlayer exch def
	layercolorseq curlayer 1 sub layerlen mod get
	aload pop sethsbcolor
	/nodecolor {nopcolor} def
	/edgecolor {nopcolor} def
	/graphcolor {nopcolor} def
} bind def

/onlayer { curlayer ne {invis} if } def

/onlayers {
	/myupper exch def
	/mylower exch def
	curlayer mylower lt
	curlayer myupper gt
	or
	{invis} if
} def

/curlayer 0 def

%%EndResource
%%EndProlog
%%BeginSetup
14 default-font-family set_font
1 setmiterlimit
% /arrowlength 10 def
% /arrowwidth 5 def

% make sure pdfmark is harmless for PS-interpreters other than Distiller
/pdfmark where {pop} {userdict /pdfmark /cleartomark load put} ifelse
% make '<<' and '>>' safe on PS Level 1 devices
/languagelevel where {pop languagelevel}{1} ifelse
2 lt {
    userdict (<<) cvn ([) cvn load put
    userdict (>>) cvn ([) cvn load put
} if

%%EndSetup
setupLatin1
%%Page: 1 1
%%PageBoundingBox: 36 36 1585 1175
%%PageOrientation: Portrait
0 0 1 beginpage
gsave
36 36 1549 1139 boxprim clip newpath
1 1 set_scale 0 rotate 40 40 translate
% 0
gsave
0.33333 0.33333 1 nodecolor
newpath 1541 1116 moveto
8 1116 lineto
8 1080 lineto
1541 1080 lineto
closepath fill
1 setlinewidth
filled
0 0 0 nodecolor
newpath 1541 1116 moveto
8 1116 lineto
8 1080 lineto
1541 1080 lineto
closepath stroke
0 0 0 nodecolor
14 /Times-Roman set_font
16 1094.3 moveto 1517 (\(letrec \(\(tree \(lambda \(n\) \(if \(>= n 0\) \(if \(>= n 1\) \(if \(>= n 2\) \(if \(>= n 3\) 0 1\) \(if \(>= n 3\) 2 3\)\) \(if \(>= n 2\) \(if \(>= n 3\) 4 5\) \(if \(>= n 3\) 6 7\)\)\) \(if \(>= n 1\) \(if \(>= n 2\) \(if \(>= n 3\) 8 9\) \(if \(>= n 3\) 10 11\)\) \(if \(>= n 2\) \(if \(>= n 3\) 12 13\) \(if \(>= n 3\) 14 15\)\)\)\)\)\)\) \(tree 0\)\)) alignedtext
0 0 0 nodecolor
14 /Times-Roman set_font
0 1119.8 moveto 8 (0) alignedtext
grestore
% 1
gsave
0.33333 0.13333 1 nodecolor
newpath 804 1044 moveto
745 1044 lineto
745 1008 lineto
804 1008 lineto
closepath fill
1 setlinewidth
filled
0 0 0 nodecolor
newpath 804 1044 moveto
745 1044 lineto
745 1008 lineto
804 1008 lineto
closepath stroke
0 0 0 nodecolor
14 /Times-Roman set_font
753 1022.3 moveto 43 (\(tree 0\)) alignedtext
0 0 0 nodecolor
14 /Times-Roman set_font
738 1047.8 moveto 7 (1) alignedtext
grestore
% 0->1
gsave
1 setlinewidth
0 0 0 edgecolor
newpath 774.5 1079.7 moveto
774.5 1071.98 774.5 1062.71 774.5 1054.11 curveto
stroke
0 0 0 edgecolor
newpath 778 1054.1 moveto
774.5 1044.1 lineto
771 1054.1 lineto
closepath fill
1 setlinewidth
solid
0 0 0 edgecolor
newpath 778 1054.1 moveto
774.5 1044.1 lineto
771 1054.1 lineto
closepath stroke
grestore
% 2
gsave
0.33333 0.13333 1 nodecolor
newpath 1435 972 moveto
114 972 lineto
114 936 lineto
1435 936 lineto
closepath fill
1 setlinewidth
filled
0 0 0 nodecolor
newpath 1435 972 moveto
114 972 lineto
114 936 lineto
1435 936 lineto
closepath stroke
0 0 0 nodecolor
14 /Times-Roman set_font
122 950.3 moveto 1305 (\(if \(>= n 0\) \(if \(>= n 1\) \(if \(>= n 2\) \(if \(>= n 3\) 0 1\) \(if \(>= n 3\) 2 3\)\) \(if \(>= n 2\) \(if \(>= n 3\) 4 5\) \(if \(>= n 3\) 6 7\)\)\) \(if \(>= n 1\) \(if \(>= n 2\) \(if \(>= n 3\) 8 9\) \(if \(>= n 3\) 10 11\)\) \(if \(>= n 2\) \(if \(>= n 3\) 12 13\) \(if \(>= n 3\) 14 15\)\)\)\)) alignedtext
0 0 0 nodecolor
14 /Times-Roman set_font
107 975.8 moveto 7 (2) alignedtext
grestore
% 1->2
gsave
1 setlinewidth
0 0 0 edgecolor
newpath 774.5 1007.7 moveto
774.5 999.98 774.5 990.71 774.5 982.11 curveto
stroke
0 0 0 edgecolor
newpath 778 982.1 moveto
774.5 972.1 lineto
771 982.1 lineto
closepath fill
1 setlinewidth
solid
0 0 0 edgecolor
newpath 778 982.1 moveto
774.5 972.1 lineto
771 982.1 lineto
closepath stroke
grestore
% 3
gsave
0.33333 0.13333 1 nodecolor
newpath 807 900 moveto
742 900 lineto
742 864 lineto
807 864 lineto
closepath fill
1 setlinewidth
filled
0 0 0 nodecolor
newpath 807 900 moveto
742 900 lineto
742 864 lineto
807 864 lineto
closepath stroke
0 0 0 nodecolor
14 /Times-Roman set_font
750 878.3 moveto 49 (\(>= n 0\)) alignedtext
0 0 0 nodecolor
14 /Times-Roman set_font
735 903.8 moveto 7 (3) alignedtext
grestore
% 2->3
gsave
1 setlinewidth
0 0 0 edgecolor
newpath 774.5 935.7 moveto
774.5 927.98 774.5 918.71 774.5 910.11 curveto
stroke
0 0 0 edgecolor
newpath 778 910.1 moveto
774.5 900.1 lineto
771 910.1 lineto
closepath fill
1 setlinewidth
solid
0 0 0 edgecolor
newpath 778 910.1 moveto
774.5 900.1 lineto
771 910.1 lineto
closepath stroke
grestore
% 4
gsave
0.66667 0.13333 1 nodecolor
newpath 809 828 moveto
740 828 lineto
740 792 lineto
809 792 lineto
closepath fill
1 setlinewidth
filled
0 0 0 nodecolor
newpath 809 828 moveto
740 828 lineto
740 792 lineto
809 792 lineto
closepath stroke
0 0 0 nodecolor
14 /Times-Roman set_font
748 806.3 moveto 53 (ko\(Bool\)) alignedtext
0 0 0 nodecolor
14 /Times-Roman set_font
731 831.8 moveto 9 (4) alignedtext
grestore
% 3->4
gsave
1 setlinewidth
0 0 0 edgecolor
newpath 774.5 863.7 moveto
774.5 855.98 774.5 846.71 774.5 838.11 curveto
stroke
0 0 0 edgecolor
newpath 778 838.1 moveto
774.5 828.1 lineto
771 838.1 lineto
closepath fill
1 setlinewidth
solid
0 0 0 edgecolor
newpath 778 838.1 moveto
774.5 828.1 lineto
771 838.1 lineto
closepath stroke
grestore
% 5
gsave
0.33333 0.13333 1 nodecolor
newpath 755.5 756 moveto
145.5 756 lineto
145.5 720 lineto
755.5 720 lineto
closepath fill
1 setlinewidth
filled
0 0 0 nodecolor
newpath 755.5 756 moveto
145.5 756 lineto
145.5 720 lineto
755.5 720 lineto
closepath stroke
0 0 0 nodecolor
14 /Times-Roman set_font
153.5 734.3 moveto 594 (\(if \(>= n 1\) \(if \(>= n 2\) \(if \(>= n 3\) 0 1\) \(if \(>= n 3\) 2 3\)\) \(if \(>= n 2\) \(if \(>= n 3\) 4 5\) \(if \(>= n 3\) 6 7\)\)\)) alignedtext
0 0 0 nodecolor
14 /Times-Roman set_font
137.5 759.8 moveto 8 (5) alignedtext
grestore
% 4->5
gsave
1 setlinewidth
0 0 0 edgecolor
newpath 739.83 801.51 moveto
692.39 791.26 605.6 772.51 539.41 758.21 curveto
stroke
0 0 0 edgecolor
newpath 539.9 754.73 moveto
529.39 756.04 lineto
538.43 761.58 lineto
closepath fill
1 setlinewidth
solid
0 0 0 edgecolor
newpath 539.9 754.73 moveto
529.39 756.04 lineto
538.43 761.58 lineto
closepath stroke
grestore
% 6
gsave
0.33333 0.13333 1 nodecolor
newpath 1423.5 756 moveto
773.5 756 lineto
773.5 720 lineto
1423.5 720 lineto
closepath fill
1 setlinewidth
filled
0 0 0 nodecolor
newpath 1423.5 756 moveto
773.5 756 lineto
773.5 720 lineto
1423.5 720 lineto
closepath stroke
0 0 0 nodecolor
14 /Times-Roman set_font
781.5 734.3 moveto 634 (\(if \(>= n 1\) \(if \(>= n 2\) \(if \(>= n 3\) 8 9\) \(if \(>= n 3\) 10 11\)\) \(if \(>= n 2\) \(if \(>= n 3\) 12 13\) \(if \(>= n 3\) 14 15\)\)\)) alignedtext
0 0 0 nodecolor
14 /Times-Roman set_font
765.5 759.8 moveto 8 (6) alignedtext
grestore
% 4->6
gsave
1 setlinewidth
0 0 0 edgecolor
newpath 809.17 801.51 moveto
856.61 791.26 943.4 772.51 1009.59 758.21 curveto
stroke
0 0 0 edgecolor
newpath 1010.57 761.58 moveto
1019.61 756.04 lineto
1009.1 754.73 lineto
closepath fill
1 setlinewidth
solid
0 0 0 edgecolor
newpath 1010.57 761.58 moveto
1019.61 756.04 lineto
1009.1 754.73 lineto
closepath stroke
grestore
% 7
gsave
0.33333 0.13333 1 nodecolor
newpath 482.5 684 moveto
418.5 684 lineto
418.5 648 lineto
482.5 648 lineto
closepath fill
1 setlinewidth
filled
0 0 0 nodecolor
newpath 482.5 684 moveto
418.5 684 lineto
418.5 648 lineto
482.5 648 lineto
closepath stroke
0 0 0 nodecolor
14 /Times-Roman set_font
426.5 662.3 moveto 48 (\(>= n 1\)) alignedtext
0 0 0 nodecolor
14 /Times-Roman set_font
411.5 687.8 moveto 7 (7) alignedtext
grestore
% 5->7
gsave
1 setlinewidth
0 0 0 edgecolor
newpath 450.5 719.7 moveto
450.5 711.98 450.5 702.71 450.5 694.11 curveto
stroke
0 0 0 edgecolor
newpath 454 694.1 moveto
450.5 684.1 lineto
447 694.1 lineto
closepath fill
1 setlinewidth
solid
0 0 0 edgecolor
newpath 454 694.1 moveto
450.5 684.1 lineto
447 694.1 lineto
closepath stroke
grestore
% 8
gsave
0.33333 0.13333 1 nodecolor
newpath 1130.5 684 moveto
1066.5 684 lineto
1066.5 648 lineto
1130.5 648 lineto
closepath fill
1 setlinewidth
filled
0 0 0 nodecolor
newpath 1130.5 684 moveto
1066.5 684 lineto
1066.5 648 lineto
1130.5 648 lineto
closepath stroke
0 0 0 nodecolor
14 /Times-Roman set_font
1074.5 662.3 moveto 48 (\(>= n 1\)) alignedtext
0 0 0 nodecolor
14 /Times-Roman set_font
1059.5 687.8 moveto 7 (8) alignedtext
grestore
% 6->8
gsave
1 setlinewidth
0 0 0 edgecolor
newpath 1098.5 719.7 moveto
1098.5 711.98 1098.5 702.71 1098.5 694.11 curveto
stroke
0 0 0 edgecolor
newpath 1102 694.1 moveto
1098.5 684.1 lineto
1095 694.1 lineto
closepath fill
1 setlinewidth
solid
0 0 0 edgecolor
newpath 1102 694.1 moveto
1098.5 684.1 lineto
1095 694.1 lineto
closepath stroke
grestore
% 10
gsave
0.66667 0.13333 1 nodecolor
newpath 485 612 moveto
416 612 lineto
416 576 lineto
485 576 lineto
closepath fill
1 setlinewidth
filled
0 0 0 nodecolor
newpath 485 612 moveto
416 612 lineto
416 576 lineto
485 576 lineto
closepath stroke
0 0 0 nodecolor
14 /Times-Roman set_font
424 590.3 moveto 53 (ko\(Bool\)) alignedtext
0 0 0 nodecolor
14 /Times-Roman set_font
401 615.8 moveto 15 (10) alignedtext
grestore
% 7->10
gsave
1 setlinewidth
0 0 0 edgecolor
newpath 450.5 647.7 moveto
450.5 639.98 450.5 630.71 450.5 622.11 curveto
stroke
0 0 0 edgecolor
newpath 454 622.1 moveto
450.5 612.1 lineto
447 622.1 lineto
closepath fill
1 setlinewidth
solid
0 0 0 edgecolor
newpath 454 622.1 moveto
450.5 612.1 lineto
447 622.1 lineto
closepath stroke
grestore
% 9
gsave
0.66667 0.13333 1 nodecolor
newpath 1133 612 moveto
1064 612 lineto
1064 576 lineto
1133 576 lineto
closepath fill
1 setlinewidth
filled
0 0 0 nodecolor
newpath 1133 612 moveto
1064 612 lineto
1064 576 lineto
1133 576 lineto
closepath stroke
0 0 0 nodecolor
14 /Times-Roman set_font
1072 590.3 moveto 53 (ko\(Bool\)) alignedtext
0 0 0 nodecolor
14 /Times-Roman set_font
1056 615.8 moveto 8 (9) alignedtext
grestore
% 8->9
gsave
1 setlinewidth
0 0 0 edgecolor
newpath 1098.5 647.7 moveto
1098.5 639.98 1098.5 630.71 1098.5 622.11 curveto
stroke
0 0 0 edgecolor
newpath 1102 622.1 moveto
1098.5 612.1 lineto
1095 622.1 lineto
closepath fill
1 setlinewidth
solid
0 0 0 edgecolor
newpath 1102 622.1 moveto
1098.5 612.1 lineto
1095 622.1 lineto
closepath stroke
grestore
% 13
gsave
0.33333 0.13333 1 nodecolor
newpath 1105.5 540 moveto
817.5 540 lineto
817.5 504 lineto
1105.5 504 lineto
closepath fill
1 setlinewidth
filled
0 0 0 nodecolor
newpath 1105.5 540 moveto
817.5 540 lineto
817.5 504 lineto
1105.5 504 lineto
closepath stroke
0 0 0 nodecolor
14 /Times-Roman set_font
825.5 518.3 moveto 272 (\(if \(>= n 2\) \(if \(>= n 3\) 8 9\) \(if \(>= n 3\) 10 11\)\)) alignedtext
0 0 0 nodecolor
14 /Times-Roman set_font
803.5 543.8 moveto 14 (13) alignedtext
grestore
% 9->13
gsave
1 setlinewidth
0 0 0 edgecolor
newpath 1064.99 575.88 moveto
1046.66 566.51 1023.76 554.81 1004.17 544.8 curveto
stroke
0 0 0 edgecolor
newpath 1005.64 541.62 moveto
995.14 540.19 lineto
1002.46 547.86 lineto
closepath fill
1 setlinewidth
solid
0 0 0 edgecolor
newpath 1005.64 541.62 moveto
995.14 540.19 lineto
1002.46 547.86 lineto
closepath stroke
grestore
% 14
gsave
0.33333 0.13333 1 nodecolor
newpath 1425.5 540 moveto
1123.5 540 lineto
1123.5 504 lineto
1425.5 504 lineto
closepath fill
1 setlinewidth
filled
0 0 0 nodecolor
newpath 1425.5 540 moveto
1123.5 540 lineto
1123.5 504 lineto
1425.5 504 lineto
closepath stroke
0 0 0 nodecolor
14 /Times-Roman set_font
1131.5 518.3 moveto 286 (\(if \(>= n 2\) \(if \(>= n 3\) 12 13\) \(if \(>= n 3\) 14 15\)\)) alignedtext
0 0 0 nodecolor
14 /Times-Roman set_font
1107.5 543.8 moveto 16 (14) alignedtext
grestore
% 9->14
gsave
1 setlinewidth
0 0 0 edgecolor
newpath 1133.27 579.17 moveto
1158.65 569.08 1193.5 555.22 1222.22 543.79 curveto
stroke
0 0 0 edgecolor
newpath 1223.71 546.97 moveto
1231.71 540.02 lineto
1221.12 540.46 lineto
closepath fill
1 setlinewidth
solid
0 0 0 edgecolor
newpath 1223.71 546.97 moveto
1231.71 540.02 lineto
1221.12 540.46 lineto
closepath stroke
grestore
% 11
gsave
0.33333 0.13333 1 nodecolor
newpath 432.5 540 moveto
158.5 540 lineto
158.5 504 lineto
432.5 504 lineto
closepath fill
1 setlinewidth
filled
0 0 0 nodecolor
newpath 432.5 540 moveto
158.5 540 lineto
158.5 504 lineto
432.5 504 lineto
closepath stroke
0 0 0 nodecolor
14 /Times-Roman set_font
166.5 518.3 moveto 258 (\(if \(>= n 2\) \(if \(>= n 3\) 0 1\) \(if \(>= n 3\) 2 3\)\)) alignedtext
0 0 0 nodecolor
14 /Times-Roman set_font
144.5 543.8 moveto 14 (11) alignedtext
grestore
% 10->11
gsave
1 setlinewidth
0 0 0 edgecolor
newpath 415.71 577.29 moveto
394.05 567.5 365.9 554.79 342.29 544.13 curveto
stroke
0 0 0 edgecolor
newpath 343.7 540.93 moveto
333.15 540 lineto
340.82 547.31 lineto
closepath fill
1 setlinewidth
solid
0 0 0 edgecolor
newpath 343.7 540.93 moveto
333.15 540 lineto
340.82 547.31 lineto
closepath stroke
grestore
% 12
gsave
0.33333 0.13333 1 nodecolor
newpath 726.5 540 moveto
450.5 540 lineto
450.5 504 lineto
726.5 504 lineto
closepath fill
1 setlinewidth
filled
0 0 0 nodecolor
newpath 726.5 540 moveto
450.5 540 lineto
450.5 504 lineto
726.5 504 lineto
closepath stroke
0 0 0 nodecolor
14 /Times-Roman set_font
458.5 518.3 moveto 260 (\(if \(>= n 2\) \(if \(>= n 3\) 4 5\) \(if \(>= n 3\) 6 7\)\)) alignedtext
0 0 0 nodecolor
14 /Times-Roman set_font
436.5 543.8 moveto 14 (12) alignedtext
grestore
% 10->12
gsave
1 setlinewidth
0 0 0 edgecolor
newpath 484.26 575.88 moveto
502.72 566.51 525.78 554.81 545.52 544.8 curveto
stroke
0 0 0 edgecolor
newpath 547.28 547.83 moveto
554.61 540.19 lineto
544.11 541.59 lineto
closepath fill
1 setlinewidth
solid
0 0 0 edgecolor
newpath 547.28 547.83 moveto
554.61 540.19 lineto
544.11 541.59 lineto
closepath stroke
grestore
% 17
gsave
0.33333 0.13333 1 nodecolor
newpath 327.5 468 moveto
263.5 468 lineto
263.5 432 lineto
327.5 432 lineto
closepath fill
1 setlinewidth
filled
0 0 0 nodecolor
newpath 327.5 468 moveto
263.5 468 lineto
263.5 432 lineto
327.5 432 lineto
closepath stroke
0 0 0 nodecolor
14 /Times-Roman set_font
271.5 446.3 moveto 48 (\(>= n 2\)) alignedtext
0 0 0 nodecolor
14 /Times-Roman set_font
249.5 471.8 moveto 14 (17) alignedtext
grestore
% 11->17
gsave
1 setlinewidth
0 0 0 edgecolor
newpath 295.5 503.7 moveto
295.5 495.98 295.5 486.71 295.5 478.11 curveto
stroke
0 0 0 edgecolor
newpath 299 478.1 moveto
295.5 468.1 lineto
292 478.1 lineto
closepath fill
1 setlinewidth
solid
0 0 0 edgecolor
newpath 299 478.1 moveto
295.5 468.1 lineto
292 478.1 lineto
closepath stroke
grestore
% 18
gsave
0.33333 0.13333 1 nodecolor
newpath 620.5 468 moveto
556.5 468 lineto
556.5 432 lineto
620.5 432 lineto
closepath fill
1 setlinewidth
filled
0 0 0 nodecolor
newpath 620.5 468 moveto
556.5 468 lineto
556.5 432 lineto
620.5 432 lineto
closepath stroke
0 0 0 nodecolor
14 /Times-Roman set_font
564.5 446.3 moveto 48 (\(>= n 2\)) alignedtext
0 0 0 nodecolor
14 /Times-Roman set_font
542.5 471.8 moveto 14 (18) alignedtext
grestore
% 12->18
gsave
1 setlinewidth
0 0 0 edgecolor
newpath 588.5 503.7 moveto
588.5 495.98 588.5 486.71 588.5 478.11 curveto
stroke
0 0 0 edgecolor
newpath 592 478.1 moveto
588.5 468.1 lineto
585 478.1 lineto
closepath fill
1 setlinewidth
solid
0 0 0 edgecolor
newpath 592 478.1 moveto
588.5 468.1 lineto
585 478.1 lineto
closepath stroke
grestore
% 15
gsave
0.33333 0.13333 1 nodecolor
newpath 993.5 468 moveto
929.5 468 lineto
929.5 432 lineto
993.5 432 lineto
closepath fill
1 setlinewidth
filled
0 0 0 nodecolor
newpath 993.5 468 moveto
929.5 468 lineto
929.5 432 lineto
993.5 432 lineto
closepath stroke
0 0 0 nodecolor
14 /Times-Roman set_font
937.5 446.3 moveto 48 (\(>= n 2\)) alignedtext
0 0 0 nodecolor
14 /Times-Roman set_font
914.5 471.8 moveto 15 (15) alignedtext
grestore
% 13->15
gsave
1 setlinewidth
0 0 0 edgecolor
newpath 961.5 503.7 moveto
961.5 495.98 961.5 486.71 961.5 478.11 curveto
stroke
0 0 0 edgecolor
newpath 965 478.1 moveto
961.5 468.1 lineto
958 478.1 lineto
closepath fill
1 setlinewidth
solid
0 0 0 edgecolor
newpath 965 478.1 moveto
961.5 468.1 lineto
958 478.1 lineto
closepath stroke
grestore
% 16
gsave
0.33333 0.13333 1 nodecolor
newpath 1306.5 468 moveto
1242.5 468 lineto
1242.5 432 lineto
1306.5 432 lineto
closepath fill
1 setlinewidth
filled
0 0 0 nodecolor
newpath 1306.5 468 moveto
1242.5 468 lineto
1242.5 432 lineto
1306.5 432 lineto
closepath stroke
0 0 0 nodecolor
14 /Times-Roman set_font
1250.5 446.3 moveto 48 (\(>= n 2\)) alignedtext
0 0 0 nodecolor
14 /Times-Roman set_font
1227.5 471.8 moveto 15 (16) alignedtext
grestore
% 14->16
gsave
1 setlinewidth
0 0 0 edgecolor
newpath 1274.5 503.7 moveto
1274.5 495.98 1274.5 486.71 1274.5 478.11 curveto
stroke
0 0 0 edgecolor
newpath 1278 478.1 moveto
1274.5 468.1 lineto
1271 478.1 lineto
closepath fill
1 setlinewidth
solid
0 0 0 edgecolor
newpath 1278 478.1 moveto
1274.5 468.1 lineto
1271 478.1 lineto
closepath stroke
grestore
% 22
gsave
0.66667 0.13333 1 nodecolor
newpath 996 396 moveto
927 396 lineto
927 360 lineto
996 360 lineto
closepath fill
1 setlinewidth
filled
0 0 0 nodecolor
newpath 996 396 moveto
927 396 lineto
927 360 lineto
996 360 lineto
closepath stroke
0 0 0 nodecolor
14 /Times-Roman set_font
935 374.3 moveto 53 (ko\(Bool\)) alignedtext
0 0 0 nodecolor
14 /Times-Roman set_font
913 399.8 moveto 14 (22) alignedtext
grestore
% 15->22
gsave
1 setlinewidth
0 0 0 edgecolor
newpath 961.5 431.7 moveto
961.5 423.98 961.5 414.71 961.5 406.11 curveto
stroke
0 0 0 edgecolor
newpath 965 406.1 moveto
961.5 396.1 lineto
958 406.1 lineto
closepath fill
1 setlinewidth
solid
0 0 0 edgecolor
newpath 965 406.1 moveto
961.5 396.1 lineto
958 406.1 lineto
closepath stroke
grestore
% 21
gsave
0.66667 0.13333 1 nodecolor
newpath 1309 396 moveto
1240 396 lineto
1240 360 lineto
1309 360 lineto
closepath fill
1 setlinewidth
filled
0 0 0 nodecolor
newpath 1309 396 moveto
1240 396 lineto
1240 360 lineto
1309 360 lineto
closepath stroke
0 0 0 nodecolor
14 /Times-Roman set_font
1248 374.3 moveto 53 (ko\(Bool\)) alignedtext
0 0 0 nodecolor
14 /Times-Roman set_font
1226 399.8 moveto 14 (21) alignedtext
grestore
% 16->21
gsave
1 setlinewidth
0 0 0 edgecolor
newpath 1274.5 431.7 moveto
1274.5 423.98 1274.5 414.71 1274.5 406.11 curveto
stroke
0 0 0 edgecolor
newpath 1278 406.1 moveto
1274.5 396.1 lineto
1271 406.1 lineto
closepath fill
1 setlinewidth
solid
0 0 0 edgecolor
newpath 1278 406.1 moveto
1274.5 396.1 lineto
1271 406.1 lineto
closepath stroke
grestore
% 20
gsave
0.66667 0.13333 1 nodecolor
newpath 330 396 moveto
261 396 lineto
261 360 lineto
330 360 lineto
closepath fill
1 setlinewidth
filled
0 0 0 nodecolor
newpath 330 396 moveto
261 396 lineto
261 360 lineto
330 360 lineto
closepath stroke
0 0 0 nodecolor
14 /Times-Roman set_font
269 374.3 moveto 53 (ko\(Bool\)) alignedtext
0 0 0 nodecolor
14 /Times-Roman set_font
246 399.8 moveto 15 (20) alignedtext
grestore
% 17->20
gsave
1 setlinewidth
0 0 0 edgecolor
newpath 295.5 431.7 moveto
295.5 423.98 295.5 414.71 295.5 406.11 curveto
stroke
0 0 0 edgecolor
newpath 299 406.1 moveto
295.5 396.1 lineto
292 406.1 lineto
closepath fill
1 setlinewidth
solid
0 0 0 edgecolor
newpath 299 406.1 moveto
295.5 396.1 lineto
292 406.1 lineto
closepath stroke
grestore
% 19
gsave
0.66667 0.13333 1 nodecolor
newpath 623 396 moveto
554 396 lineto
554 360 lineto
623 360 lineto
closepath fill
1 setlinewidth
filled
0 0 0 nodecolor
newpath 623 396 moveto
554 396 lineto
554 360 lineto
623 360 lineto
closepath stroke
0 0 0 nodecolor
14 /Times-Roman set_font
562 374.3 moveto 53 (ko\(Bool\)) alignedtext
0 0 0 nodecolor
14 /Times-Roman set_font
539 399.8 moveto 15 (19) alignedtext
grestore
% 18->19
gsave
1 setlinewidth
0 0 0 edgecolor
newpath 588.5 431.7 moveto
588.5 423.98 588.5 414.71 588.5 406.11 curveto
stroke
0 0 0 edgecolor
newpath 592 406.1 moveto
588.5 396.1 lineto
585 406.1 lineto
closepath fill
1 setlinewidth
solid
0 0 0 edgecolor
newpath 592 406.1 moveto
588.5 396.1 lineto
585 406.1 lineto
closepath stroke
grestore
% 29
gsave
0.33333 0.13333 1 nodecolor
newpath 586 324 moveto
477 324 lineto
477 288 lineto
586 288 lineto
closepath fill
1 setlinewidth
filled
0 0 0 nodecolor
newpath 586 324 moveto
477 324 lineto
477 288 lineto
586 288 lineto
closepath stroke
0 0 0 nodecolor
14 /Times-Roman set_font
485 302.3 moveto 93 (\(if \(>= n 3\) 4 5\)) alignedtext
0 0 0 nodecolor
14 /Times-Roman set_font
462 327.8 moveto 15 (29) alignedtext
grestore
% 19->29
gsave
1 setlinewidth
0 0 0 edgecolor
newpath 574.41 359.7 moveto
567.58 351.3 559.24 341.07 551.74 331.86 curveto
stroke
0 0 0 edgecolor
newpath 554.46 329.65 moveto
545.43 324.1 lineto
549.03 334.07 lineto
closepath fill
1 setlinewidth
solid
0 0 0 edgecolor
newpath 554.46 329.65 moveto
545.43 324.1 lineto
549.03 334.07 lineto
closepath stroke
grestore
% 30
gsave
0.33333 0.13333 1 nodecolor
newpath 711 324 moveto
604 324 lineto
604 288 lineto
711 288 lineto
closepath fill
1 setlinewidth
filled
0 0 0 nodecolor
newpath 711 324 moveto
604 324 lineto
604 288 lineto
711 288 lineto
closepath stroke
0 0 0 nodecolor
14 /Times-Roman set_font
612 302.3 moveto 91 (\(if \(>= n 3\) 6 7\)) alignedtext
0 0 0 nodecolor
14 /Times-Roman set_font
589 327.8 moveto 15 (30) alignedtext
grestore
% 19->30
gsave
1 setlinewidth
0 0 0 edgecolor
newpath 605.56 359.7 moveto
614 351.14 624.32 340.66 633.54 331.3 curveto
stroke
0 0 0 edgecolor
newpath 636.11 333.68 moveto
640.64 324.1 lineto
631.13 328.77 lineto
closepath fill
1 setlinewidth
solid
0 0 0 edgecolor
newpath 636.11 333.68 moveto
640.64 324.1 lineto
631.13 328.77 lineto
closepath stroke
grestore
% 27
gsave
0.33333 0.13333 1 nodecolor
newpath 313 324 moveto
206 324 lineto
206 288 lineto
313 288 lineto
closepath fill
1 setlinewidth
filled
0 0 0 nodecolor
newpath 313 324 moveto
206 324 lineto
206 288 lineto
313 288 lineto
closepath stroke
0 0 0 nodecolor
14 /Times-Roman set_font
214 302.3 moveto 91 (\(if \(>= n 3\) 0 1\)) alignedtext
0 0 0 nodecolor
14 /Times-Roman set_font
192 327.8 moveto 14 (27) alignedtext
grestore
% 20->27
gsave
1 setlinewidth
0 0 0 edgecolor
newpath 286.6 359.7 moveto
282.5 351.73 277.55 342.1 273.01 333.26 curveto
stroke
0 0 0 edgecolor
newpath 275.98 331.4 moveto
268.3 324.1 lineto
269.76 334.6 lineto
closepath fill
1 setlinewidth
solid
0 0 0 edgecolor
newpath 275.98 331.4 moveto
268.3 324.1 lineto
269.76 334.6 lineto
closepath stroke
grestore
% 28
gsave
0.33333 0.13333 1 nodecolor
newpath 438 324 moveto
331 324 lineto
331 288 lineto
438 288 lineto
closepath fill
1 setlinewidth
filled
0 0 0 nodecolor
newpath 438 324 moveto
331 324 lineto
331 288 lineto
438 288 lineto
closepath stroke
0 0 0 nodecolor
14 /Times-Roman set_font
339 302.3 moveto 91 (\(if \(>= n 3\) 2 3\)) alignedtext
0 0 0 nodecolor
14 /Times-Roman set_font
317 327.8 moveto 14 (28) alignedtext
grestore
% 20->28
gsave
1 setlinewidth
0 0 0 edgecolor
newpath 317.5 359.7 moveto
328.71 350.88 342.5 340.03 354.65 330.47 curveto
stroke
0 0 0 edgecolor
newpath 357.06 333.04 moveto
362.75 324.1 lineto
352.73 327.54 lineto
closepath fill
1 setlinewidth
solid
0 0 0 edgecolor
newpath 357.06 333.04 moveto
362.75 324.1 lineto
352.73 327.54 lineto
closepath stroke
grestore
% 25
gsave
0.33333 0.13333 1 nodecolor
newpath 1213.5 324 moveto
1093.5 324 lineto
1093.5 288 lineto
1213.5 288 lineto
closepath fill
1 setlinewidth
filled
0 0 0 nodecolor
newpath 1213.5 324 moveto
1093.5 324 lineto
1093.5 288 lineto
1213.5 288 lineto
closepath stroke
0 0 0 nodecolor
14 /Times-Roman set_font
1101.5 302.3 moveto 104 (\(if \(>= n 3\) 12 13\)) alignedtext
0 0 0 nodecolor
14 /Times-Roman set_font
1078.5 327.8 moveto 15 (25) alignedtext
grestore
% 21->25
gsave
1 setlinewidth
0 0 0 edgecolor
newpath 1244.9 359.88 moveto
1228.93 350.64 1209.04 339.13 1191.89 329.21 curveto
stroke
0 0 0 edgecolor
newpath 1193.62 326.17 moveto
1183.21 324.19 lineto
1190.12 332.23 lineto
closepath fill
1 setlinewidth
solid
0 0 0 edgecolor
newpath 1193.62 326.17 moveto
1183.21 324.19 lineto
1190.12 332.23 lineto
closepath stroke
grestore
% 26
gsave
0.33333 0.13333 1 nodecolor
newpath 1353.5 324 moveto
1231.5 324 lineto
1231.5 288 lineto
1353.5 288 lineto
closepath fill
1 setlinewidth
filled
0 0 0 nodecolor
newpath 1353.5 324 moveto
1231.5 324 lineto
1231.5 288 lineto
1353.5 288 lineto
closepath stroke
0 0 0 nodecolor
14 /Times-Roman set_font
1239.5 302.3 moveto 106 (\(if \(>= n 3\) 14 15\)) alignedtext
0 0 0 nodecolor
14 /Times-Roman set_font
1216.5 327.8 moveto 15 (26) alignedtext
grestore
% 21->26
gsave
1 setlinewidth
0 0 0 edgecolor
newpath 1278.95 359.7 moveto
1280.95 351.9 1283.37 342.51 1285.6 333.83 curveto
stroke
0 0 0 edgecolor
newpath 1289 334.66 moveto
1288.1 324.1 lineto
1282.22 332.92 lineto
closepath fill
1 setlinewidth
solid
0 0 0 edgecolor
newpath 1289 334.66 moveto
1288.1 324.1 lineto
1282.22 332.92 lineto
closepath stroke
grestore
% 23
gsave
0.33333 0.13333 1 nodecolor
newpath 919 324 moveto
812 324 lineto
812 288 lineto
919 288 lineto
closepath fill
1 setlinewidth
filled
0 0 0 nodecolor
newpath 919 324 moveto
812 324 lineto
812 288 lineto
919 288 lineto
closepath stroke
0 0 0 nodecolor
14 /Times-Roman set_font
820 302.3 moveto 91 (\(if \(>= n 3\) 8 9\)) alignedtext
0 0 0 nodecolor
14 /Times-Roman set_font
798 327.8 moveto 14 (23) alignedtext
grestore
% 22->23
gsave
1 setlinewidth
0 0 0 edgecolor
newpath 937.77 359.7 moveto
925.56 350.8 910.51 339.82 897.32 330.2 curveto
stroke
0 0 0 edgecolor
newpath 899.1 327.17 moveto
888.96 324.1 lineto
894.98 332.82 lineto
closepath fill
1 setlinewidth
solid
0 0 0 edgecolor
newpath 899.1 327.17 moveto
888.96 324.1 lineto
894.98 332.82 lineto
closepath stroke
grestore
% 24
gsave
0.33333 0.13333 1 nodecolor
newpath 1058 324 moveto
937 324 lineto
937 288 lineto
1058 288 lineto
closepath fill
1 setlinewidth
filled
0 0 0 nodecolor
newpath 1058 324 moveto
937 324 lineto
937 288 lineto
1058 288 lineto
closepath stroke
0 0 0 nodecolor
14 /Times-Roman set_font
945 302.3 moveto 105 (\(if \(>= n 3\) 10 11\)) alignedtext
0 0 0 nodecolor
14 /Times-Roman set_font
921 327.8 moveto 16 (24) alignedtext
grestore
% 22->24
gsave
1 setlinewidth
0 0 0 edgecolor
newpath 970.4 359.7 moveto
974.5 351.73 979.45 342.1 983.99 333.26 curveto
stroke
0 0 0 edgecolor
newpath 987.24 334.6 moveto
988.7 324.1 lineto
981.02 331.4 lineto
closepath fill
1 setlinewidth
solid
0 0 0 edgecolor
newpath 987.24 334.6 moveto
988.7 324.1 lineto
981.02 331.4 lineto
closepath stroke
grestore
% 37
gsave
0.33333 0.13333 1 nodecolor
newpath 897.5 252 moveto
833.5 252 lineto
833.5 216 lineto
897.5 216 lineto
closepath fill
1 setlinewidth
filled
0 0 0 nodecolor
newpath 897.5 252 moveto
833.5 252 lineto
833.5 216 lineto
897.5 216 lineto
closepath stroke
0 0 0 nodecolor
14 /Times-Roman set_font
841.5 230.3 moveto 48 (\(>= n 3\)) alignedtext
0 0 0 nodecolor
14 /Times-Roman set_font
819.5 255.8 moveto 14 (37) alignedtext
grestore
% 23->37
gsave
1 setlinewidth
0 0 0 edgecolor
newpath 865.5 287.7 moveto
865.5 279.98 865.5 270.71 865.5 262.11 curveto
stroke
0 0 0 edgecolor
newpath 869 262.1 moveto
865.5 252.1 lineto
862 262.1 lineto
closepath fill
1 setlinewidth
solid
0 0 0 edgecolor
newpath 869 262.1 moveto
865.5 252.1 lineto
862 262.1 lineto
closepath stroke
grestore
% 38
gsave
0.33333 0.13333 1 nodecolor
newpath 1029.5 252 moveto
965.5 252 lineto
965.5 216 lineto
1029.5 216 lineto
closepath fill
1 setlinewidth
filled
0 0 0 nodecolor
newpath 1029.5 252 moveto
965.5 252 lineto
965.5 216 lineto
1029.5 216 lineto
closepath stroke
0 0 0 nodecolor
14 /Times-Roman set_font
973.5 230.3 moveto 48 (\(>= n 3\)) alignedtext
0 0 0 nodecolor
14 /Times-Roman set_font
951.5 255.8 moveto 14 (38) alignedtext
grestore
% 24->38
gsave
1 setlinewidth
0 0 0 edgecolor
newpath 997.5 287.7 moveto
997.5 279.98 997.5 270.71 997.5 262.11 curveto
stroke
0 0 0 edgecolor
newpath 1001 262.1 moveto
997.5 252.1 lineto
994 262.1 lineto
closepath fill
1 setlinewidth
solid
0 0 0 edgecolor
newpath 1001 262.1 moveto
997.5 252.1 lineto
994 262.1 lineto
closepath stroke
grestore
% 35
gsave
0.33333 0.13333 1 nodecolor
newpath 1185.5 252 moveto
1121.5 252 lineto
1121.5 216 lineto
1185.5 216 lineto
closepath fill
1 setlinewidth
filled
0 0 0 nodecolor
newpath 1185.5 252 moveto
1121.5 252 lineto
1121.5 216 lineto
1185.5 216 lineto
closepath stroke
0 0 0 nodecolor
14 /Times-Roman set_font
1129.5 230.3 moveto 48 (\(>= n 3\)) alignedtext
0 0 0 nodecolor
14 /Times-Roman set_font
1106.5 255.8 moveto 15 (35) alignedtext
grestore
% 25->35
gsave
1 setlinewidth
0 0 0 edgecolor
newpath 1153.5 287.7 moveto
1153.5 279.98 1153.5 270.71 1153.5 262.11 curveto
stroke
0 0 0 edgecolor
newpath 1157 262.1 moveto
1153.5 252.1 lineto
1150 262.1 lineto
closepath fill
1 setlinewidth
solid
0 0 0 edgecolor
newpath 1157 262.1 moveto
1153.5 252.1 lineto
1150 262.1 lineto
closepath stroke
grestore
% 36
gsave
0.33333 0.13333 1 nodecolor
newpath 1324.5 252 moveto
1260.5 252 lineto
1260.5 216 lineto
1324.5 216 lineto
closepath fill
1 setlinewidth
filled
0 0 0 nodecolor
newpath 1324.5 252 moveto
1260.5 252 lineto
1260.5 216 lineto
1324.5 216 lineto
closepath stroke
0 0 0 nodecolor
14 /Times-Roman set_font
1268.5 230.3 moveto 48 (\(>= n 3\)) alignedtext
0 0 0 nodecolor
14 /Times-Roman set_font
1245.5 255.8 moveto 15 (36) alignedtext
grestore
% 26->36
gsave
1 setlinewidth
0 0 0 edgecolor
newpath 1292.5 287.7 moveto
1292.5 279.98 1292.5 270.71 1292.5 262.11 curveto
stroke
0 0 0 edgecolor
newpath 1296 262.1 moveto
1292.5 252.1 lineto
1289 262.1 lineto
closepath fill
1 setlinewidth
solid
0 0 0 edgecolor
newpath 1296 262.1 moveto
1292.5 252.1 lineto
1289 262.1 lineto
closepath stroke
grestore
% 33
gsave
0.33333 0.13333 1 nodecolor
newpath 291.5 252 moveto
227.5 252 lineto
227.5 216 lineto
291.5 216 lineto
closepath fill
1 setlinewidth
filled
0 0 0 nodecolor
newpath 291.5 252 moveto
227.5 252 lineto
227.5 216 lineto
291.5 216 lineto
closepath stroke
0 0 0 nodecolor
14 /Times-Roman set_font
235.5 230.3 moveto 48 (\(>= n 3\)) alignedtext
0 0 0 nodecolor
14 /Times-Roman set_font
213.5 255.8 moveto 14 (33) alignedtext
grestore
% 27->33
gsave
1 setlinewidth
0 0 0 edgecolor
newpath 259.5 287.7 moveto
259.5 279.98 259.5 270.71 259.5 262.11 curveto
stroke
0 0 0 edgecolor
newpath 263 262.1 moveto
259.5 252.1 lineto
256 262.1 lineto
closepath fill
1 setlinewidth
solid
0 0 0 edgecolor
newpath 263 262.1 moveto
259.5 252.1 lineto
256 262.1 lineto
closepath stroke
grestore
% 34
gsave
0.33333 0.13333 1 nodecolor
newpath 416.5 252 moveto
352.5 252 lineto
352.5 216 lineto
416.5 216 lineto
closepath fill
1 setlinewidth
filled
0 0 0 nodecolor
newpath 416.5 252 moveto
352.5 252 lineto
352.5 216 lineto
416.5 216 lineto
closepath stroke
0 0 0 nodecolor
14 /Times-Roman set_font
360.5 230.3 moveto 48 (\(>= n 3\)) alignedtext
0 0 0 nodecolor
14 /Times-Roman set_font
336.5 255.8 moveto 16 (34) alignedtext
grestore
% 28->34
gsave
1 setlinewidth
0 0 0 edgecolor
newpath 384.5 287.7 moveto
384.5 279.98 384.5 270.71 384.5 262.11 curveto
stroke
0 0 0 edgecolor
newpath 388 262.1 moveto
384.5 252.1 lineto
381 262.1 lineto
closepath fill
1 setlinewidth
solid
0 0 0 edgecolor
newpath 388 262.1 moveto
384.5 252.1 lineto
381 262.1 lineto
closepath stroke
grestore
% 31
gsave
0.33333 0.13333 1 nodecolor
newpath 563.5 252 moveto
499.5 252 lineto
499.5 216 lineto
563.5 216 lineto
closepath fill
1 setlinewidth
filled
0 0 0 nodecolor
newpath 563.5 252 moveto
499.5 252 lineto
499.5 216 lineto
563.5 216 lineto
closepath stroke
0 0 0 nodecolor
14 /Times-Roman set_font
507.5 230.3 moveto 48 (\(>= n 3\)) alignedtext
0 0 0 nodecolor
14 /Times-Roman set_font
485.5 255.8 moveto 14 (31) alignedtext
grestore
% 29->31
gsave
1 setlinewidth
0 0 0 edgecolor
newpath 531.5 287.7 moveto
531.5 279.98 531.5 270.71 531.5 262.11 curveto
stroke
0 0 0 edgecolor
newpath 535 262.1 moveto
531.5 252.1 lineto
528 262.1 lineto
closepath fill
1 setlinewidth
solid
0 0 0 edgecolor
newpath 535 262.1 moveto
531.5 252.1 lineto
528 262.1 lineto
closepath stroke
grestore
% 32
gsave
0.33333 0.13333 1 nodecolor
newpath 689.5 252 moveto
625.5 252 lineto
625.5 216 lineto
689.5 216 lineto
closepath fill
1 setlinewidth
filled
0 0 0 nodecolor
newpath 689.5 252 moveto
625.5 252 lineto
625.5 216 lineto
689.5 216 lineto
closepath stroke
0 0 0 nodecolor
14 /Times-Roman set_font
633.5 230.3 moveto 48 (\(>= n 3\)) alignedtext
0 0 0 nodecolor
14 /Times-Roman set_font
611.5 255.8 moveto 14 (32) alignedtext
grestore
% 30->32
gsave
1 setlinewidth
0 0 0 edgecolor
newpath 657.5 287.7 moveto
657.5 279.98 657.5 270.71 657.5 262.11 curveto
stroke
0 0 0 edgecolor
newpath 661 262.1 moveto
657.5 252.1 lineto
654 262.1 lineto
closepath fill
1 setlinewidth
solid
0 0 0 edgecolor
newpath 661 262.1 moveto
657.5 252.1 lineto
654 262.1 lineto
closepath stroke
grestore
% 46
gsave
0.66667 0.13333 1 nodecolor
newpath 566 180 moveto
497 180 lineto
497 144 lineto
566 144 lineto
closepath fill
1 setlinewidth
filled
0 0 0 nodecolor
newpath 566 180 moveto
497 180 lineto
497 144 lineto
566 144 lineto
closepath stroke
0 0 0 nodecolor
14 /Times-Roman set_font
505 158.3 moveto 53 (ko\(Bool\)) alignedtext
0 0 0 nodecolor
14 /Times-Roman set_font
481 183.8 moveto 16 (46) alignedtext
grestore
% 31->46
gsave
1 setlinewidth
0 0 0 edgecolor
newpath 531.5 215.7 moveto
531.5 207.98 531.5 198.71 531.5 190.11 curveto
stroke
0 0 0 edgecolor
newpath 535 190.1 moveto
531.5 180.1 lineto
528 190.1 lineto
closepath fill
1 setlinewidth
solid
0 0 0 edgecolor
newpath 535 190.1 moveto
531.5 180.1 lineto
528 190.1 lineto
closepath stroke
grestore
% 45
gsave
0.66667 0.13333 1 nodecolor
newpath 692 180 moveto
623 180 lineto
623 144 lineto
692 144 lineto
closepath fill
1 setlinewidth
filled
0 0 0 nodecolor
newpath 692 180 moveto
623 180 lineto
623 144 lineto
692 144 lineto
closepath stroke
0 0 0 nodecolor
14 /Times-Roman set_font
631 158.3 moveto 53 (ko\(Bool\)) alignedtext
0 0 0 nodecolor
14 /Times-Roman set_font
607 183.8 moveto 16 (45) alignedtext
grestore
% 32->45
gsave
1 setlinewidth
0 0 0 edgecolor
newpath 657.5 215.7 moveto
657.5 207.98 657.5 198.71 657.5 190.11 curveto
stroke
0 0 0 edgecolor
newpath 661 190.1 moveto
657.5 180.1 lineto
654 190.1 lineto
closepath fill
1 setlinewidth
solid
0 0 0 edgecolor
newpath 661 190.1 moveto
657.5 180.1 lineto
654 190.1 lineto
closepath stroke
grestore
% 44
gsave
0.66667 0.13333 1 nodecolor
newpath 294 180 moveto
225 180 lineto
225 144 lineto
294 144 lineto
closepath fill
1 setlinewidth
filled
0 0 0 nodecolor
newpath 294 180 moveto
225 180 lineto
225 144 lineto
294 144 lineto
closepath stroke
0 0 0 nodecolor
14 /Times-Roman set_font
233 158.3 moveto 53 (ko\(Bool\)) alignedtext
0 0 0 nodecolor
14 /Times-Roman set_font
208 183.8 moveto 17 (44) alignedtext
grestore
% 33->44
gsave
1 setlinewidth
0 0 0 edgecolor
newpath 259.5 215.7 moveto
259.5 207.98 259.5 198.71 259.5 190.11 curveto
stroke
0 0 0 edgecolor
newpath 263 190.1 moveto
259.5 180.1 lineto
256 190.1 lineto
closepath fill
1 setlinewidth
solid
0 0 0 edgecolor
newpath 263 190.1 moveto
259.5 180.1 lineto
256 190.1 lineto
closepath stroke
grestore
% 43
gsave
0.66667 0.13333 1 nodecolor
newpath 419 180 moveto
350 180 lineto
350 144 lineto
419 144 lineto
closepath fill
1 setlinewidth
filled
0 0 0 nodecolor
newpath 419 180 moveto
350 180 lineto
350 144 lineto
419 144 lineto
closepath stroke
0 0 0 nodecolor
14 /Times-Roman set_font
358 158.3 moveto 53 (ko\(Bool\)) alignedtext
0 0 0 nodecolor
14 /Times-Roman set_font
334 183.8 moveto 16 (43) alignedtext
grestore
% 34->43
gsave
1 setlinewidth
0 0 0 edgecolor
newpath 384.5 215.7 moveto
384.5 207.98 384.5 198.71 384.5 190.11 curveto
stroke
0 0 0 edgecolor
newpath 388 190.1 moveto
384.5 180.1 lineto
381 190.1 lineto
closepath fill
1 setlinewidth
solid
0 0 0 edgecolor
newpath 388 190.1 moveto
384.5 180.1 lineto
381 190.1 lineto
closepath stroke
grestore
% 42
gsave
0.66667 0.13333 1 nodecolor
newpath 1188 180 moveto
1119 180 lineto
1119 144 lineto
1188 144 lineto
closepath fill
1 setlinewidth
filled
0 0 0 nodecolor
newpath 1188 180 moveto
1119 180 lineto
1119 144 lineto
1188 144 lineto
closepath stroke
0 0 0 nodecolor
14 /Times-Roman set_font
1127 158.3 moveto 53 (ko\(Bool\)) alignedtext
0 0 0 nodecolor
14 /Times-Roman set_font
1103 183.8 moveto 16 (42) alignedtext
grestore
% 35->42
gsave
1 setlinewidth
0 0 0 edgecolor
newpath 1153.5 215.7 moveto
1153.5 207.98 1153.5 198.71 1153.5 190.11 curveto
stroke
0 0 0 edgecolor
newpath 1157 190.1 moveto
1153.5 180.1 lineto
1150 190.1 lineto
closepath fill
1 setlinewidth
solid
0 0 0 edgecolor
newpath 1157 190.1 moveto
1153.5 180.1 lineto
1150 190.1 lineto
closepath stroke
grestore
% 41
gsave
0.66667 0.13333 1 nodecolor
newpath 1327 180 moveto
1258 180 lineto
1258 144 lineto
1327 144 lineto
closepath fill
1 setlinewidth
filled
0 0 0 nodecolor
newpath 1327 180 moveto
1258 180 lineto
1258 144 lineto
1327 144 lineto
closepath stroke
0 0 0 nodecolor
14 /Times-Roman set_font
1266 158.3 moveto 53 (ko\(Bool\)) alignedtext
0 0 0 nodecolor
14 /Times-Roman set_font
1242 183.8 moveto 16 (41) alignedtext
grestore
% 36->41
gsave
1 setlinewidth
0 0 0 edgecolor
newpath 1292.5 215.7 moveto
1292.5 207.98 1292.5 198.71 1292.5 190.11 curveto
stroke
0 0 0 edgecolor
newpath 1296 190.1 moveto
1292.5 180.1 lineto
1289 190.1 lineto
closepath fill
1 setlinewidth
solid
0 0 0 edgecolor
newpath 1296 190.1 moveto
1292.5 180.1 lineto
1289 190.1 lineto
closepath stroke
grestore
% 40
gsave
0.66667 0.13333 1 nodecolor
newpath 900 180 moveto
831 180 lineto
831 144 lineto
900 144 lineto
closepath fill
1 setlinewidth
filled
0 0 0 nodecolor
newpath 900 180 moveto
831 180 lineto
831 144 lineto
900 144 lineto
closepath stroke
0 0 0 nodecolor
14 /Times-Roman set_font
839 158.3 moveto 53 (ko\(Bool\)) alignedtext
0 0 0 nodecolor
14 /Times-Roman set_font
815 183.8 moveto 16 (40) alignedtext
grestore
% 37->40
gsave
1 setlinewidth
0 0 0 edgecolor
newpath 865.5 215.7 moveto
865.5 207.98 865.5 198.71 865.5 190.11 curveto
stroke
0 0 0 edgecolor
newpath 869 190.1 moveto
865.5 180.1 lineto
862 190.1 lineto
closepath fill
1 setlinewidth
solid
0 0 0 edgecolor
newpath 869 190.1 moveto
865.5 180.1 lineto
862 190.1 lineto
closepath stroke
grestore
% 39
gsave
0.66667 0.13333 1 nodecolor
newpath 1032 180 moveto
963 180 lineto
963 144 lineto
1032 144 lineto
closepath fill
1 setlinewidth
filled
0 0 0 nodecolor
newpath 1032 180 moveto
963 180 lineto
963 144 lineto
1032 144 lineto
closepath stroke
0 0 0 nodecolor
14 /Times-Roman set_font
971 158.3 moveto 53 (ko\(Bool\)) alignedtext
0 0 0 nodecolor
14 /Times-Roman set_font
948 183.8 moveto 15 (39) alignedtext
grestore
% 38->39
gsave
1 setlinewidth
0 0 0 edgecolor
newpath 997.5 215.7 moveto
997.5 207.98 997.5 198.71 997.5 190.11 curveto
stroke
0 0 0 edgecolor
newpath 1001 190.1 moveto
997.5 180.1 lineto
994 190.1 lineto
closepath fill
1 setlinewidth
solid
0 0 0 edgecolor
newpath 1001 190.1 moveto
997.5 180.1 lineto
994 190.1 lineto
closepath stroke
grestore
% 61
gsave
0.33333 0.13333 1 nodecolor
newpath 991.5 108 moveto
937.5 108 lineto
937.5 72 lineto
991.5 72 lineto
closepath fill
1 setlinewidth
filled
0 0 0 nodecolor
newpath 991.5 108 moveto
937.5 108 lineto
937.5 72 lineto
991.5 72 lineto
closepath stroke
0 0 0 nodecolor
14 /Times-Roman set_font
957 86.3 moveto 15 (10) alignedtext
0 0 0 nodecolor
14 /Times-Roman set_font
922.5 111.8 moveto 15 (61) alignedtext
grestore
% 39->61
gsave
1 setlinewidth
0 0 0 edgecolor
newpath 989.34 143.7 moveto
985.59 135.73 981.05 126.1 976.88 117.26 curveto
stroke
0 0 0 edgecolor
newpath 979.99 115.66 moveto
972.56 108.1 lineto
973.66 118.64 lineto
closepath fill
1 setlinewidth
solid
0 0 0 edgecolor
newpath 979.99 115.66 moveto
972.56 108.1 lineto
973.66 118.64 lineto
closepath stroke
grestore
% 62
gsave
0.33333 0.13333 1 nodecolor
newpath 1063.5 108 moveto
1009.5 108 lineto
1009.5 72 lineto
1063.5 72 lineto
closepath fill
1 setlinewidth
filled
0 0 0 nodecolor
newpath 1063.5 108 moveto
1009.5 108 lineto
1009.5 72 lineto
1063.5 72 lineto
closepath stroke
0 0 0 nodecolor
14 /Times-Roman set_font
1029.5 86.3 moveto 14 (11) alignedtext
0 0 0 nodecolor
14 /Times-Roman set_font
994.5 111.8 moveto 15 (62) alignedtext
grestore
% 39->62
gsave
1 setlinewidth
0 0 0 edgecolor
newpath 1007.14 143.7 moveto
1011.63 135.64 1017.06 125.89 1022.02 116.98 curveto
stroke
0 0 0 edgecolor
newpath 1025.16 118.54 moveto
1026.97 108.1 lineto
1019.05 115.14 lineto
closepath fill
1 setlinewidth
solid
0 0 0 edgecolor
newpath 1025.16 118.54 moveto
1026.97 108.1 lineto
1019.05 115.14 lineto
closepath stroke
grestore
% 59
gsave
0.33333 0.13333 1 nodecolor
newpath 823.5 108 moveto
769.5 108 lineto
769.5 72 lineto
823.5 72 lineto
closepath fill
1 setlinewidth
filled
0 0 0 nodecolor
newpath 823.5 108 moveto
769.5 108 lineto
769.5 72 lineto
823.5 72 lineto
closepath stroke
0 0 0 nodecolor
14 /Times-Roman set_font
793 86.3 moveto 7 (8) alignedtext
0 0 0 nodecolor
14 /Times-Roman set_font
753.5 111.8 moveto 16 (59) alignedtext
grestore
% 40->59
gsave
1 setlinewidth
0 0 0 edgecolor
newpath 848.44 143.7 moveto
840 135.14 829.68 124.66 820.46 115.3 curveto
stroke
0 0 0 edgecolor
newpath 822.87 112.77 moveto
813.36 108.1 lineto
817.89 117.68 lineto
closepath fill
1 setlinewidth
solid
0 0 0 edgecolor
newpath 822.87 112.77 moveto
813.36 108.1 lineto
817.89 117.68 lineto
closepath stroke
grestore
% 60
gsave
0.33333 0.13333 1 nodecolor
newpath 895.5 108 moveto
841.5 108 lineto
841.5 72 lineto
895.5 72 lineto
closepath fill
1 setlinewidth
filled
0 0 0 nodecolor
newpath 895.5 108 moveto
841.5 108 lineto
841.5 72 lineto
895.5 72 lineto
closepath stroke
0 0 0 nodecolor
14 /Times-Roman set_font
864.5 86.3 moveto 8 (9) alignedtext
0 0 0 nodecolor
14 /Times-Roman set_font
825.5 111.8 moveto 16 (60) alignedtext
grestore
% 40->60
gsave
1 setlinewidth
0 0 0 edgecolor
newpath 866.24 143.7 moveto
866.57 135.98 866.97 126.71 867.34 118.11 curveto
stroke
0 0 0 edgecolor
newpath 870.84 118.25 moveto
867.77 108.1 lineto
863.84 117.95 lineto
closepath fill
1 setlinewidth
solid
0 0 0 edgecolor
newpath 870.84 118.25 moveto
867.77 108.1 lineto
863.84 117.95 lineto
closepath stroke
grestore
% 57
gsave
0.33333 0.13333 1 nodecolor
newpath 1313.5 108 moveto
1259.5 108 lineto
1259.5 72 lineto
1313.5 72 lineto
closepath fill
1 setlinewidth
filled
0 0 0 nodecolor
newpath 1313.5 108 moveto
1259.5 108 lineto
1259.5 72 lineto
1313.5 72 lineto
closepath stroke
0 0 0 nodecolor
14 /Times-Roman set_font
1278.5 86.3 moveto 16 (14) alignedtext
0 0 0 nodecolor
14 /Times-Roman set_font
1244.5 111.8 moveto 15 (57) alignedtext
grestore
% 41->57
gsave
1 setlinewidth
0 0 0 edgecolor
newpath 1291.02 143.7 moveto
1290.36 135.98 1289.56 126.71 1288.82 118.11 curveto
stroke
0 0 0 edgecolor
newpath 1292.31 117.77 moveto
1287.97 108.1 lineto
1285.33 118.37 lineto
closepath fill
1 setlinewidth
solid
0 0 0 edgecolor
newpath 1292.31 117.77 moveto
1287.97 108.1 lineto
1285.33 118.37 lineto
closepath stroke
grestore
% 58
gsave
0.33333 0.13333 1 nodecolor
newpath 1385.5 108 moveto
1331.5 108 lineto
1331.5 72 lineto
1385.5 72 lineto
closepath fill
1 setlinewidth
filled
0 0 0 nodecolor
newpath 1385.5 108 moveto
1331.5 108 lineto
1331.5 72 lineto
1385.5 72 lineto
closepath stroke
0 0 0 nodecolor
14 /Times-Roman set_font
1351 86.3 moveto 15 (15) alignedtext
0 0 0 nodecolor
14 /Times-Roman set_font
1316.5 111.8 moveto 15 (58) alignedtext
grestore
% 41->58
gsave
1 setlinewidth
0 0 0 edgecolor
newpath 1308.81 143.7 moveto
1316.81 135.22 1326.57 124.86 1335.32 115.58 curveto
stroke
0 0 0 edgecolor
newpath 1338.06 117.78 moveto
1342.37 108.1 lineto
1332.97 112.98 lineto
closepath fill
1 setlinewidth
solid
0 0 0 edgecolor
newpath 1338.06 117.78 moveto
1342.37 108.1 lineto
1332.97 112.98 lineto
closepath stroke
grestore
% 55
gsave
0.33333 0.13333 1 nodecolor
newpath 1156.5 108 moveto
1102.5 108 lineto
1102.5 72 lineto
1156.5 72 lineto
closepath fill
1 setlinewidth
filled
0 0 0 nodecolor
newpath 1156.5 108 moveto
1102.5 108 lineto
1102.5 72 lineto
1156.5 72 lineto
closepath stroke
0 0 0 nodecolor
14 /Times-Roman set_font
1122.5 86.3 moveto 14 (12) alignedtext
0 0 0 nodecolor
14 /Times-Roman set_font
1086.5 111.8 moveto 16 (55) alignedtext
grestore
% 42->55
gsave
1 setlinewidth
0 0 0 edgecolor
newpath 1147.57 143.7 moveto
1144.89 135.9 1141.67 126.51 1138.7 117.83 curveto
stroke
0 0 0 edgecolor
newpath 1141.92 116.43 moveto
1135.36 108.1 lineto
1135.3 118.7 lineto
closepath fill
1 setlinewidth
solid
0 0 0 edgecolor
newpath 1141.92 116.43 moveto
1135.36 108.1 lineto
1135.3 118.7 lineto
closepath stroke
grestore
% 56
gsave
0.33333 0.13333 1 nodecolor
newpath 1228.5 108 moveto
1174.5 108 lineto
1174.5 72 lineto
1228.5 72 lineto
closepath fill
1 setlinewidth
filled
0 0 0 nodecolor
newpath 1228.5 108 moveto
1174.5 108 lineto
1174.5 72 lineto
1228.5 72 lineto
closepath stroke
0 0 0 nodecolor
14 /Times-Roman set_font
1194.5 86.3 moveto 14 (13) alignedtext
0 0 0 nodecolor
14 /Times-Roman set_font
1158.5 111.8 moveto 16 (56) alignedtext
grestore
% 42->56
gsave
1 setlinewidth
0 0 0 edgecolor
newpath 1165.37 143.7 moveto
1171 135.47 1177.85 125.48 1184.07 116.42 curveto
stroke
0 0 0 edgecolor
newpath 1187 118.33 moveto
1189.77 108.1 lineto
1181.23 114.37 lineto
closepath fill
1 setlinewidth
solid
0 0 0 edgecolor
newpath 1187 118.33 moveto
1189.77 108.1 lineto
1181.23 114.37 lineto
closepath stroke
grestore
% 53
gsave
0.33333 0.13333 1 nodecolor
newpath 367.5 108 moveto
313.5 108 lineto
313.5 72 lineto
367.5 72 lineto
closepath fill
1 setlinewidth
filled
0 0 0 nodecolor
newpath 367.5 108 moveto
313.5 108 lineto
313.5 72 lineto
367.5 72 lineto
closepath stroke
0 0 0 nodecolor
14 /Times-Roman set_font
337 86.3 moveto 7 (2) alignedtext
0 0 0 nodecolor
14 /Times-Roman set_font
298.5 111.8 moveto 15 (53) alignedtext
grestore
% 43->53
gsave
1 setlinewidth
0 0 0 edgecolor
newpath 373.62 143.7 moveto
368.51 135.56 362.3 125.69 356.66 116.7 curveto
stroke
0 0 0 edgecolor
newpath 359.54 114.71 moveto
351.25 108.1 lineto
353.61 118.43 lineto
closepath fill
1 setlinewidth
solid
0 0 0 edgecolor
newpath 359.54 114.71 moveto
351.25 108.1 lineto
353.61 118.43 lineto
closepath stroke
grestore
% 54
gsave
0.33333 0.13333 1 nodecolor
newpath 439.5 108 moveto
385.5 108 lineto
385.5 72 lineto
439.5 72 lineto
closepath fill
1 setlinewidth
filled
0 0 0 nodecolor
newpath 439.5 108 moveto
385.5 108 lineto
385.5 72 lineto
439.5 72 lineto
closepath stroke
0 0 0 nodecolor
14 /Times-Roman set_font
409 86.3 moveto 7 (3) alignedtext
0 0 0 nodecolor
14 /Times-Roman set_font
369.5 111.8 moveto 16 (54) alignedtext
grestore
% 43->54
gsave
1 setlinewidth
0 0 0 edgecolor
newpath 391.42 143.7 moveto
394.57 135.81 398.38 126.3 401.88 117.55 curveto
stroke
0 0 0 edgecolor
newpath 405.19 118.69 moveto
405.66 108.1 lineto
398.69 116.09 lineto
closepath fill
1 setlinewidth
solid
0 0 0 edgecolor
newpath 405.19 118.69 moveto
405.66 108.1 lineto
398.69 116.09 lineto
closepath stroke
grestore
% 51
gsave
0.33333 0.13333 1 nodecolor
newpath 215.5 108 moveto
161.5 108 lineto
161.5 72 lineto
215.5 72 lineto
closepath fill
1 setlinewidth
filled
0 0 0 nodecolor
newpath 215.5 108 moveto
161.5 108 lineto
161.5 72 lineto
215.5 72 lineto
closepath stroke
0 0 0 nodecolor
14 /Times-Roman set_font
184.5 86.3 moveto 8 (0) alignedtext
0 0 0 nodecolor
14 /Times-Roman set_font
146.5 111.8 moveto 15 (51) alignedtext
grestore
% 44->51
gsave
1 setlinewidth
0 0 0 edgecolor
newpath 241.95 143.7 moveto
233.27 135.14 222.64 124.66 213.15 115.3 curveto
stroke
0 0 0 edgecolor
newpath 215.43 112.63 moveto
205.85 108.1 lineto
210.51 117.62 lineto
closepath fill
1 setlinewidth
solid
0 0 0 edgecolor
newpath 215.43 112.63 moveto
205.85 108.1 lineto
210.51 117.62 lineto
closepath stroke
grestore
% 52
gsave
0.33333 0.13333 1 nodecolor
newpath 287.5 108 moveto
233.5 108 lineto
233.5 72 lineto
287.5 72 lineto
closepath fill
1 setlinewidth
filled
0 0 0 nodecolor
newpath 287.5 108 moveto
233.5 108 lineto
233.5 72 lineto
287.5 72 lineto
closepath stroke
0 0 0 nodecolor
14 /Times-Roman set_font
257 86.3 moveto 7 (1) alignedtext
0 0 0 nodecolor
14 /Times-Roman set_font
218.5 111.8 moveto 15 (52) alignedtext
grestore
% 44->52
gsave
1 setlinewidth
0 0 0 edgecolor
newpath 259.75 143.7 moveto
259.86 135.98 259.99 126.71 260.11 118.11 curveto
stroke
0 0 0 edgecolor
newpath 263.61 118.15 moveto
260.26 108.1 lineto
256.61 118.05 lineto
closepath fill
1 setlinewidth
solid
0 0 0 edgecolor
newpath 263.61 118.15 moveto
260.26 108.1 lineto
256.61 118.05 lineto
closepath stroke
grestore
% 49
gsave
0.33333 0.13333 1 nodecolor
newpath 661.5 108 moveto
607.5 108 lineto
607.5 72 lineto
661.5 72 lineto
closepath fill
1 setlinewidth
filled
0 0 0 nodecolor
newpath 661.5 108 moveto
607.5 108 lineto
607.5 72 lineto
661.5 72 lineto
closepath stroke
0 0 0 nodecolor
14 /Times-Roman set_font
630.5 86.3 moveto 8 (6) alignedtext
0 0 0 nodecolor
14 /Times-Roman set_font
591.5 111.8 moveto 16 (49) alignedtext
grestore
% 45->49
gsave
1 setlinewidth
0 0 0 edgecolor
newpath 651.81 143.7 moveto
649.25 135.9 646.17 126.51 643.32 117.83 curveto
stroke
0 0 0 edgecolor
newpath 646.57 116.51 moveto
640.12 108.1 lineto
639.92 118.7 lineto
closepath fill
1 setlinewidth
solid
0 0 0 edgecolor
newpath 646.57 116.51 moveto
640.12 108.1 lineto
639.92 118.7 lineto
closepath stroke
grestore
% 50
gsave
0.33333 0.13333 1 nodecolor
newpath 733.5 108 moveto
679.5 108 lineto
679.5 72 lineto
733.5 72 lineto
closepath fill
1 setlinewidth
filled
0 0 0 nodecolor
newpath 733.5 108 moveto
679.5 108 lineto
679.5 72 lineto
733.5 72 lineto
closepath stroke
0 0 0 nodecolor
14 /Times-Roman set_font
703 86.3 moveto 7 (7) alignedtext
0 0 0 nodecolor
14 /Times-Roman set_font
663.5 111.8 moveto 16 (50) alignedtext
grestore
% 45->50
gsave
1 setlinewidth
0 0 0 edgecolor
newpath 669.61 143.7 moveto
675.37 135.47 682.36 125.48 688.71 116.42 curveto
stroke
0 0 0 edgecolor
newpath 691.66 118.3 moveto
694.53 108.1 lineto
685.92 114.29 lineto
closepath fill
1 setlinewidth
solid
0 0 0 edgecolor
newpath 691.66 118.3 moveto
694.53 108.1 lineto
685.92 114.29 lineto
closepath stroke
grestore
% 47
gsave
0.33333 0.13333 1 nodecolor
newpath 515.5 108 moveto
461.5 108 lineto
461.5 72 lineto
515.5 72 lineto
closepath fill
1 setlinewidth
filled
0 0 0 nodecolor
newpath 515.5 108 moveto
461.5 108 lineto
461.5 72 lineto
515.5 72 lineto
closepath stroke
0 0 0 nodecolor
14 /Times-Roman set_font
484 86.3 moveto 9 (4) alignedtext
0 0 0 nodecolor
14 /Times-Roman set_font
445.5 111.8 moveto 16 (47) alignedtext
grestore
% 46->47
gsave
1 setlinewidth
0 0 0 edgecolor
newpath 520.87 143.7 moveto
515.87 135.56 509.81 125.69 504.29 116.7 curveto
stroke
0 0 0 edgecolor
newpath 507.22 114.79 moveto
499.01 108.1 lineto
501.26 118.46 lineto
closepath fill
1 setlinewidth
solid
0 0 0 edgecolor
newpath 507.22 114.79 moveto
499.01 108.1 lineto
501.26 118.46 lineto
closepath stroke
grestore
% 48
gsave
0.33333 0.13333 1 nodecolor
newpath 587.5 108 moveto
533.5 108 lineto
533.5 72 lineto
587.5 72 lineto
closepath fill
1 setlinewidth
filled
0 0 0 nodecolor
newpath 587.5 108 moveto
533.5 108 lineto
533.5 72 lineto
587.5 72 lineto
closepath stroke
0 0 0 nodecolor
14 /Times-Roman set_font
556.5 86.3 moveto 8 (5) alignedtext
0 0 0 nodecolor
14 /Times-Roman set_font
517.5 111.8 moveto 16 (48) alignedtext
grestore
% 46->48
gsave
1 setlinewidth
0 0 0 edgecolor
newpath 538.67 143.7 moveto
541.93 135.81 545.87 126.3 549.5 117.55 curveto
stroke
0 0 0 edgecolor
newpath 552.82 118.68 moveto
553.41 108.1 lineto
546.35 116 lineto
closepath fill
1 setlinewidth
solid
0 0 0 edgecolor
newpath 552.82 118.68 moveto
553.41 108.1 lineto
546.35 116 lineto
closepath stroke
grestore
% 70
gsave
0.16667 0.33333 1 nodecolor
newpath 533.5 36 moveto
477.5 36 lineto
477.5 0 lineto
533.5 0 lineto
closepath fill
1 setlinewidth
filled
0 0 0 nodecolor
newpath 533.5 36 moveto
477.5 36 lineto
477.5 0 lineto
533.5 0 lineto
closepath stroke
0 0 0 nodecolor
14 /Times-Roman set_font
485.5 14.3 moveto 40 (ko\(Int\)) alignedtext
0 0 0 nodecolor
14 /Times-Roman set_font
462.5 39.8 moveto 15 (70) alignedtext
grestore
% 47->70
gsave
1 setlinewidth
0 0 0 edgecolor
newpath 492.7 71.7 moveto
494.6 63.9 496.88 54.51 498.98 45.83 curveto
stroke
0 0 0 edgecolor
newpath 502.39 46.65 moveto
501.35 36.1 lineto
495.58 45 lineto
closepath fill
1 setlinewidth
solid
0 0 0 edgecolor
newpath 502.39 46.65 moveto
501.35 36.1 lineto
495.58 45 lineto
closepath stroke
grestore
% 48->70
gsave
1 setlinewidth
0 0 0 edgecolor
newpath 546.9 71.7 moveto
540.38 63.39 532.43 53.28 525.25 44.14 curveto
stroke
0 0 0 edgecolor
newpath 527.87 41.81 moveto
518.94 36.1 lineto
522.37 46.13 lineto
closepath fill
1 setlinewidth
solid
0 0 0 edgecolor
newpath 527.87 41.81 moveto
518.94 36.1 lineto
522.37 46.13 lineto
closepath stroke
grestore
% 69
gsave
0.16667 0.33333 1 nodecolor
newpath 725.5 36 moveto
669.5 36 lineto
669.5 0 lineto
725.5 0 lineto
closepath fill
1 setlinewidth
filled
0 0 0 nodecolor
newpath 725.5 36 moveto
669.5 36 lineto
669.5 0 lineto
725.5 0 lineto
closepath stroke
0 0 0 nodecolor
14 /Times-Roman set_font
677.5 14.3 moveto 40 (ko\(Int\)) alignedtext
0 0 0 nodecolor
14 /Times-Roman set_font
653.5 39.8 moveto 16 (69) alignedtext
grestore
% 49->69
gsave
1 setlinewidth
0 0 0 edgecolor
newpath 650.07 71.7 moveto
657.7 63.22 667.02 52.86 675.38 43.58 curveto
stroke
0 0 0 edgecolor
newpath 678.02 45.88 moveto
682.11 36.1 lineto
672.81 41.2 lineto
closepath fill
1 setlinewidth
solid
0 0 0 edgecolor
newpath 678.02 45.88 moveto
682.11 36.1 lineto
672.81 41.2 lineto
closepath stroke
grestore
% 50->69
gsave
1 setlinewidth
0 0 0 edgecolor
newpath 704.28 71.7 moveto
703.28 63.98 702.09 54.71 700.99 46.11 curveto
stroke
0 0 0 edgecolor
newpath 704.45 45.58 moveto
699.7 36.1 lineto
697.5 46.47 lineto
closepath fill
1 setlinewidth
solid
0 0 0 edgecolor
newpath 704.45 45.58 moveto
699.7 36.1 lineto
697.5 46.47 lineto
closepath stroke
grestore
% 68
gsave
0.16667 0.33333 1 nodecolor
newpath 252.5 36 moveto
196.5 36 lineto
196.5 0 lineto
252.5 0 lineto
closepath fill
1 setlinewidth
filled
0 0 0 nodecolor
newpath 252.5 36 moveto
196.5 36 lineto
196.5 0 lineto
252.5 0 lineto
closepath stroke
0 0 0 nodecolor
14 /Times-Roman set_font
204.5 14.3 moveto 40 (ko\(Int\)) alignedtext
0 0 0 nodecolor
14 /Times-Roman set_font
181.5 39.8 moveto 15 (68) alignedtext
grestore
% 51->68
gsave
1 setlinewidth
0 0 0 edgecolor
newpath 197.4 71.7 moveto
201.5 63.73 206.45 54.1 210.99 45.26 curveto
stroke
0 0 0 edgecolor
newpath 214.24 46.6 moveto
215.7 36.1 lineto
208.02 43.4 lineto
closepath fill
1 setlinewidth
solid
0 0 0 edgecolor
newpath 214.24 46.6 moveto
215.7 36.1 lineto
208.02 43.4 lineto
closepath stroke
grestore
% 52->68
gsave
1 setlinewidth
0 0 0 edgecolor
newpath 251.6 71.7 moveto
247.5 63.73 242.55 54.1 238.01 45.26 curveto
stroke
0 0 0 edgecolor
newpath 240.98 43.4 moveto
233.3 36.1 lineto
234.76 46.6 lineto
closepath fill
1 setlinewidth
solid
0 0 0 edgecolor
newpath 240.98 43.4 moveto
233.3 36.1 lineto
234.76 46.6 lineto
closepath stroke
grestore
% 67
gsave
0.16667 0.33333 1 nodecolor
newpath 424.5 36 moveto
368.5 36 lineto
368.5 0 lineto
424.5 0 lineto
closepath fill
1 setlinewidth
filled
0 0 0 nodecolor
newpath 424.5 36 moveto
368.5 36 lineto
368.5 0 lineto
424.5 0 lineto
closepath stroke
0 0 0 nodecolor
14 /Times-Roman set_font
376.5 14.3 moveto 40 (ko\(Int\)) alignedtext
0 0 0 nodecolor
14 /Times-Roman set_font
353.5 39.8 moveto 15 (67) alignedtext
grestore
% 53->67
gsave
1 setlinewidth
0 0 0 edgecolor
newpath 354.34 71.7 moveto
360.99 63.39 369.08 53.28 376.39 44.14 curveto
stroke
0 0 0 edgecolor
newpath 379.3 46.1 moveto
382.82 36.1 lineto
373.84 41.73 lineto
closepath fill
1 setlinewidth
solid
0 0 0 edgecolor
newpath 379.3 46.1 moveto
382.82 36.1 lineto
373.84 41.73 lineto
closepath stroke
grestore
% 54->67
gsave
1 setlinewidth
0 0 0 edgecolor
newpath 408.54 71.7 moveto
406.78 63.98 404.66 54.71 402.7 46.11 curveto
stroke
0 0 0 edgecolor
newpath 406.05 45.07 moveto
400.41 36.1 lineto
399.23 46.63 lineto
closepath fill
1 setlinewidth
solid
0 0 0 edgecolor
newpath 406.05 45.07 moveto
400.41 36.1 lineto
399.23 46.63 lineto
closepath stroke
grestore
% 66
gsave
0.16667 0.33333 1 nodecolor
newpath 1192.5 36 moveto
1136.5 36 lineto
1136.5 0 lineto
1192.5 0 lineto
closepath fill
1 setlinewidth
filled
0 0 0 nodecolor
newpath 1192.5 36 moveto
1136.5 36 lineto
1136.5 0 lineto
1192.5 0 lineto
closepath stroke
0 0 0 nodecolor
14 /Times-Roman set_font
1144.5 14.3 moveto 40 (ko\(Int\)) alignedtext
0 0 0 nodecolor
14 /Times-Roman set_font
1120.5 39.8 moveto 16 (66) alignedtext
grestore
% 55->66
gsave
1 setlinewidth
0 0 0 edgecolor
newpath 1138.15 71.7 moveto
1142.14 63.73 1146.95 54.1 1151.37 45.26 curveto
stroke
0 0 0 edgecolor
newpath 1154.61 46.61 moveto
1155.95 36.1 lineto
1148.35 43.48 lineto
closepath fill
1 setlinewidth
solid
0 0 0 edgecolor
newpath 1154.61 46.61 moveto
1155.95 36.1 lineto
1148.35 43.48 lineto
closepath stroke
grestore
% 56->66
gsave
1 setlinewidth
0 0 0 edgecolor
newpath 1192.35 71.7 moveto
1188.1 63.64 1182.94 53.89 1178.23 44.98 curveto
stroke
0 0 0 edgecolor
newpath 1181.31 43.31 moveto
1173.54 36.1 lineto
1175.12 46.58 lineto
closepath fill
1 setlinewidth
solid
0 0 0 edgecolor
newpath 1181.31 43.31 moveto
1173.54 36.1 lineto
1175.12 46.58 lineto
closepath stroke
grestore
% 65
gsave
0.16667 0.33333 1 nodecolor
newpath 1350.5 36 moveto
1294.5 36 lineto
1294.5 0 lineto
1350.5 0 lineto
closepath fill
1 setlinewidth
filled
0 0 0 nodecolor
newpath 1350.5 36 moveto
1294.5 36 lineto
1294.5 0 lineto
1350.5 0 lineto
closepath stroke
0 0 0 nodecolor
14 /Times-Roman set_font
1302.5 14.3 moveto 40 (ko\(Int\)) alignedtext
0 0 0 nodecolor
14 /Times-Roman set_font
1278.5 39.8 moveto 16 (65) alignedtext
grestore
% 57->65
gsave
1 setlinewidth
0 0 0 edgecolor
newpath 1295.4 71.7 moveto
1299.5 63.73 1304.45 54.1 1308.99 45.26 curveto
stroke
0 0 0 edgecolor
newpath 1312.24 46.6 moveto
1313.7 36.1 lineto
1306.02 43.4 lineto
closepath fill
1 setlinewidth
solid
0 0 0 edgecolor
newpath 1312.24 46.6 moveto
1313.7 36.1 lineto
1306.02 43.4 lineto
closepath stroke
grestore
% 58->65
gsave
1 setlinewidth
0 0 0 edgecolor
newpath 1349.6 71.7 moveto
1345.5 63.73 1340.55 54.1 1336.01 45.26 curveto
stroke
0 0 0 edgecolor
newpath 1338.98 43.4 moveto
1331.3 36.1 lineto
1332.76 46.6 lineto
closepath fill
1 setlinewidth
solid
0 0 0 edgecolor
newpath 1338.98 43.4 moveto
1331.3 36.1 lineto
1332.76 46.6 lineto
closepath stroke
grestore
% 64
gsave
0.16667 0.33333 1 nodecolor
newpath 834.5 36 moveto
778.5 36 lineto
778.5 0 lineto
834.5 0 lineto
closepath fill
1 setlinewidth
filled
0 0 0 nodecolor
newpath 834.5 36 moveto
778.5 36 lineto
778.5 0 lineto
834.5 0 lineto
closepath stroke
0 0 0 nodecolor
14 /Times-Roman set_font
786.5 14.3 moveto 40 (ko\(Int\)) alignedtext
0 0 0 nodecolor
14 /Times-Roman set_font
762.5 39.8 moveto 16 (64) alignedtext
grestore
% 59->64
gsave
1 setlinewidth
0 0 0 edgecolor
newpath 798.97 71.7 moveto
800.07 63.98 801.4 54.71 802.63 46.11 curveto
stroke
0 0 0 edgecolor
newpath 806.11 46.5 moveto
804.06 36.1 lineto
799.18 45.51 lineto
closepath fill
1 setlinewidth
solid
0 0 0 edgecolor
newpath 806.11 46.5 moveto
804.06 36.1 lineto
799.18 45.51 lineto
closepath stroke
grestore
% 60->64
gsave
1 setlinewidth
0 0 0 edgecolor
newpath 853.17 71.7 moveto
845.74 63.3 836.68 53.07 828.52 43.86 curveto
stroke
0 0 0 edgecolor
newpath 830.9 41.27 moveto
821.65 36.1 lineto
825.66 45.91 lineto
closepath fill
1 setlinewidth
solid
0 0 0 edgecolor
newpath 830.9 41.27 moveto
821.65 36.1 lineto
825.66 45.91 lineto
closepath stroke
grestore
% 63
gsave
0.16667 0.33333 1 nodecolor
newpath 1028.5 36 moveto
972.5 36 lineto
972.5 0 lineto
1028.5 0 lineto
closepath fill
1 setlinewidth
filled
0 0 0 nodecolor
newpath 1028.5 36 moveto
972.5 36 lineto
972.5 0 lineto
1028.5 0 lineto
closepath stroke
0 0 0 nodecolor
14 /Times-Roman set_font
980.5 14.3 moveto 40 (ko\(Int\)) alignedtext
0 0 0 nodecolor
14 /Times-Roman set_font
957.5 39.8 moveto 15 (63) alignedtext
grestore
% 61->63
gsave
1 setlinewidth
0 0 0 edgecolor
newpath 973.4 71.7 moveto
977.5 63.73 982.45 54.1 986.99 45.26 curveto
stroke
0 0 0 edgecolor
newpath 990.24 46.6 moveto
991.7 36.1 lineto
984.02 43.4 lineto
closepath fill
1 setlinewidth
solid
0 0 0 edgecolor
newpath 990.24 46.6 moveto
991.7 36.1 lineto
984.02 43.4 lineto
closepath stroke
grestore
% 62->63
gsave
1 setlinewidth
0 0 0 edgecolor
newpath 1027.6 71.7 moveto
1023.5 63.73 1018.55 54.1 1014.01 45.26 curveto
stroke
0 0 0 edgecolor
newpath 1016.98 43.4 moveto
1009.3 36.1 lineto
1010.76 46.6 lineto
closepath fill
1 setlinewidth
solid
0 0 0 edgecolor
newpath 1016.98 43.4 moveto
1009.3 36.1 lineto
1010.76 46.6 lineto
closepath stroke
grestore
endpage
showpage
grestore
%%PageTrailer
%%EndPage: 1
%%Trailer
end
restore
%%EOF
