digraph "Scala-Par-AM Scheme-examples/OPi/fibonacci_recur.scm" {
  node[shape=box, style=filled, fillcolor=<#DDFFDD>];

0[label=<(letrec ((fibonacci (lambda (n) (if (&lt;= n 1) n (+ (fibonacci (- n 1)) (fibonacci (- n 2))))))) (fibonacci 10))>, fillcolor=<#AAFFAA>];
1[label=<(fibonacci 10)>];
2[label=<(if (&lt;= n 1) n (+ (fibonacci (- n 1)) (fibonacci (- n 2))))>];
3[label=<(&lt;= n 1)>];
4[label=<ko(Bool)>, fillcolor=<#DDDDFF>];
5[label=<n>];
6[label=<(+ (fibonacci (- n 1)) (fibonacci (- n 2)))>];
7[label=<ko(Int)>, fillcolor=<#FFFFAA>];
8[label=<(fibonacci (- n 1))>];
9[label=<(- n 1)>];
10[label=<ko(Int)>, fillcolor=<#DDDDFF>];
11[label=<(if (&lt;= n 1) n (+ (fibonacci (- n 1)) (fibonacci (- n 2))))>];
12[label=<(&lt;= n 1)>];
13[label=<ko(Bool)>, fillcolor=<#DDDDFF>];
14[label=<n>];
15[label=<(+ (fibonacci (- n 1)) (fibonacci (- n 2)))>];
16[label=<n>];
17[label=<(+ (fibonacci (- n 1)) (fibonacci (- n 2)))>];
18[label=<ko(Int)>, fillcolor=<#FFFFAA>];
19[label=<(fibonacci (- n 1))>];
20[label=<ko(Int)>, fillcolor=<#DDDDFF>];
21[label=<(fibonacci (- n 1))>];
22[label=<(- n 1)>];
23[label=<(fibonacci (- n 2))>];
24[label=<(- n 1)>];
25[label=<ko(Int)>, fillcolor=<#DDDDFF>];
26[label=<(- n 2)>];
27[label=<ko(Int)>, fillcolor=<#DDDDFF>];
28[label=<(if (&lt;= n 1) n (+ (fibonacci (- n 1)) (fibonacci (- n 2))))>];
29[label=<ko(Int)>, fillcolor=<#DDDDFF>];
30[label=<(if (&lt;= n 1) n (+ (fibonacci (- n 1)) (fibonacci (- n 2))))>];
31[label=<(if (&lt;= n 1) n (+ (fibonacci (- n 1)) (fibonacci (- n 2))))>];
32[label=<(&lt;= n 1)>];
33[label=<ko(Bool)>, fillcolor=<#DDDDFF>];
34[label=<(&lt;= n 1)>];
35[label=<ko(Bool)>, fillcolor=<#DDDDFF>];
36[label=<n>];
37[label=<(+ (fibonacci (- n 1)) (fibonacci (- n 2)))>];
38[label=<n>];
39[label=<(+ (fibonacci (- n 1)) (fibonacci (- n 2)))>];
40[label=<ko(Int)>, fillcolor=<#FFFFAA>];
41[label=<ko(Int)>, fillcolor=<#DDDDFF>];
42[label=<n>];
43[label=<(+ (fibonacci (- n 1)) (fibonacci (- n 2)))>];
44[label=<n>];
45[label=<n>];
46[label=<(+ (fibonacci (- n 1)) (fibonacci (- n 2)))>];
47[label=<(+ (fibonacci (- n 1)) (fibonacci (- n 2)))>];
48[label=<ko(Int)>, fillcolor=<#FFFFAA>];
49[label=<(fibonacci (- n 1))>];
50[label=<ko(Int)>, fillcolor=<#DDDDFF>];
51[label=<ko(Int)>, fillcolor=<#DDDDFF>];
52[label=<(fibonacci (- n 1))>];
53[label=<(fibonacci (- n 1))>];
54[label=<(fibonacci (- n 2))>];
55[label=<(fibonacci (- n 2))>];
56[label=<(- n 2)>];
57[label=<(- n 2)>];
58[label=<(- n 1)>];
59[label=<(- n 1)>];
60[label=<(fibonacci (- n 2))>];
61[label=<(- n 1)>];
62[label=<ko(Int)>, fillcolor=<#DDDDFF>];
63[label=<(- n 2)>];
64[label=<ko(Int)>, fillcolor=<#DDDDFF>];
65[label=<ko(Int)>, fillcolor=<#DDDDFF>];
66[label=<ko(Int)>, fillcolor=<#DDDDFF>];
67[label=<ko(Int)>, fillcolor=<#DDDDFF>];
68[label=<(if (&lt;= n 1) n (+ (fibonacci (- n 1)) (fibonacci (- n 2))))>];
69[label=<(if (&lt;= n 1) n (+ (fibonacci (- n 1)) (fibonacci (- n 2))))>];
70[label=<(if (&lt;= n 1) n (+ (fibonacci (- n 1)) (fibonacci (- n 2))))>];
71[label=<(if (&lt;= n 1) n (+ (fibonacci (- n 1)) (fibonacci (- n 2))))>];
72[label=<ko(Int)>, fillcolor=<#DDDDFF>];
73[label=<(if (&lt;= n 1) n (+ (fibonacci (- n 1)) (fibonacci (- n 2))))>];
74[label=<(if (&lt;= n 1) n (+ (fibonacci (- n 1)) (fibonacci (- n 2))))>];
75[label=<(&lt;= n 1)>];
76[label=<(&lt;= n 1)>];
77[label=<(&lt;= n 1)>];
78[label=<ko(Bool)>, fillcolor=<#DDDDFF>];
79[label=<ko(Bool)>, fillcolor=<#DDDDFF>];
80[label=<ko(Bool)>, fillcolor=<#DDDDFF>];
81[label=<(+ (fibonacci (- n 1)) (fibonacci (- n 2)))>];
82[label=<n>];
83[label=<(+ (fibonacci (- n 1)) (fibonacci (- n 2)))>];
84[label=<(+ (fibonacci (- n 1)) (fibonacci (- n 2)))>];
85[label=<n>];
86[label=<n>];
87[label=<n>];
88[label=<(+ (fibonacci (- n 1)) (fibonacci (- n 2)))>];
89[label=<(+ (fibonacci (- n 1)) (fibonacci (- n 2)))>];
90[label=<(+ (fibonacci (- n 1)) (fibonacci (- n 2)))>];
91[label=<n>];
92[label=<n>];
93[label=<n>];
94[label=<(+ (fibonacci (- n 1)) (fibonacci (- n 2)))>];
95[label=<n>];
96[label=<(+ (fibonacci (- n 1)) (fibonacci (- n 2)))>];
97[label=<n>];
98[label=<(+ (fibonacci (- n 1)) (fibonacci (- n 2)))>];
99[label=<ko(Int)>, fillcolor=<#FFFFAA>];
100[label=<(fibonacci (- n 1))>];
101[label=<ko(Int)>, fillcolor=<#DDDDFF>];
102[label=<ko(Int)>, fillcolor=<#DDDDFF>];
103[label=<ko(Int)>, fillcolor=<#FFFFAA>];
104[label=<(fibonacci (- n 1))>];
105[label=<(fibonacci (- n 1))>];
106[label=<ko(Int)>, fillcolor=<#DDDDFF>];
107[label=<ko(Int)>, fillcolor=<#DDDDFF>];
108[label=<ko(Int)>, fillcolor=<#FFFFAA>];
109[label=<ko(Int)>, fillcolor=<#DDDDFF>];
110[label=<ko(Int)>, fillcolor=<#DDDDFF>];
111[label=<(fibonacci (- n 2))>];
112[label=<(fibonacci (- n 2))>];
113[label=<(- n 1)>];
114[label=<(fibonacci (- n 2))>];
115[label=<(fibonacci (- n 2))>];
116[label=<(- n 1)>];
117[label=<(- n 1)>];
118[label=<(fibonacci (- n 2))>];
119[label=<(- n 2)>];
120[label=<(- n 2)>];
121[label=<ko(Int)>, fillcolor=<#DDDDFF>];
122[label=<ko(Int)>, fillcolor=<#DDDDFF>];
123[label=<(- n 2)>];
124[label=<ko(Int)>, fillcolor=<#DDDDFF>];
125[label=<(- n 2)>];
126[label=<(- n 2)>];
127[label=<ko(Int)>, fillcolor=<#DDDDFF>];
128[label=<ko(Int)>, fillcolor=<#DDDDFF>];
129[label=<(if (&lt;= n 1) n (+ (fibonacci (- n 1)) (fibonacci (- n 2))))>];
130[label=<ko(Int)>, fillcolor=<#DDDDFF>];
131[label=<(if (&lt;= n 1) n (+ (fibonacci (- n 1)) (fibonacci (- n 2))))>];
132[label=<(if (&lt;= n 1) n (+ (fibonacci (- n 1)) (fibonacci (- n 2))))>];
133[label=<ko(Int)>, fillcolor=<#DDDDFF>];
134[label=<ko(Int)>, fillcolor=<#DDDDFF>];
135[label=<(if (&lt;= n 1) n (+ (fibonacci (- n 1)) (fibonacci (- n 2))))>];
136[label=<(if (&lt;= n 1) n (+ (fibonacci (- n 1)) (fibonacci (- n 2))))>];
137[label=<(&lt;= n 1)>];
138[label=<(if (&lt;= n 1) n (+ (fibonacci (- n 1)) (fibonacci (- n 2))))>];
139[label=<(&lt;= n 1)>];
140[label=<(if (&lt;= n 1) n (+ (fibonacci (- n 1)) (fibonacci (- n 2))))>];
141[label=<(if (&lt;= n 1) n (+ (fibonacci (- n 1)) (fibonacci (- n 2))))>];
142[label=<(&lt;= n 1)>];
143[label=<ko(Bool)>, fillcolor=<#DDDDFF>];
144[label=<ko(Bool)>, fillcolor=<#DDDDFF>];
145[label=<(&lt;= n 1)>];
146[label=<ko(Bool)>, fillcolor=<#DDDDFF>];
147[label=<n>];
148[label=<n>];
149[label=<(+ (fibonacci (- n 1)) (fibonacci (- n 2)))>];
150[label=<(+ (fibonacci (- n 1)) (fibonacci (- n 2)))>];
151[label=<n>];
152[label=<(+ (fibonacci (- n 1)) (fibonacci (- n 2)))>];
153[label=<(+ (fibonacci (- n 1)) (fibonacci (- n 2)))>];
154[label=<(+ (fibonacci (- n 1)) (fibonacci (- n 2)))>];
155[label=<n>];
156[label=<(+ (fibonacci (- n 1)) (fibonacci (- n 2)))>];
157[label=<n>];
158[label=<n>];
159[label=<ko(Bool)>, fillcolor=<#DDDDFF>];
160[label=<n>];
161[label=<(+ (fibonacci (- n 1)) (fibonacci (- n 2)))>];
162[label=<n>];
163[label=<(+ (fibonacci (- n 1)) (fibonacci (- n 2)))>];
164[label=<(+ (fibonacci (- n 1)) (fibonacci (- n 2)))>];
165[label=<n>];
166[label=<ko(Int)>, fillcolor=<#DDDDFF>];
167[label=<ko(Int)>, fillcolor=<#DDDDFF>];
168[label=<ko(Int)>, fillcolor=<#FFFFAA>];
169[label=<ko(Int)>, fillcolor=<#FFFFAA>];
170[label=<ko(Int)>, fillcolor=<#DDDDFF>];
171[label=<ko(Int)>, fillcolor=<#DDDDFF>];
172[label=<n>];
173[label=<(+ (fibonacci (- n 1)) (fibonacci (- n 2)))>];
174[label=<n>];
175[label=<(+ (fibonacci (- n 1)) (fibonacci (- n 2)))>];
176[label=<n>];
177[label=<(+ (fibonacci (- n 1)) (fibonacci (- n 2)))>];
178[label=<ko(Int)>, fillcolor=<#DDDDFF>];
179[label=<(fibonacci (- n 1))>];
180[label=<ko(Int)>, fillcolor=<#FFFFAA>];
181[label=<(fibonacci (- n 1))>];
182[label=<ko(Int)>, fillcolor=<#DDDDFF>];
183[label=<(fibonacci (- n 2))>];
184[label=<(fibonacci (- n 2))>];
185[label=<(fibonacci (- n 2))>];
186[label=<(fibonacci (- n 2))>];
187[label=<(fibonacci (- n 2))>];
188[label=<ko(Int)>, fillcolor=<#DDDDFF>];
189[label=<(fibonacci (- n 1))>];
190[label=<ko(Int)>, fillcolor=<#DDDDFF>];
191[label=<(fibonacci (- n 1))>];
192[label=<ko(Int)>, fillcolor=<#FFFFAA>];
193[label=<(- n 1)>];
194[label=<(- n 1)>];
195[label=<(- n 2)>];
196[label=<(- n 2)>];
197[label=<(- n 2)>];
198[label=<(- n 2)>];
199[label=<(- n 2)>];
200[label=<(- n 1)>];
201[label=<(- n 1)>];
202[label=<ko(Int)>, fillcolor=<#DDDDFF>];
203[label=<ko(Int)>, fillcolor=<#DDDDFF>];
204[label=<ko(Int)>, fillcolor=<#DDDDFF>];
205[label=<ko(Int)>, fillcolor=<#DDDDFF>];
206[label=<ko(Int)>, fillcolor=<#DDDDFF>];
207[label=<ko(Int)>, fillcolor=<#DDDDFF>];
208[label=<ko(Int)>, fillcolor=<#DDDDFF>];
209[label=<ko(Int)>, fillcolor=<#DDDDFF>];
210[label=<ko(Int)>, fillcolor=<#DDDDFF>];
211[label=<(if (&lt;= n 1) n (+ (fibonacci (- n 1)) (fibonacci (- n 2))))>];
212[label=<(if (&lt;= n 1) n (+ (fibonacci (- n 1)) (fibonacci (- n 2))))>];
213[label=<(if (&lt;= n 1) n (+ (fibonacci (- n 1)) (fibonacci (- n 2))))>];
214[label=<(if (&lt;= n 1) n (+ (fibonacci (- n 1)) (fibonacci (- n 2))))>];
215[label=<(if (&lt;= n 1) n (+ (fibonacci (- n 1)) (fibonacci (- n 2))))>];
216[label=<(if (&lt;= n 1) n (+ (fibonacci (- n 1)) (fibonacci (- n 2))))>];
217[label=<(if (&lt;= n 1) n (+ (fibonacci (- n 1)) (fibonacci (- n 2))))>];
218[label=<(if (&lt;= n 1) n (+ (fibonacci (- n 1)) (fibonacci (- n 2))))>];
219[label=<(if (&lt;= n 1) n (+ (fibonacci (- n 1)) (fibonacci (- n 2))))>];
220[label=<(&lt;= n 1)>];
221[label=<(&lt;= n 1)>];
222[label=<(&lt;= n 1)>];
223[label=<ko(Bool)>, fillcolor=<#DDDDFF>];
224[label=<ko(Bool)>, fillcolor=<#DDDDFF>];
225[label=<ko(Bool)>, fillcolor=<#DDDDFF>];
226[label=<n>];
227[label=<(+ (fibonacci (- n 1)) (fibonacci (- n 2)))>];
228[label=<(+ (fibonacci (- n 1)) (fibonacci (- n 2)))>];
229[label=<(+ (fibonacci (- n 1)) (fibonacci (- n 2)))>];
230[label=<n>];
231[label=<n>];
232[label=<(+ (fibonacci (- n 1)) (fibonacci (- n 2)))>];
233[label=<(+ (fibonacci (- n 1)) (fibonacci (- n 2)))>];
234[label=<n>];
235[label=<n>];
236[label=<(+ (fibonacci (- n 1)) (fibonacci (- n 2)))>];
237[label=<n>];
238[label=<n>];
239[label=<n>];
240[label=<(+ (fibonacci (- n 1)) (fibonacci (- n 2)))>];
241[label=<n>];
242[label=<(+ (fibonacci (- n 1)) (fibonacci (- n 2)))>];
243[label=<(+ (fibonacci (- n 1)) (fibonacci (- n 2)))>];
244[label=<ko(Int)>, fillcolor=<#DDDDFF>];
245[label=<ko(Int)>, fillcolor=<#DDDDFF>];
246[label=<ko(Int)>, fillcolor=<#FFFFAA>];
247[label=<ko(Int)>, fillcolor=<#FFFFAA>];
248[label=<ko(Int)>, fillcolor=<#DDDDFF>];
249[label=<ko(Int)>, fillcolor=<#DDDDFF>];
250[label=<ko(Int)>, fillcolor=<#FFFFAA>];
251[label=<(fibonacci (- n 1))>];
252[label=<ko(Int)>, fillcolor=<#DDDDFF>];
253[label=<ko(Int)>, fillcolor=<#DDDDFF>];
254[label=<(fibonacci (- n 2))>];
255[label=<(- n 1)>];
256[label=<(- n 2)>];
257[label=<ko(Int)>, fillcolor=<#DDDDFF>];
258[label=<(if (&lt;= n 1) n (+ (fibonacci (- n 1)) (fibonacci (- n 2))))>];
259[label=<ko(Int)>, fillcolor=<#DDDDFF>];
260[label=<(if (&lt;= n 1) n (+ (fibonacci (- n 1)) (fibonacci (- n 2))))>];
261[label=<(&lt;= n 1)>];
262[label=<ko(Bool)>, fillcolor=<#DDDDFF>];
263[label=<(+ (fibonacci (- n 1)) (fibonacci (- n 2)))>];
264[label=<n>];
265[label=<n>];
266[label=<(+ (fibonacci (- n 1)) (fibonacci (- n 2)))>];
267[label=<n>];
268[label=<(+ (fibonacci (- n 1)) (fibonacci (- n 2)))>];
269[label=<(fibonacci (- n 1))>];
270[label=<ko(Int)>, fillcolor=<#FFFFAA>];
271[label=<ko(Int)>, fillcolor=<#DDDDFF>];
272[label=<ko(Int)>, fillcolor=<#DDDDFF>];
273[label=<(- n 1)>];
274[label=<ko(Int)>, fillcolor=<#DDDDFF>];
275[label=<(if (&lt;= n 1) n (+ (fibonacci (- n 1)) (fibonacci (- n 2))))>];

0 -> 1;
1 -> 2;
2 -> 3;
3 -> 4;
4 -> 5;
4 -> 6;
5 -> 7;
6 -> 8;
8 -> 9;
9 -> 10;
10 -> 11;
11 -> 12;
12 -> 13;
13 -> 14;
13 -> 15;
13 -> 16;
13 -> 17;
14 -> 18;
15 -> 19;
16 -> 20;
17 -> 21;
19 -> 24;
20 -> 23;
21 -> 22;
22 -> 27;
23 -> 26;
24 -> 25;
25 -> 30;
26 -> 29;
27 -> 28;
28 -> 32;
29 -> 31;
30 -> 12;
31 -> 34;
32 -> 33;
33 -> 36;
33 -> 37;
33 -> 38;
33 -> 39;
34 -> 35;
35 -> 42;
35 -> 43;
35 -> 44;
35 -> 45;
35 -> 46;
35 -> 47;
36 -> 40;
37 -> 21;
38 -> 41;
39 -> 21;
41 -> 54;
41 -> 55;
42 -> 48;
43 -> 49;
44 -> 50;
45 -> 51;
46 -> 52;
47 -> 53;
49 -> 61;
50 -> 60;
51 -> 48;
52 -> 59;
53 -> 58;
54 -> 56;
55 -> 57;
56 -> 67;
57 -> 66;
58 -> 65;
59 -> 64;
60 -> 63;
61 -> 62;
62 -> 73;
63 -> 72;
64 -> 71;
65 -> 70;
66 -> 69;
67 -> 68;
68 -> 75;
69 -> 77;
70 -> 76;
71 -> 75;
72 -> 74;
73 -> 34;
74 -> 34;
75 -> 78;
76 -> 80;
77 -> 79;
78 -> 93;
78 -> 94;
78 -> 95;
78 -> 96;
78 -> 97;
78 -> 98;
79 -> 87;
79 -> 88;
79 -> 89;
79 -> 90;
79 -> 91;
79 -> 92;
80 -> 81;
80 -> 82;
80 -> 83;
80 -> 84;
80 -> 85;
80 -> 86;
81 -> 53;
82 -> 108;
83 -> 53;
84 -> 100;
85 -> 109;
86 -> 110;
87 -> 103;
88 -> 104;
89 -> 105;
90 -> 104;
91 -> 106;
92 -> 107;
93 -> 99;
94 -> 100;
95 -> 101;
96 -> 52;
97 -> 102;
98 -> 52;
100 -> 113;
101 -> 99;
102 -> 114;
102 -> 118;
104 -> 116;
105 -> 117;
106 -> 107;
107 -> 114;
107 -> 115;
109 -> 111;
109 -> 112;
110 -> 108;
111 -> 125;
112 -> 126;
113 -> 124;
114 -> 120;
115 -> 123;
116 -> 122;
117 -> 121;
118 -> 119;
119 -> 134;
120 -> 133;
121 -> 132;
122 -> 131;
123 -> 130;
124 -> 129;
125 -> 128;
126 -> 127;
127 -> 141;
128 -> 140;
129 -> 139;
130 -> 138;
131 -> 77;
132 -> 137;
133 -> 136;
134 -> 135;
135 -> 75;
136 -> 145;
137 -> 144;
138 -> 77;
139 -> 143;
140 -> 76;
141 -> 142;
142 -> 159;
143 -> 153;
143 -> 154;
143 -> 155;
143 -> 156;
143 -> 157;
143 -> 158;
144 -> 147;
144 -> 148;
144 -> 149;
144 -> 150;
144 -> 151;
144 -> 152;
145 -> 146;
146 -> 172;
146 -> 173;
146 -> 174;
146 -> 175;
146 -> 176;
146 -> 177;
147 -> 169;
148 -> 170;
149 -> 105;
150 -> 105;
151 -> 171;
152 -> 105;
153 -> 100;
154 -> 100;
155 -> 166;
156 -> 100;
157 -> 167;
158 -> 168;
159 -> 160;
159 -> 161;
159 -> 162;
159 -> 163;
159 -> 164;
159 -> 165;
160 -> 188;
161 -> 189;
162 -> 190;
163 -> 191;
164 -> 191;
165 -> 192;
166 -> 168;
167 -> 183;
167 -> 186;
167 -> 187;
170 -> 183;
170 -> 184;
170 -> 185;
171 -> 170;
172 -> 178;
173 -> 179;
174 -> 180;
175 -> 181;
176 -> 182;
177 -> 179;
178 -> 114;
179 -> 200;
181 -> 201;
182 -> 178;
182 -> 180;
183 -> 197;
184 -> 198;
185 -> 199;
186 -> 195;
187 -> 196;
188 -> 188;
188 -> 192;
189 -> 194;
190 -> 112;
191 -> 193;
193 -> 210;
194 -> 209;
195 -> 208;
196 -> 207;
197 -> 206;
198 -> 205;
199 -> 204;
200 -> 203;
201 -> 202;
202 -> 219;
203 -> 218;
204 -> 217;
205 -> 216;
206 -> 215;
207 -> 214;
208 -> 213;
209 -> 212;
210 -> 211;
211 -> 142;
212 -> 222;
213 -> 139;
214 -> 222;
215 -> 220;
216 -> 137;
217 -> 221;
218 -> 145;
219 -> 220;
220 -> 224;
221 -> 225;
222 -> 223;
223 -> 238;
223 -> 239;
223 -> 240;
223 -> 241;
223 -> 242;
223 -> 243;
224 -> 232;
224 -> 233;
224 -> 234;
224 -> 235;
224 -> 236;
224 -> 237;
225 -> 226;
225 -> 227;
225 -> 228;
225 -> 229;
225 -> 230;
225 -> 231;
226 -> 250;
227 -> 251;
228 -> 251;
229 -> 251;
230 -> 252;
231 -> 253;
232 -> 181;
233 -> 181;
234 -> 247;
235 -> 248;
236 -> 181;
237 -> 249;
238 -> 244;
239 -> 245;
240 -> 189;
241 -> 246;
242 -> 189;
243 -> 189;
244 -> 244;
244 -> 246;
245 -> 187;
245 -> 254;
248 -> 183;
248 -> 254;
249 -> 247;
249 -> 248;
251 -> 255;
252 -> 252;
252 -> 253;
253 -> 185;
253 -> 254;
254 -> 256;
255 -> 257;
256 -> 259;
257 -> 258;
258 -> 221;
259 -> 260;
260 -> 261;
261 -> 262;
262 -> 263;
262 -> 264;
262 -> 265;
262 -> 266;
262 -> 267;
262 -> 268;
263 -> 269;
264 -> 270;
265 -> 271;
266 -> 269;
267 -> 272;
268 -> 269;
269 -> 273;
271 -> 254;
272 -> 270;
272 -> 271;
272 -> 272;
273 -> 274;
274 -> 275;
275 -> 261;
}
