<?xml version="1.0" encoding="UTF-8" standalone="no"?>
<svg
   xmlns:dc="http://purl.org/dc/elements/1.1/"
   xmlns:cc="http://creativecommons.org/ns#"
   xmlns:rdf="http://www.w3.org/1999/02/22-rdf-syntax-ns#"
   xmlns:svg="http://www.w3.org/2000/svg"
   xmlns="http://www.w3.org/2000/svg"
   xmlns:xlink="http://www.w3.org/1999/xlink"
   xmlns:sodipodi="http://sodipodi.sourceforge.net/DTD/sodipodi-0.dtd"
   xmlns:inkscape="http://www.inkscape.org/namespaces/inkscape"
   width="195"
   height="175"
   viewBox="0 0 195 175"
   version="1.1"
   id="svg387"
   sodipodi:docname="legend.svg"
   inkscape:version="0.92.1 r15371">
  <metadata
     id="metadata393">
    <rdf:RDF>
      <cc:Work
         rdf:about="">
        <dc:format>image/svg+xml</dc:format>
        <dc:type
           rdf:resource="http://purl.org/dc/dcmitype/StillImage" />
        <dc:title>Gnuplot</dc:title>
      </cc:Work>
    </rdf:RDF>
  </metadata>
  <defs
     id="defs391">
    <defs
       id="defs34">
      <circle
         r="0.5"
         id="gpDot"
         cx="0"
         cy="0"
         style="stroke-width:0.5" />
      <path
         d="M -1,0 H 1 M 0,-1 v 2"
         id="gpPt0"
         inkscape:connector-curvature="0"
         style="stroke:currentColor;stroke-width:0.222" />
      <path
         d="M -1,-1 1,1 M 1,-1 -1,1"
         id="gpPt1"
         inkscape:connector-curvature="0"
         style="stroke:currentColor;stroke-width:0.222" />
      <path
         d="M -1,0 H 1 M 0,-1 v 2 m -1,-2 2,2 m -2,0 2,-2"
         id="gpPt2"
         inkscape:connector-curvature="0"
         style="stroke:currentColor;stroke-width:0.222" />
      <rect
         height="2"
         width="2"
         y="-1"
         x="-1"
         id="gpPt3"
         style="stroke:currentColor;stroke-width:0.222" />
      <rect
         height="2"
         width="2"
         y="-1"
         x="-1"
         id="gpPt4"
         style="fill:currentColor;stroke:currentColor;stroke-width:0.222" />
      <circle
         r="1"
         cy="0"
         cx="0"
         id="gpPt5"
         style="stroke:currentColor;stroke-width:0.222" />
      <use
         id="gpPt6"
         xlink:href="#gpPt5"
         style="fill:currentColor;stroke:none"
         x="0"
         y="0"
         width="100%"
         height="100%" />
      <path
         d="m 0,-1.33 -1.33,2 h 2.66 z"
         id="gpPt7"
         inkscape:connector-curvature="0"
         style="stroke:currentColor;stroke-width:0.222" />
      <use
         id="gpPt8"
         xlink:href="#gpPt7"
         style="fill:currentColor;stroke:none"
         x="0"
         y="0"
         width="100%"
         height="100%" />
      <use
         transform="scale(-1)"
         id="gpPt9"
         xlink:href="#gpPt7"
         style="stroke:currentColor"
         x="0"
         y="0"
         width="100%"
         height="100%" />
      <use
         id="gpPt10"
         xlink:href="#gpPt9"
         style="fill:currentColor;stroke:none"
         x="0"
         y="0"
         width="100%"
         height="100%" />
      <use
         transform="rotate(45)"
         id="gpPt11"
         xlink:href="#gpPt3"
         style="stroke:currentColor"
         x="0"
         y="0"
         width="100%"
         height="100%" />
      <use
         id="gpPt12"
         xlink:href="#gpPt11"
         style="fill:currentColor;stroke:none"
         x="0"
         y="0"
         width="100%"
         height="100%" />
      <path
         d="M 0,1.33 1.265,0.411 0.782,-1.067 -0.782,-1.076 -1.265,0.411 Z"
         id="gpPt13"
         inkscape:connector-curvature="0"
         style="stroke:currentColor;stroke-width:0.222" />
      <use
         id="gpPt14"
         xlink:href="#gpPt13"
         style="fill:currentColor;stroke:none"
         x="0"
         y="0"
         width="100%"
         height="100%" />
      <filter
         width="1"
         height="1"
         y="0"
         x="0"
         filterUnits="objectBoundingBox"
         id="textbox">
        <feFlood
           id="feFlood24"
           result="bgnd"
           flood-opacity="1"
           flood-color="white" />
        <feComposite
           id="feComposite26"
           operator="atop"
           in2="bgnd"
           in="SourceGraphic" />
      </filter>
      <filter
         width="1"
         height="1"
         y="0"
         x="0"
         filterUnits="objectBoundingBox"
         id="greybox">
        <feFlood
           id="feFlood29"
           result="grey"
           flood-opacity="1"
           flood-color="lightgrey" />
        <feComposite
           id="feComposite31"
           operator="atop"
           in2="grey"
           in="SourceGraphic" />
      </filter>
    </defs>
  </defs>
  <sodipodi:namedview
     pagecolor="#ffffff"
     bordercolor="#666666"
     borderopacity="1"
     objecttolerance="10"
     gridtolerance="10"
     guidetolerance="10"
     inkscape:pageopacity="0"
     inkscape:pageshadow="2"
     inkscape:window-width="1401"
     inkscape:window-height="916"
     id="namedview389"
     showgrid="false"
     inkscape:zoom="2.7812867"
     inkscape:cx="111.8547"
     inkscape:cy="99.449253"
     inkscape:window-x="0"
     inkscape:window-y="27"
     inkscape:window-maximized="0"
     inkscape:current-layer="svg387" />
  <title
     id="title2">Gnuplot</title>
  <desc
     id="desc4">Produced by GNUPLOT 5.0 patchlevel 5 </desc>
  <rect
     style="fill:none"
     id="rect6"
     height="480"
     width="600"
     y="-305"
     x="0" />
  <g
     id="g5324"
     transform="translate(-7.1186441,-77.141705)">
    <g
       transform="translate(8.3,86.8)"
       font-size="12.00"
       id="g167"
       style="color:#000000;font-size:12px;font-family:Arial;text-anchor:start;fill:#000000;stroke:none;stroke-width:1;stroke-linecap:butt;stroke-linejoin:miter">
      <text
         id="text165">
        <tspan
           id="tspan163"
           style="font-family:Arial">SeqAAMLS</tspan>
      </text>
    </g>
    <use
       xlink:href="#gpPt6"
       transform="matrix(2.7,0,0,2.7,178.8,82.9)"
       id="use171"
       style="color:#ff8000;fill:none;stroke:#000000;stroke-width:1;stroke-linecap:butt;stroke-linejoin:miter"
       x="0"
       y="0"
       width="100%"
       height="100%" />
    <g
       transform="translate(8.3,104.8)"
       font-size="12.00"
       id="g187"
       style="color:#000000;font-size:12px;font-family:Arial;text-anchor:start;fill:#000000;stroke:none;stroke-width:1;stroke-linecap:butt;stroke-linejoin:miter">
      <text
         id="text185">
        <tspan
           id="tspan183"
           style="font-family:Arial">ParAAM-L-SA-state</tspan>
      </text>
    </g>
    <path
       d="m 157.7,100.9 h 42.2"
       id="path191"
       inkscape:connector-curvature="0"
       style="color:#000000;fill:none;stroke:#a00000;stroke-width:1;stroke-linecap:butt;stroke-linejoin:miter;stroke-dasharray:1, 2.5" />
    <use
       xlink:href="#gpPt6"
       transform="matrix(1.35,0,0,1.35,178.8,100.9)"
       id="use193"
       style="color:#a00000;fill:none;stroke:#000000;stroke-width:1;stroke-linecap:butt;stroke-linejoin:miter"
       x="0"
       y="0"
       width="100%"
       height="100%" />
    <g
       transform="translate(8.3,122.8)"
       font-size="12.00"
       id="g209"
       style="color:#000000;font-size:12px;font-family:Arial;text-anchor:start;fill:#000000;stroke:none;stroke-width:1;stroke-linecap:butt;stroke-linejoin:miter">
      <text
         id="text207">
        <tspan
           id="tspan205"
           style="font-family:Arial">ParAAM-L-SA-set</tspan>
      </text>
    </g>
    <path
       d="m 157.7,118.9 h 42.2"
       id="path213"
       inkscape:connector-curvature="0"
       style="color:#000000;fill:none;stroke:#00a000;stroke-width:1;stroke-linecap:butt;stroke-linejoin:miter;stroke-dasharray:1, 2.5" />
    <use
       xlink:href="#gpPt6"
       transform="matrix(1.35,0,0,1.35,178.8,118.9)"
       id="use215"
       style="color:#00a000;fill:none;stroke:#000000;stroke-width:1;stroke-linecap:butt;stroke-linejoin:miter"
       x="0"
       y="0"
       width="100%"
       height="100%" />
    <g
       transform="translate(8.3,140.8)"
       font-size="12.00"
       id="g231"
       style="color:#000000;font-size:12px;font-family:Arial;text-anchor:start;fill:#000000;stroke:none;stroke-width:1;stroke-linecap:butt;stroke-linejoin:miter">
      <text
         id="text229">
        <tspan
           id="tspan227"
           style="font-family:Arial">ParAAM-L-SA-part</tspan>
      </text>
    </g>
    <path
       d="m 157.7,136.9 h 42.2"
       id="path235"
       inkscape:connector-curvature="0"
       style="color:#000000;fill:none;stroke:#0000a0;stroke-width:1;stroke-linecap:butt;stroke-linejoin:miter;stroke-dasharray:1, 2.5" />
    <use
       xlink:href="#gpPt6"
       transform="matrix(1.35,0,0,1.35,178.8,136.9)"
       id="use237"
       style="color:#0000a0;fill:none;stroke:#000000;stroke-width:1;stroke-linecap:butt;stroke-linejoin:miter"
       x="0"
       y="0"
       width="100%"
       height="100%" />
    <g
       transform="translate(8.3,158.8)"
       font-size="12.00"
       id="g253"
       style="color:#000000;font-size:12px;font-family:Arial;text-anchor:start;fill:#000000;stroke:none;stroke-width:1;stroke-linecap:butt;stroke-linejoin:miter">
      <text
         id="text251">
        <tspan
           id="tspan249"
           style="font-family:Arial">ParAAM-C-S-state</tspan>
      </text>
    </g>
    <path
       d="m 157.7,154.9 h 42.2"
       id="path257"
       inkscape:connector-curvature="0"
       style="color:#000000;fill:none;stroke:#c00000;stroke-width:1;stroke-linecap:butt;stroke-linejoin:miter;stroke-dasharray:5, 5" />
    <use
       xlink:href="#gpPt6"
       transform="matrix(1.35,0,0,1.35,178.8,154.9)"
       id="use259"
       style="color:#c00000;fill:none;stroke:#000000;stroke-width:1;stroke-linecap:butt;stroke-linejoin:miter"
       x="0"
       y="0"
       width="100%"
       height="100%" />
    <g
       transform="translate(8.3,176.8)"
       font-size="12.00"
       id="g275"
       style="color:#000000;font-size:12px;font-family:Arial;text-anchor:start;fill:#000000;stroke:none;stroke-width:1;stroke-linecap:butt;stroke-linejoin:miter">
      <text
         id="text273">
        <tspan
           id="tspan271"
           style="font-family:Arial">ParAAM-C-S-set</tspan>
      </text>
    </g>
    <path
       d="m 157.7,172.9 h 42.2"
       id="path279"
       inkscape:connector-curvature="0"
       style="color:#000000;fill:none;stroke:#00c000;stroke-width:1;stroke-linecap:butt;stroke-linejoin:miter;stroke-dasharray:5, 5" />
    <use
       xlink:href="#gpPt6"
       transform="matrix(1.35,0,0,1.35,178.8,172.9)"
       id="use281"
       style="color:#00c000;fill:none;stroke:#000000;stroke-width:1;stroke-linecap:butt;stroke-linejoin:miter"
       x="0"
       y="0"
       width="100%"
       height="100%" />
    <g
       transform="translate(8.3,194.8)"
       font-size="12.00"
       id="g297"
       style="color:#000000;font-size:12px;font-family:Arial;text-anchor:start;fill:#000000;stroke:none;stroke-width:1;stroke-linecap:butt;stroke-linejoin:miter">
      <text
         id="text295">
        <tspan
           id="tspan293"
           style="font-family:Arial">ParAAM-C-S-part</tspan>
      </text>
    </g>
    <path
       d="m 157.7,190.9 h 42.2"
       id="path301"
       inkscape:connector-curvature="0"
       style="color:#000000;fill:none;stroke:#0000c0;stroke-width:1;stroke-linecap:butt;stroke-linejoin:miter;stroke-dasharray:5, 5" />
    <use
       xlink:href="#gpPt6"
       transform="matrix(1.35,0,0,1.35,178.8,190.9)"
       id="use303"
       style="color:#0000c0;fill:none;stroke:#000000;stroke-width:1;stroke-linecap:butt;stroke-linejoin:miter"
       x="0"
       y="0"
       width="100%"
       height="100%" />
    <g
       transform="translate(8.3,212.8)"
       font-size="12.00"
       id="g319"
       style="color:#000000;font-size:12px;font-family:Arial;text-anchor:start;fill:#000000;stroke:none;stroke-width:1;stroke-linecap:butt;stroke-linejoin:miter">
      <text
         id="text317">
        <tspan
           id="tspan315"
           style="font-family:Arial">ParAAM-C-state</tspan>
      </text>
    </g>
    <path
       d="m 157.7,208.9 h 42.2"
       id="path323"
       inkscape:connector-curvature="0"
       style="color:#000000;fill:none;stroke:#ff0000;stroke-width:1;stroke-linecap:butt;stroke-linejoin:miter" />
    <use
       xlink:href="#gpPt6"
       transform="matrix(1.35,0,0,1.35,178.8,208.9)"
       id="use325"
       style="color:#ff0000;fill:none;stroke:#000000;stroke-width:1;stroke-linecap:butt;stroke-linejoin:miter"
       x="0"
       y="0"
       width="100%"
       height="100%" />
    <g
       transform="translate(8.3,230.8)"
       font-size="12.00"
       id="g341"
       style="color:#000000;font-size:12px;font-family:Arial;text-anchor:start;fill:#000000;stroke:none;stroke-width:1;stroke-linecap:butt;stroke-linejoin:miter">
      <text
         id="text339">
        <tspan
           id="tspan337"
           style="font-family:Arial">ParAAM-C-set</tspan>
      </text>
    </g>
    <path
       d="m 157.7,226.9 h 42.2"
       id="path345"
       inkscape:connector-curvature="0"
       style="color:#000000;fill:none;stroke:#00ff00;stroke-width:1;stroke-linecap:butt;stroke-linejoin:miter" />
    <use
       xlink:href="#gpPt6"
       transform="matrix(1.35,0,0,1.35,178.8,226.9)"
       id="use347"
       style="color:#00ff00;fill:none;stroke:#000000;stroke-width:1;stroke-linecap:butt;stroke-linejoin:miter"
       x="0"
       y="0"
       width="100%"
       height="100%" />
    <g
       transform="translate(8.3,248.8)"
       font-size="12.00"
       id="g363"
       style="color:#000000;font-size:12px;font-family:Arial;text-anchor:start;fill:#000000;stroke:none;stroke-width:1;stroke-linecap:butt;stroke-linejoin:miter">
      <text
         id="text361">
        <tspan
           id="tspan359"
           style="font-family:Arial">ParAAM-C-part</tspan>
      </text>
    </g>
    <path
       d="m 157.7,244.9 h 42.2"
       id="path367"
       inkscape:connector-curvature="0"
       style="color:#000000;fill:none;stroke:#0000ff;stroke-width:1;stroke-linecap:butt;stroke-linejoin:miter" />
    <use
       xlink:href="#gpPt6"
       transform="matrix(1.35,0,0,1.35,178.8,244.9)"
       id="use369"
       style="color:#0000ff;fill:none;stroke:#000000;stroke-width:1;stroke-linecap:butt;stroke-linejoin:miter"
       x="0"
       y="0"
       width="100%"
       height="100%" />
  </g>
</svg>
