<?xml version="1.0" encoding="UTF-8" standalone="no"?>
<!-- Generator: Adobe Illustrator 19.2.0, SVG Export Plug-In . SVG Version: 6.00 Build 0)  -->

<svg
   xmlns:dc="http://purl.org/dc/elements/1.1/"
   xmlns:cc="http://creativecommons.org/ns#"
   xmlns:rdf="http://www.w3.org/1999/02/22-rdf-syntax-ns#"
   xmlns:svg="http://www.w3.org/2000/svg"
   xmlns="http://www.w3.org/2000/svg"
   xmlns:sodipodi="http://sodipodi.sourceforge.net/DTD/sodipodi-0.dtd"
   xmlns:inkscape="http://www.inkscape.org/namespaces/inkscape"
   version="1.1"
   id="Layer_1"
   x="0px"
   y="0px"
   viewBox="0 0 500 178"
   style="enable-background:new 0 0 500 178;"
   xml:space="preserve"
   sodipodi:docname="VUB.svg"
   inkscape:version="0.92.1 r15371"><metadata
     id="metadata3954"><rdf:RDF><cc:Work
         rdf:about=""><dc:format>image/svg+xml</dc:format><dc:type
           rdf:resource="http://purl.org/dc/dcmitype/StillImage" /><dc:title></dc:title></cc:Work></rdf:RDF></metadata><defs
     id="defs3952" /><sodipodi:namedview
     pagecolor="#ffffff"
     bordercolor="#666666"
     borderopacity="1"
     objecttolerance="10"
     gridtolerance="10"
     guidetolerance="10"
     inkscape:pageopacity="0"
     inkscape:pageshadow="2"
     inkscape:window-width="1920"
     inkscape:window-height="1016"
     id="namedview3950"
     showgrid="false"
     showborder="false"
     inkscape:zoom="2.0902076"
     inkscape:cx="182.47966"
     inkscape:cy="132.31082"
     inkscape:window-x="0"
     inkscape:window-y="27"
     inkscape:window-maximized="1"
     inkscape:current-layer="Layer_1" /><style
     type="text/css"
     id="style3883">
	.st0{fill:#1D3D8F;}
	.st1{fill:#FFFFFF;}
	.st2{fill:#EC671D;}
</style><g
     id="g4079"><rect
       x="16.799999"
       class="st0"
       width="179.2"
       height="178"
       id="rect3885"
       y="0"
       style="fill:#1d3d8f" /><path
       class="st1"
       d="M 38.8,107.6 Z"
       id="path3887"
       inkscape:connector-curvature="0"
       style="fill:#ffffff" /><path
       style="fill:#ffffff"
       inkscape:connector-curvature="0"
       id="path3889"
       d="m 84.6,100.5 v -0.7 c 0,0.2 0,0.5 0,0.7"
       class="st1" /><path
       style="fill:#ffffff"
       inkscape:connector-curvature="0"
       id="path3891"
       d="m 177.1,84.6 c 6.1,-2.9 9.2,-9.4 9.2,-15.9 0,-7.8 -4.9,-15.3 -11.8,-18.8 -7,-3.5 -14.7,-3.2 -22.3,-3.2 h -19.4 v 83.5 H 158 c 8,-0.2 16.5,-0.7 23.2,-5.5 6.5,-4.9 10.2,-11.8 10.2,-19.9 0,-9.5 -5.1,-17.3 -14.3,-20.2 M 148.3,61.7 h 7.1 c 3.3,0 7.9,-0.2 10.2,0.8 3.1,1.2 5.2,4 5.2,7.3 0,3.2 -1.8,6.3 -4.8,7.7 -2.9,1.4 -7.2,1.2 -10.5,1.2 h -7.2 z m 23.5,50.6 c -4.1,2.7 -8.3,2.9 -12.8,2.9 H 148.3 V 93.9 h 11 c 3.7,0 7.5,-0.1 11,1.7 3.6,2 5.5,4.5 5.5,8.6 0.1,3.5 -1.2,6.2 -4,8.1"
       class="st1" /><polygon
       style="fill:#ec671d"
       id="polygon3893"
       points="16.8,91.1 16.8,46.7 0,46.7 "
       class="st2" /><path
       style="fill:#ffffff"
       inkscape:connector-curvature="0"
       id="path3943"
       d="m 128.1,46.7 h -15 v 56.5 c -0.1,2.8 -0.4,5.4 -1.6,7.9 -2,3.6 -5.8,6.1 -10.2,6.6 -0.2,0 -0.3,0 -0.5,0 -0.4,0 -0.8,0.1 -1.2,0.1 v 0 c -0.4,0 -0.8,0 -1.2,-0.1 -0.2,0 -0.3,0 -0.5,0 -4.4,-0.5 -8.2,-3.1 -10.2,-6.6 -1.3,-2.5 -1.6,-5.2 -1.6,-7.9 V 46.7 H 71.8 67.1 c -4.5,0 -8.4,3 -9.6,7.2 0,0.1 -0.1,0.2 -0.1,0.2 L 38.8,108.5 H 38.7 L 16.8,46.7 V 91 l 14.5,39.2 H 46.4 L 70.8,62.8 71,62.3 h 0.1 V 100 c 0,6 0.4,11.7 2.8,16.9 4.4,8.8 13.6,14.9 24.4,15.3 0.4,0 0.8,0 1.2,0 v 0 c 0.4,0 0.8,0 1.2,0 10.8,-0.4 20,-6.6 24.4,-15.3 2.4,-5.2 2.8,-10.9 2.8,-16.9 V 46.7 Z"
       class="st1" /></g></svg>