digraph "Scala-Par-AM Scheme-examples/OPi/abs.scm" {
  node[shape=box, style=filled, fillcolor=<#DDFFDD>];

0[xlabel="état initial", label=<(letrec ((abs (lambda (x) (if (&gt;= x 0) x (- x))))) (abs -42))>, fillcolor=<#AAFFAA>];
1[label=<(abs -42)>];
2[label=<(if (&gt;= x 0) x (- x))>];
3[label=<(&gt;= x 0)>];
4[label=<ko(Bool)>, fillcolor=<#DDDDFF>];
5[label=<x>];
6[label=<(- x)>];
7[xlabel="état final", label=<ko(Int)>, fillcolor=<#FFFFAA>];

0 -> 1 [xlabel="fonction de transition "];
1 -> 2;
2 -> 3;
3 -> 4;
4 -> 5;
4 -> 6;
5 -> 7;
6 -> 7;
}
