%!PS-Adobe-3.0 EPSF-3.0
%%Creator: cairo 1.14.8 (http://cairographics.org)
%%CreationDate: Fri Sep 29 22:59:01 2017
%%Pages: 1
%%DocumentData: Clean7Bit
%%LanguageLevel: 3
%%BoundingBox: 0 -1 47 43
%%EndComments
%%BeginProlog
save
50 dict begin
/q { gsave } bind def
/Q { grestore } bind def
/cm { 6 array astore concat } bind def
/w { setlinewidth } bind def
/J { setlinecap } bind def
/j { setlinejoin } bind def
/M { setmiterlimit } bind def
/d { setdash } bind def
/m { moveto } bind def
/l { lineto } bind def
/c { curveto } bind def
/h { closepath } bind def
/re { exch dup neg 3 1 roll 5 3 roll moveto 0 rlineto
      0 exch rlineto 0 rlineto closepath } bind def
/S { stroke } bind def
/f { fill } bind def
/f* { eofill } bind def
/n { newpath } bind def
/W { clip } bind def
/W* { eoclip } bind def
/BT { } bind def
/ET { } bind def
/pdfmark where { pop globaldict /?pdfmark /exec load put }
    { globaldict begin /?pdfmark /pop load def /pdfmark
    /cleartomark load def end } ifelse
/BDC { mark 3 1 roll /BDC pdfmark } bind def
/EMC { mark /EMC pdfmark } bind def
/cairo_store_point { /cairo_point_y exch def /cairo_point_x exch def } def
/Tj { show currentpoint cairo_store_point } bind def
/TJ {
  {
    dup
    type /stringtype eq
    { show } { -0.001 mul 0 cairo_font_matrix dtransform rmoveto } ifelse
  } forall
  currentpoint cairo_store_point
} bind def
/cairo_selectfont { cairo_font_matrix aload pop pop pop 0 0 6 array astore
    cairo_font exch selectfont cairo_point_x cairo_point_y moveto } bind def
/Tf { pop /cairo_font exch def /cairo_font_matrix where
      { pop cairo_selectfont } if } bind def
/Td { matrix translate cairo_font_matrix matrix concatmatrix dup
      /cairo_font_matrix exch def dup 4 get exch 5 get cairo_store_point
      /cairo_font where { pop cairo_selectfont } if } bind def
/Tm { 2 copy 8 2 roll 6 array astore /cairo_font_matrix exch def
      cairo_store_point /cairo_font where { pop cairo_selectfont } if } bind def
/g { setgray } bind def
/rg { setrgbcolor } bind def
/d1 { setcachedevice } bind def
%%EndProlog
%%BeginSetup
%%EndSetup
%%Page: 1 1
%%BeginPageSetup
%%PageBoundingBox: 0 -1 47 43
%%EndPageSetup
q 0 -1 47 44 rectclip q
q
0 42.225 47 -43 re W n
[ 1 0 0 1 0 -0.775002 ] concat
  q
0.14902 0.517647 1 rg
1.52 42.898 m 0.586 42.91 -0.129 42.078 0.02 41.156 c 6.387 2.504 l 6.551
 1.527 7.391 0.809 8.383 0.801 c 38.93 0.801 l 39.672 0.789 40.309 1.328
 40.43 2.059 c 46.797 41.148 l 46.945 42.07 46.23 42.902 45.297 42.891 c
 h
28.332 14.961 m 18.582 14.961 l 15.941 28.754 l 30.695 28.754 l h
28.332 14.961 m f
q
44.773 28.754 m 30.695 28.754 l 28.332 14.961 l 18.582 14.961 l 7.07 1.297
 l 7.434 0.98 7.898 0.805 8.383 0.801 c 38.938 0.801 l 39.68 0.789 40.316
 1.328 40.438 2.059 c h
44.773 28.754 m W n
[0.75 0 0 -0.75 0.0193447 47.592443] concat
/CairoFunction
<< /FunctionType 3
   /Domain [ 0 1 ]
   /Functions [
   << /FunctionType 2
      /Domain [ 0 1 ]
      /C0 [ 0 0.321569 0.8 ]
      /C1 [ 0 0.321569 0.8 ]
      /N 1
   >>
   << /FunctionType 2
      /Domain [ 0 1 ]
      /C0 [ 0 0.321569 0.8 ]
      /C1 [ 0.14902 0.517647 1 ]
      /N 1
   >>
   ]
   /Bounds [ 0.18 ]
   /Encode [ 1 1 2 { pop 0 1 } for ]
>>
def
   << /ShadingType 2
      /ColorSpace /DeviceRGB
      /Coords [ 64.010002 30.27 32.990002 54.48 ]
      /Extend [ true true ]
      /Function CairoFunction
   >>
shfill
Q
  Q
Q
Q Q
showpage
%%Trailer
end restore
%%EOF
