%!PS-Adobe-3.0 EPSF-3.0
%%Creator: graphviz version 2.38.0 (20140413.2041)
%%Title: Scala-Par-AM Scheme-examples/OPi/abs.scm
%%Pages: 1
%%BoundingBox: 36 36 449 527
%%EndComments
save
%%BeginProlog
/DotDict 200 dict def
DotDict begin

/setupLatin1 {
mark
/EncodingVector 256 array def
 EncodingVector 0

ISOLatin1Encoding 0 255 getinterval putinterval
EncodingVector 45 /hyphen put

% Set up ISO Latin 1 character encoding
/starnetISO {
        dup dup findfont dup length dict begin
        { 1 index /FID ne { def }{ pop pop } ifelse
        } forall
        /Encoding EncodingVector def
        currentdict end definefont
} def
/Times-Roman starnetISO def
/Times-Italic starnetISO def
/Times-Bold starnetISO def
/Times-BoldItalic starnetISO def
/Helvetica starnetISO def
/Helvetica-Oblique starnetISO def
/Helvetica-Bold starnetISO def
/Helvetica-BoldOblique starnetISO def
/Courier starnetISO def
/Courier-Oblique starnetISO def
/Courier-Bold starnetISO def
/Courier-BoldOblique starnetISO def
cleartomark
} bind def

%%BeginResource: procset graphviz 0 0
/coord-font-family /Times-Roman def
/default-font-family /Times-Roman def
/coordfont coord-font-family findfont 8 scalefont def

/InvScaleFactor 1.0 def
/set_scale {
       dup 1 exch div /InvScaleFactor exch def
       scale
} bind def

% styles
/solid { [] 0 setdash } bind def
/dashed { [9 InvScaleFactor mul dup ] 0 setdash } bind def
/dotted { [1 InvScaleFactor mul 6 InvScaleFactor mul] 0 setdash } bind def
/invis {/fill {newpath} def /stroke {newpath} def /show {pop newpath} def} bind def
/bold { 2 setlinewidth } bind def
/filled { } bind def
/unfilled { } bind def
/rounded { } bind def
/diagonals { } bind def
/tapered { } bind def

% hooks for setting color 
/nodecolor { sethsbcolor } bind def
/edgecolor { sethsbcolor } bind def
/graphcolor { sethsbcolor } bind def
/nopcolor {pop pop pop} bind def

/beginpage {	% i j npages
	/npages exch def
	/j exch def
	/i exch def
	/str 10 string def
	npages 1 gt {
		gsave
			coordfont setfont
			0 0 moveto
			(\() show i str cvs show (,) show j str cvs show (\)) show
		grestore
	} if
} bind def

/set_font {
	findfont exch
	scalefont setfont
} def

% draw text fitted to its expected width
/alignedtext {			% width text
	/text exch def
	/width exch def
	gsave
		width 0 gt {
			[] 0 setdash
			text stringwidth pop width exch sub text length div 0 text ashow
		} if
	grestore
} def

/boxprim {				% xcorner ycorner xsize ysize
		4 2 roll
		moveto
		2 copy
		exch 0 rlineto
		0 exch rlineto
		pop neg 0 rlineto
		closepath
} bind def

/ellipse_path {
	/ry exch def
	/rx exch def
	/y exch def
	/x exch def
	matrix currentmatrix
	newpath
	x y translate
	rx ry scale
	0 0 1 0 360 arc
	setmatrix
} bind def

/endpage { showpage } bind def
/showpage { } def

/layercolorseq
	[	% layer color sequence - darkest to lightest
		[0 0 0]
		[.2 .8 .8]
		[.4 .8 .8]
		[.6 .8 .8]
		[.8 .8 .8]
	]
def

/layerlen layercolorseq length def

/setlayer {/maxlayer exch def /curlayer exch def
	layercolorseq curlayer 1 sub layerlen mod get
	aload pop sethsbcolor
	/nodecolor {nopcolor} def
	/edgecolor {nopcolor} def
	/graphcolor {nopcolor} def
} bind def

/onlayer { curlayer ne {invis} if } def

/onlayers {
	/myupper exch def
	/mylower exch def
	curlayer mylower lt
	curlayer myupper gt
	or
	{invis} if
} def

/curlayer 0 def

%%EndResource
%%EndProlog
%%BeginSetup
14 default-font-family set_font
1 setmiterlimit
% /arrowlength 10 def
% /arrowwidth 5 def

% make sure pdfmark is harmless for PS-interpreters other than Distiller
/pdfmark where {pop} {userdict /pdfmark /cleartomark load put} ifelse
% make '<<' and '>>' safe on PS Level 1 devices
/languagelevel where {pop languagelevel}{1} ifelse
2 lt {
    userdict (<<) cvn ([) cvn load put
    userdict (>>) cvn ([) cvn load put
} if

%%EndSetup
setupLatin1
%%Page: 1 1
%%PageBoundingBox: 36 36 449 527
%%PageOrientation: Portrait
0 0 1 beginpage
gsave
36 36 413 491 boxprim clip newpath
1 1 set_scale 0 rotate 40 40 translate
% 0
gsave
0.33333 0.33333 1 nodecolor
newpath 405 468 moveto
61 468 lineto
61 432 lineto
405 432 lineto
closepath fill
1 setlinewidth
filled
0 0 0 nodecolor
newpath 405 468 moveto
61 468 lineto
61 432 lineto
405 432 lineto
closepath stroke
0 0 0 nodecolor
14 /Times-Roman set_font
69 446.3 moveto 328 (\(letrec \(\(abs \(lambda \(x\) \(if \(>= x 0\) x \(- x\)\)\)\)\) \(abs -42\)\)) alignedtext
0 0 0 nodecolor
14 /Times-Roman set_font
0 471.8 moveto 61 (initial state) alignedtext
grestore
% 1
gsave
0.33333 0.13333 1 nodecolor
newpath 267 396 moveto
199 396 lineto
199 360 lineto
267 360 lineto
closepath fill
1 setlinewidth
filled
0 0 0 nodecolor
newpath 267 396 moveto
199 396 lineto
199 360 lineto
267 360 lineto
closepath stroke
0 0 0 nodecolor
14 /Times-Roman set_font
207 374.3 moveto 52 (\(abs -42\)) alignedtext
grestore
% 0->1
gsave
1 setlinewidth
0 0 0 edgecolor
newpath 233 431.7 moveto
233 423.98 233 414.71 233 406.11 curveto
stroke
0 0 0 edgecolor
newpath 236.5 406.1 moveto
233 396.1 lineto
229.5 406.1 lineto
closepath fill
1 setlinewidth
solid
0 0 0 edgecolor
newpath 236.5 406.1 moveto
233 396.1 lineto
229.5 406.1 lineto
closepath stroke
0 0 0 edgecolor
14 /Times-Roman set_font
156 417.69 moveto 77 (step function ) alignedtext
grestore
% 2
gsave
0.33333 0.13333 1 nodecolor
newpath 296 324 moveto
170 324 lineto
170 288 lineto
296 288 lineto
closepath fill
1 setlinewidth
filled
0 0 0 nodecolor
newpath 296 324 moveto
170 324 lineto
170 288 lineto
296 288 lineto
closepath stroke
0 0 0 nodecolor
14 /Times-Roman set_font
178 302.3 moveto 110 (\(if \(>= x 0\) x \(- x\)\)) alignedtext
grestore
% 1->2
gsave
1 setlinewidth
0 0 0 edgecolor
newpath 233 359.7 moveto
233 351.98 233 342.71 233 334.11 curveto
stroke
0 0 0 edgecolor
newpath 236.5 334.1 moveto
233 324.1 lineto
229.5 334.1 lineto
closepath fill
1 setlinewidth
solid
0 0 0 edgecolor
newpath 236.5 334.1 moveto
233 324.1 lineto
229.5 334.1 lineto
closepath stroke
grestore
% 3
gsave
0.33333 0.13333 1 nodecolor
newpath 265.5 252 moveto
200.5 252 lineto
200.5 216 lineto
265.5 216 lineto
closepath fill
1 setlinewidth
filled
0 0 0 nodecolor
newpath 265.5 252 moveto
200.5 252 lineto
200.5 216 lineto
265.5 216 lineto
closepath stroke
0 0 0 nodecolor
14 /Times-Roman set_font
208.5 230.3 moveto 49 (\(>= x 0\)) alignedtext
grestore
% 2->3
gsave
1 setlinewidth
0 0 0 edgecolor
newpath 233 287.7 moveto
233 279.98 233 270.71 233 262.11 curveto
stroke
0 0 0 edgecolor
newpath 236.5 262.1 moveto
233 252.1 lineto
229.5 262.1 lineto
closepath fill
1 setlinewidth
solid
0 0 0 edgecolor
newpath 236.5 262.1 moveto
233 252.1 lineto
229.5 262.1 lineto
closepath stroke
grestore
% 4
gsave
0.66667 0.13333 1 nodecolor
newpath 267.5 180 moveto
198.5 180 lineto
198.5 144 lineto
267.5 144 lineto
closepath fill
1 setlinewidth
filled
0 0 0 nodecolor
newpath 267.5 180 moveto
198.5 180 lineto
198.5 144 lineto
267.5 144 lineto
closepath stroke
0 0 0 nodecolor
14 /Times-Roman set_font
206.5 158.3 moveto 53 (ko\(Bool\)) alignedtext
grestore
% 3->4
gsave
1 setlinewidth
0 0 0 edgecolor
newpath 233 215.7 moveto
233 207.98 233 198.71 233 190.11 curveto
stroke
0 0 0 edgecolor
newpath 236.5 190.1 moveto
233 180.1 lineto
229.5 190.1 lineto
closepath fill
1 setlinewidth
solid
0 0 0 edgecolor
newpath 236.5 190.1 moveto
233 180.1 lineto
229.5 190.1 lineto
closepath stroke
grestore
% 5
gsave
0.33333 0.13333 1 nodecolor
newpath 224 108 moveto
170 108 lineto
170 72 lineto
224 72 lineto
closepath fill
1 setlinewidth
filled
0 0 0 nodecolor
newpath 224 108 moveto
170 108 lineto
170 72 lineto
224 72 lineto
closepath stroke
0 0 0 nodecolor
14 /Times-Roman set_font
193.5 86.3 moveto 7 (x) alignedtext
grestore
% 4->5
gsave
1 setlinewidth
0 0 0 edgecolor
newpath 224.1 143.7 moveto
220 135.73 215.05 126.1 210.51 117.26 curveto
stroke
0 0 0 edgecolor
newpath 213.48 115.4 moveto
205.8 108.1 lineto
207.26 118.6 lineto
closepath fill
1 setlinewidth
solid
0 0 0 edgecolor
newpath 213.48 115.4 moveto
205.8 108.1 lineto
207.26 118.6 lineto
closepath stroke
grestore
% 6
gsave
0.33333 0.13333 1 nodecolor
newpath 296 108 moveto
242 108 lineto
242 72 lineto
296 72 lineto
closepath fill
1 setlinewidth
filled
0 0 0 nodecolor
newpath 296 108 moveto
242 108 lineto
242 72 lineto
296 72 lineto
closepath stroke
0 0 0 nodecolor
14 /Times-Roman set_font
256 86.3 moveto 26 (\(- x\)) alignedtext
grestore
% 4->6
gsave
1 setlinewidth
0 0 0 edgecolor
newpath 241.9 143.7 moveto
246 135.73 250.95 126.1 255.49 117.26 curveto
stroke
0 0 0 edgecolor
newpath 258.74 118.6 moveto
260.2 108.1 lineto
252.52 115.4 lineto
closepath fill
1 setlinewidth
solid
0 0 0 edgecolor
newpath 258.74 118.6 moveto
260.2 108.1 lineto
252.52 115.4 lineto
closepath stroke
grestore
% 7
gsave
0.16667 0.33333 1 nodecolor
newpath 261 36 moveto
205 36 lineto
205 0 lineto
261 0 lineto
closepath fill
1 setlinewidth
filled
0 0 0 nodecolor
newpath 261 36 moveto
205 36 lineto
205 0 lineto
261 0 lineto
closepath stroke
0 0 0 nodecolor
14 /Times-Roman set_font
213 14.3 moveto 40 (ko\(Int\)) alignedtext
grestore
% 5->7
gsave
1 setlinewidth
0 0 0 edgecolor
newpath 205.9 71.7 moveto
210 63.73 214.95 54.1 219.49 45.26 curveto
stroke
0 0 0 edgecolor
newpath 222.74 46.6 moveto
224.2 36.1 lineto
216.52 43.4 lineto
closepath fill
1 setlinewidth
solid
0 0 0 edgecolor
newpath 222.74 46.6 moveto
224.2 36.1 lineto
216.52 43.4 lineto
closepath stroke
grestore
% 6->7
gsave
1 setlinewidth
0 0 0 edgecolor
newpath 260.1 71.7 moveto
256 63.73 251.05 54.1 246.51 45.26 curveto
stroke
0 0 0 edgecolor
newpath 249.48 43.4 moveto
241.8 36.1 lineto
243.26 46.6 lineto
closepath fill
1 setlinewidth
solid
0 0 0 edgecolor
newpath 249.48 43.4 moveto
241.8 36.1 lineto
243.26 46.6 lineto
closepath stroke
grestore
endpage
showpage
grestore
%%PageTrailer
%%EndPage: 1
%%Trailer
end
restore
%%EOF
