Lattice	Bound	Address	Scheme program	Step filter?	Machine	p	# states	# error states	# error values	# final states	# final values	Final values	#	?	Time	Correct?	Error
TypeSet	100	Classical	Scheme-examples/AlgoDat1/abstrct.scm	false	SeqAAMLS	1	1244	0	0	3	2	#f, Vec(Int, {Int: @row-Time()}, @__undef-vec-element__)	1	true	0.521722141	true	
TypeSet	100	Classical	Scheme-examples/AlgoDat1/bst.scm	false	SeqAAMLS	1	2	0	0	1	1	#f	1	true	0.001771109	true	
TypeSet	100	Classical	Scheme-examples/AlgoDat1/btree.scm	false	SeqAAMLS	1	2	0	0	1	1	#f	1	true	0.001707764	true	
TypeSet	100	Classical	Scheme-examples/AlgoDat1/bubsort.scm	false	SeqAAMLS	1	181	0	0	5	1	VectorAddress(@vector-Time())	1	true	0.042114713	true	
TypeSet	100	Classical	Scheme-examples/AlgoDat1/dict.scm	false	SeqAAMLS	1