Lattice	Bound	Address	Scheme program	Step filter?	Machine	p	# states	# error states	# error values	# final states	# final values	Final values	#	?	Time	Correct?	Error
TypeSet	100	Classical	Scheme-examples/OPi/factorial_iter.scm	false	oldAAM	1
TypeSet	100	Classical	Scheme-examples/OPi/factorial_iter.scm	false	SeqAAMLS	1
TypeSet	100	Classical	Scheme-examples/OPi/factorial_iter.scm	false	ParAAM-L-SA-part	4
TypeSet	100	Classical	Scheme-examples/OPi/factorial_iter.scm	false	ParAAM-L-SA-part	2
TypeSet	100	Classical	Scheme-examples/OPi/factorial_iter.scm	false	ParAAM-C-set	1
TypeSet	100	Classical	Scheme-examples/OPi/factorial_iter.scm	false	ParAAM-C-set	4
TypeSet	100	Classical	Scheme-examples/OPi/factorial_iter.scm	false	ParAAM-C-set	2
TypeSet	100	Classical	Scheme-examples/OPi/factorial_recur.scm	false	oldAAM	1
TypeSet	100	Classical	Scheme-examples/OPi/factorial_recur.scm	false	SeqAAMLS	1
TypeSet	100	Classical	Scheme-examples/OPi/factorial_recur.scm	false	ParAAM-L-SA-part	4
TypeSet	100	Classical	Scheme-examples/OPi/factorial_recur.scm	false	ParAAM-L-SA-part	2
TypeSet	100	Classical	Scheme-examples/OPi/factorial_recur.scm	false	ParAAM-C-set	1
TypeSet	100	Classical	Scheme-examples/OPi/factorial_recur.scm	false	ParAAM-C-set	4
TypeSet	100	Classical	Scheme-examples/OPi/factorial_recur.scm	false	ParAAM-C-set	2
ConstantPropagation	100	Classical	Scheme-examples/OPi/factorial_iter.scm	false	oldAAM	1
ConstantPropagation	100	Classical	Scheme-examples/OPi/factorial_iter.scm	false	SeqAAMLS	1
ConstantPropagation	100	Classical	Scheme-examples/OPi/factorial_iter.scm	false	ParAAM-L-SA-part	4
ConstantPropagation	100	Classical	Scheme-examples/OPi/factorial_iter.scm	false	ParAAM-L-SA-part	2
ConstantPropagation	100	Classical	Scheme-examples/OPi/factorial_iter.scm	false	ParAAM-C-set	1
ConstantPropagation	100	Classical	Scheme-examples/OPi/factorial_iter.scm	false	ParAAM-C-set	4
ConstantPropagation	100	Classical	Scheme-examples/OPi/factorial_iter.scm	false	ParAAM-C-set	2
ConstantPropagation	100	Classical	Scheme-examples/OPi/factorial_recur.scm	false	oldAAM	1
ConstantPropagation	100	Classical	Scheme-examples/OPi/factorial_recur.scm	false	SeqAAMLS	1
ConstantPropagation	100	Classical	Scheme-examples/OPi/factorial_recur.scm	false	ParAAM-L-SA-part	4
ConstantPropagation	100	Classical	Scheme-examples/OPi/factorial_recur.scm	false	ParAAM-L-SA-part	2
ConstantPropagation	100	Classical	Scheme-examples/OPi/factorial_recur.scm	false	ParAAM-C-set	1
ConstantPropagation	100	Classical	Scheme-examples/OPi/factorial_recur.scm	false	ParAAM-C-set	4
ConstantPropagation	100	Classical	Scheme-examples/OPi/factorial_recur.scm	false	ParAAM-C-set	2
===== 28 = 0 prepared + 28 executed
If each evaluation takes 1 second ---> 56 seconds = 0.9 minutes = 0.0 hours = 0.0 days (considering waiting 1 second between each computation)
If each evaluation takes 330000000 nanoseconds ---> 37 seconds = 0.6 minutes = 0.0 hours = 0.0 days
If maximum with timeout of 1 day ---> 2419228 seconds = 40320.5 minutes = 672.0 hours = 28.0 days
