%!PS-Adobe-3.0 EPSF-3.0
%%Creator: graphviz version 2.38.0 (20140413.2041)
%%Title: Scala-AM
%%Pages: 1
%%BoundingBox: 36 36 715 574
%%EndComments
save
%%BeginProlog
/DotDict 200 dict def
DotDict begin

/setupLatin1 {
mark
/EncodingVector 256 array def
 EncodingVector 0

ISOLatin1Encoding 0 255 getinterval putinterval
EncodingVector 45 /hyphen put

% Set up ISO Latin 1 character encoding
/starnetISO {
        dup dup findfont dup length dict begin
        { 1 index /FID ne { def }{ pop pop } ifelse
        } forall
        /Encoding EncodingVector def
        currentdict end definefont
} def
/Times-Roman starnetISO def
/Times-Italic starnetISO def
/Times-Bold starnetISO def
/Times-BoldItalic starnetISO def
/Helvetica starnetISO def
/Helvetica-Oblique starnetISO def
/Helvetica-Bold starnetISO def
/Helvetica-BoldOblique starnetISO def
/Courier starnetISO def
/Courier-Oblique starnetISO def
/Courier-Bold starnetISO def
/Courier-BoldOblique starnetISO def
cleartomark
} bind def

%%BeginResource: procset graphviz 0 0
/coord-font-family /Times-Roman def
/default-font-family /Times-Roman def
/coordfont coord-font-family findfont 8 scalefont def

/InvScaleFactor 1.0 def
/set_scale {
       dup 1 exch div /InvScaleFactor exch def
       scale
} bind def

% styles
/solid { [] 0 setdash } bind def
/dashed { [9 InvScaleFactor mul dup ] 0 setdash } bind def
/dotted { [1 InvScaleFactor mul 6 InvScaleFactor mul] 0 setdash } bind def
/invis {/fill {newpath} def /stroke {newpath} def /show {pop newpath} def} bind def
/bold { 2 setlinewidth } bind def
/filled { } bind def
/unfilled { } bind def
/rounded { } bind def
/diagonals { } bind def
/tapered { } bind def

% hooks for setting color 
/nodecolor { sethsbcolor } bind def
/edgecolor { sethsbcolor } bind def
/graphcolor { sethsbcolor } bind def
/nopcolor {pop pop pop} bind def

/beginpage {	% i j npages
	/npages exch def
	/j exch def
	/i exch def
	/str 10 string def
	npages 1 gt {
		gsave
			coordfont setfont
			0 0 moveto
			(\() show i str cvs show (,) show j str cvs show (\)) show
		grestore
	} if
} bind def

/set_font {
	findfont exch
	scalefont setfont
} def

% draw text fitted to its expected width
/alignedtext {			% width text
	/text exch def
	/width exch def
	gsave
		width 0 gt {
			[] 0 setdash
			text stringwidth pop width exch sub text length div 0 text ashow
		} if
	grestore
} def

/boxprim {				% xcorner ycorner xsize ysize
		4 2 roll
		moveto
		2 copy
		exch 0 rlineto
		0 exch rlineto
		pop neg 0 rlineto
		closepath
} bind def

/ellipse_path {
	/ry exch def
	/rx exch def
	/y exch def
	/x exch def
	matrix currentmatrix
	newpath
	x y translate
	rx ry scale
	0 0 1 0 360 arc
	setmatrix
} bind def

/endpage { showpage } bind def
/showpage { } def

/layercolorseq
	[	% layer color sequence - darkest to lightest
		[0 0 0]
		[.2 .8 .8]
		[.4 .8 .8]
		[.6 .8 .8]
		[.8 .8 .8]
	]
def

/layerlen layercolorseq length def

/setlayer {/maxlayer exch def /curlayer exch def
	layercolorseq curlayer 1 sub layerlen mod get
	aload pop sethsbcolor
	/nodecolor {nopcolor} def
	/edgecolor {nopcolor} def
	/graphcolor {nopcolor} def
} bind def

/onlayer { curlayer ne {invis} if } def

/onlayers {
	/myupper exch def
	/mylower exch def
	curlayer mylower lt
	curlayer myupper gt
	or
	{invis} if
} def

/curlayer 0 def

%%EndResource
%%EndProlog
%%BeginSetup
14 default-font-family set_font
1 setmiterlimit
% /arrowlength 10 def
% /arrowwidth 5 def

% make sure pdfmark is harmless for PS-interpreters other than Distiller
/pdfmark where {pop} {userdict /pdfmark /cleartomark load put} ifelse
% make '<<' and '>>' safe on PS Level 1 devices
/languagelevel where {pop languagelevel}{1} ifelse
2 lt {
    userdict (<<) cvn ([) cvn load put
    userdict (>>) cvn ([) cvn load put
} if

%%EndSetup
setupLatin1
%%Page: 1 1
%%PageBoundingBox: 36 36 715 574
%%PageOrientation: Portrait
0 0 1 beginpage
gsave
36 36 679 538 boxprim clip newpath
1 1 set_scale 0 rotate 40 40 translate
% 0
gsave
0.33333 0.33333 1 nodecolor
newpath 375 499 moveto
8 499 lineto
8 463 lineto
375 463 lineto
closepath fill
1 setlinewidth
filled
0 0 0 nodecolor
newpath 375 499 moveto
8 499 lineto
8 463 lineto
375 463 lineto
closepath stroke
0 0 0 nodecolor
14 /Times-Roman set_font
16 477.3 moveto 351 (ev\(\(letrec \(\(abs \(lambda \(x\) \(if \(>= x 0\) x \(- x\)\)\)\)\) \(abs -42\)\)\)) alignedtext
0 0 0 nodecolor
14 /Times-Roman set_font
0 502.8 moveto 8 (0) alignedtext
grestore
% 1
gsave
0.33333 0.13333 1 nodecolor
newpath 237.5 396 moveto
145.5 396 lineto
145.5 360 lineto
237.5 360 lineto
closepath fill
1 setlinewidth
filled
0 0 0 nodecolor
newpath 237.5 396 moveto
145.5 396 lineto
145.5 360 lineto
237.5 360 lineto
closepath stroke
0 0 0 nodecolor
14 /Times-Roman set_font
153.5 374.3 moveto 76 (ev\(\(abs -42\)\)) alignedtext
0 0 0 nodecolor
14 /Times-Roman set_font
138.5 399.8 moveto 7 (1) alignedtext
grestore
% 0->1
gsave
1 setlinewidth
0 0 0 edgecolor
newpath 191.5 462.87 moveto
191.5 447.41 191.5 424.42 191.5 406.41 curveto
stroke
0 0 0 edgecolor
newpath 195 406.22 moveto
191.5 396.22 lineto
188 406.22 lineto
closepath fill
1 setlinewidth
solid
0 0 0 edgecolor
newpath 195 406.22 moveto
191.5 396.22 lineto
188 406.22 lineto
closepath stroke
grestore
% 2
gsave
0.33333 0.13333 1 nodecolor
newpath 266 324 moveto
117 324 lineto
117 288 lineto
266 288 lineto
closepath fill
1 setlinewidth
filled
0 0 0 nodecolor
newpath 266 324 moveto
117 324 lineto
117 288 lineto
266 288 lineto
closepath stroke
0 0 0 nodecolor
14 /Times-Roman set_font
125 302.3 moveto 133 (ev\(\(if \(>= x 0\) x \(- x\)\)\)) alignedtext
0 0 0 nodecolor
14 /Times-Roman set_font
110 327.8 moveto 7 (2) alignedtext
grestore
% 1->2
gsave
1 setlinewidth
0 0 0 edgecolor
newpath 191.5 359.7 moveto
191.5 351.98 191.5 342.71 191.5 334.11 curveto
stroke
0 0 0 edgecolor
newpath 195 334.1 moveto
191.5 324.1 lineto
188 334.1 lineto
closepath fill
1 setlinewidth
solid
0 0 0 edgecolor
newpath 195 334.1 moveto
191.5 324.1 lineto
188 334.1 lineto
closepath stroke
grestore
% 3
gsave
0.33333 0.13333 1 nodecolor
newpath 235.5 252 moveto
147.5 252 lineto
147.5 216 lineto
235.5 216 lineto
closepath fill
1 setlinewidth
filled
0 0 0 nodecolor
newpath 235.5 252 moveto
147.5 252 lineto
147.5 216 lineto
235.5 216 lineto
closepath stroke
0 0 0 nodecolor
14 /Times-Roman set_font
155.5 230.3 moveto 72 (ev\(\(>= x 0\)\)) alignedtext
0 0 0 nodecolor
14 /Times-Roman set_font
140.5 255.8 moveto 7 (3) alignedtext
grestore
% 2->3
gsave
1 setlinewidth
0 0 0 edgecolor
newpath 191.5 287.7 moveto
191.5 279.98 191.5 270.71 191.5 262.11 curveto
stroke
0 0 0 edgecolor
newpath 195 262.1 moveto
191.5 252.1 lineto
188 262.1 lineto
closepath fill
1 setlinewidth
solid
0 0 0 edgecolor
newpath 195 262.1 moveto
191.5 252.1 lineto
188 262.1 lineto
closepath stroke
grestore
% 4
gsave
0.66667 0.13333 1 nodecolor
newpath 226 180 moveto
157 180 lineto
157 144 lineto
226 144 lineto
closepath fill
1 setlinewidth
filled
0 0 0 nodecolor
newpath 226 180 moveto
157 180 lineto
157 144 lineto
226 144 lineto
closepath stroke
0 0 0 nodecolor
14 /Times-Roman set_font
165 158.3 moveto 53 (ko\(Bool\)) alignedtext
0 0 0 nodecolor
14 /Times-Roman set_font
148 183.8 moveto 9 (4) alignedtext
grestore
% 3->4
gsave
1 setlinewidth
0 0 0 edgecolor
newpath 191.5 215.7 moveto
191.5 207.98 191.5 198.71 191.5 190.11 curveto
stroke
0 0 0 edgecolor
newpath 195 190.1 moveto
191.5 180.1 lineto
188 190.1 lineto
closepath fill
1 setlinewidth
solid
0 0 0 edgecolor
newpath 195 190.1 moveto
191.5 180.1 lineto
188 190.1 lineto
closepath stroke
grestore
% 5
gsave
0.33333 0.13333 1 nodecolor
newpath 179.5 108 moveto
125.5 108 lineto
125.5 72 lineto
179.5 72 lineto
closepath fill
1 setlinewidth
filled
0 0 0 nodecolor
newpath 179.5 108 moveto
125.5 108 lineto
125.5 72 lineto
179.5 72 lineto
closepath stroke
0 0 0 nodecolor
14 /Times-Roman set_font
137 86.3 moveto 31 (ev\(x\)) alignedtext
0 0 0 nodecolor
14 /Times-Roman set_font
117.5 111.8 moveto 8 (5) alignedtext
grestore
% 4->5
gsave
1 setlinewidth
0 0 0 edgecolor
newpath 181.86 143.7 moveto
177.37 135.64 171.94 125.89 166.98 116.98 curveto
stroke
0 0 0 edgecolor
newpath 169.95 115.14 moveto
162.03 108.1 lineto
163.84 118.54 lineto
closepath fill
1 setlinewidth
solid
0 0 0 edgecolor
newpath 169.95 115.14 moveto
162.03 108.1 lineto
163.84 118.54 lineto
closepath stroke
grestore
% 6
gsave
0.33333 0.13333 1 nodecolor
newpath 263 108 moveto
198 108 lineto
198 72 lineto
263 72 lineto
closepath fill
1 setlinewidth
filled
0 0 0 nodecolor
newpath 263 108 moveto
198 108 lineto
198 72 lineto
263 72 lineto
closepath stroke
0 0 0 nodecolor
14 /Times-Roman set_font
206 86.3 moveto 49 (ev\(\(- x\)\)) alignedtext
0 0 0 nodecolor
14 /Times-Roman set_font
190 111.8 moveto 8 (6) alignedtext
grestore
% 4->6
gsave
1 setlinewidth
0 0 0 edgecolor
newpath 201.14 143.7 moveto
205.63 135.64 211.06 125.89 216.02 116.98 curveto
stroke
0 0 0 edgecolor
newpath 219.16 118.54 moveto
220.97 108.1 lineto
213.05 115.14 lineto
closepath fill
1 setlinewidth
solid
0 0 0 edgecolor
newpath 219.16 118.54 moveto
220.97 108.1 lineto
213.05 115.14 lineto
closepath stroke
grestore
% 7
gsave
0.16667 0.33333 1 nodecolor
newpath 219.5 36 moveto
163.5 36 lineto
163.5 0 lineto
219.5 0 lineto
closepath fill
1 setlinewidth
filled
0 0 0 nodecolor
newpath 219.5 36 moveto
163.5 36 lineto
163.5 0 lineto
219.5 0 lineto
closepath stroke
0 0 0 nodecolor
14 /Times-Roman set_font
171.5 14.3 moveto 40 (ko\(Int\)) alignedtext
0 0 0 nodecolor
14 /Times-Roman set_font
156.5 39.8 moveto 7 (7) alignedtext
grestore
% 5->7
gsave
1 setlinewidth
0 0 0 edgecolor
newpath 162.14 71.7 moveto
166.63 63.64 172.06 53.89 177.02 44.98 curveto
stroke
0 0 0 edgecolor
newpath 180.16 46.54 moveto
181.97 36.1 lineto
174.05 43.14 lineto
closepath fill
1 setlinewidth
solid
0 0 0 edgecolor
newpath 180.16 46.54 moveto
181.97 36.1 lineto
174.05 43.14 lineto
closepath stroke
grestore
% 6->7
gsave
1 setlinewidth
0 0 0 edgecolor
newpath 220.86 71.7 moveto
216.37 63.64 210.94 53.89 205.98 44.98 curveto
stroke
0 0 0 edgecolor
newpath 208.95 43.14 moveto
201.03 36.1 lineto
202.84 46.54 lineto
closepath fill
1 setlinewidth
solid
0 0 0 edgecolor
newpath 208.95 43.14 moveto
201.03 36.1 lineto
202.84 46.54 lineto
closepath stroke
grestore
% stats
gsave
1 setlinewidth
0 0 0 nodecolor
newpath 520 530 moveto
520 530 405 530 405 530 curveto
399 530 393 524 393 518 curveto
393 518 393 444 393 444 curveto
393 438 399 432 405 432 curveto
405 432 520 432 520 432 curveto
526 432 532 438 532 444 curveto
532 444 532 518 532 518 curveto
532 524 526 530 520 530 curveto
stroke
0 0 0 nodecolor
14 /Times-Roman set_font
401 514.8 moveto 57 (#nodes: 8) alignedtext
0 0 0 nodecolor
14 /Times-Roman set_font
401 499.8 moveto 57 (#edges: 8) alignedtext
0 0 0 nodecolor
14 /Times-Roman set_font
401 484.8 moveto 118 (graph density: 0,143) alignedtext
0 0 0 nodecolor
14 /Times-Roman set_font
401 469.8 moveto 98 (outdegree min: 1) alignedtext
0 0 0 nodecolor
14 /Times-Roman set_font
401 454.8 moveto 100 (outdegree max: 2) alignedtext
0 0 0 nodecolor
14 /Times-Roman set_font
401 439.8 moveto 123 (outdegree avg: 1,000) alignedtext
grestore
% config
gsave
1 setlinewidth
0 0 0 nodecolor
newpath 659 515 moveto
659 515 562 515 562 515 curveto
556 515 550 509 550 503 curveto
550 503 550 459 550 459 curveto
550 453 556 447 562 447 curveto
562 447 659 447 659 447 curveto
665 447 671 453 671 459 curveto
671 459 671 503 671 503 curveto
671 509 665 515 659 515 curveto
stroke
0 0 0 nodecolor
14 /Times-Roman set_font
558 499.8 moveto 105 (language: Scheme) alignedtext
0 0 0 nodecolor
14 /Times-Roman set_font
558 484.8 moveto 90 (machine: AAM) alignedtext
0 0 0 nodecolor
14 /Times-Roman set_font
558 469.8 moveto 91 (lattice: TypeSet) alignedtext
0 0 0 nodecolor
14 /Times-Roman set_font
558 454.8 moveto 101 (address: Classical) alignedtext
grestore
endpage
showpage
grestore
%%PageTrailer
%%EndPage: 1
%%Trailer
end
restore
%%EOF
