%!PS-Adobe-3.0 EPSF-3.0
%%Creator: graphviz version 2.38.0 (20140413.2041)
%%Title: Scala-AM
%%Pages: 1
%%BoundingBox: 36 36 1335 1366
%%EndComments
save
%%BeginProlog
/DotDict 200 dict def
DotDict begin

/setupLatin1 {
mark
/EncodingVector 256 array def
 EncodingVector 0

ISOLatin1Encoding 0 255 getinterval putinterval
EncodingVector 45 /hyphen put

% Set up ISO Latin 1 character encoding
/starnetISO {
        dup dup findfont dup length dict begin
        { 1 index /FID ne { def }{ pop pop } ifelse
        } forall
        /Encoding EncodingVector def
        currentdict end definefont
} def
/Times-Roman starnetISO def
/Times-Italic starnetISO def
/Times-Bold starnetISO def
/Times-BoldItalic starnetISO def
/Helvetica starnetISO def
/Helvetica-Oblique starnetISO def
/Helvetica-Bold starnetISO def
/Helvetica-BoldOblique starnetISO def
/Courier starnetISO def
/Courier-Oblique starnetISO def
/Courier-Bold starnetISO def
/Courier-BoldOblique starnetISO def
cleartomark
} bind def

%%BeginResource: procset graphviz 0 0
/coord-font-family /Times-Roman def
/default-font-family /Times-Roman def
/coordfont coord-font-family findfont 8 scalefont def

/InvScaleFactor 1.0 def
/set_scale {
       dup 1 exch div /InvScaleFactor exch def
       scale
} bind def

% styles
/solid { [] 0 setdash } bind def
/dashed { [9 InvScaleFactor mul dup ] 0 setdash } bind def
/dotted { [1 InvScaleFactor mul 6 InvScaleFactor mul] 0 setdash } bind def
/invis {/fill {newpath} def /stroke {newpath} def /show {pop newpath} def} bind def
/bold { 2 setlinewidth } bind def
/filled { } bind def
/unfilled { } bind def
/rounded { } bind def
/diagonals { } bind def
/tapered { } bind def

% hooks for setting color 
/nodecolor { sethsbcolor } bind def
/edgecolor { sethsbcolor } bind def
/graphcolor { sethsbcolor } bind def
/nopcolor {pop pop pop} bind def

/beginpage {	% i j npages
	/npages exch def
	/j exch def
	/i exch def
	/str 10 string def
	npages 1 gt {
		gsave
			coordfont setfont
			0 0 moveto
			(\() show i str cvs show (,) show j str cvs show (\)) show
		grestore
	} if
} bind def

/set_font {
	findfont exch
	scalefont setfont
} def

% draw text fitted to its expected width
/alignedtext {			% width text
	/text exch def
	/width exch def
	gsave
		width 0 gt {
			[] 0 setdash
			text stringwidth pop width exch sub text length div 0 text ashow
		} if
	grestore
} def

/boxprim {				% xcorner ycorner xsize ysize
		4 2 roll
		moveto
		2 copy
		exch 0 rlineto
		0 exch rlineto
		pop neg 0 rlineto
		closepath
} bind def

/ellipse_path {
	/ry exch def
	/rx exch def
	/y exch def
	/x exch def
	matrix currentmatrix
	newpath
	x y translate
	rx ry scale
	0 0 1 0 360 arc
	setmatrix
} bind def

/endpage { showpage } bind def
/showpage { } def

/layercolorseq
	[	% layer color sequence - darkest to lightest
		[0 0 0]
		[.2 .8 .8]
		[.4 .8 .8]
		[.6 .8 .8]
		[.8 .8 .8]
	]
def

/layerlen layercolorseq length def

/setlayer {/maxlayer exch def /curlayer exch def
	layercolorseq curlayer 1 sub layerlen mod get
	aload pop sethsbcolor
	/nodecolor {nopcolor} def
	/edgecolor {nopcolor} def
	/graphcolor {nopcolor} def
} bind def

/onlayer { curlayer ne {invis} if } def

/onlayers {
	/myupper exch def
	/mylower exch def
	curlayer mylower lt
	curlayer myupper gt
	or
	{invis} if
} def

/curlayer 0 def

%%EndResource
%%EndProlog
%%BeginSetup
14 default-font-family set_font
1 setmiterlimit
% /arrowlength 10 def
% /arrowwidth 5 def

% make sure pdfmark is harmless for PS-interpreters other than Distiller
/pdfmark where {pop} {userdict /pdfmark /cleartomark load put} ifelse
% make '<<' and '>>' safe on PS Level 1 devices
/languagelevel where {pop languagelevel}{1} ifelse
2 lt {
    userdict (<<) cvn ([) cvn load put
    userdict (>>) cvn ([) cvn load put
} if

%%EndSetup
setupLatin1
%%Page: 1 1
%%PageBoundingBox: 36 36 1335 1366
%%PageOrientation: Portrait
0 0 1 beginpage
gsave
36 36 1299 1330 boxprim clip newpath
1 1 set_scale 0 rotate 40 40 translate
% 0
gsave
0.33333 0.33333 1 nodecolor
newpath 994 1291 moveto
8 1291 lineto
8 1255 lineto
994 1255 lineto
closepath fill
1 setlinewidth
filled
0 0 0 nodecolor
newpath 994 1291 moveto
8 1291 lineto
8 1255 lineto
994 1255 lineto
closepath stroke
0 0 0 nodecolor
14 /Times-Roman set_font
16 1269.3 moveto 970 (ev\(\(letrec \(\(fibonacci2 \(lambda \(n fn_1 fn\) \(if \(= n 0\) \(cons fn_1 fn\) \(fibonacci2 \(- n 1\) fn \(+ fn fn_1\)\)\)\)\) \(fibonacci \(lambda \(n\) \(cdr \(fibonacci2 n 1 0\)\)\)\)\) \(fibonacci 10\)\)\)) alignedtext
0 0 0 nodecolor
14 /Times-Roman set_font
0 1294.8 moveto 8 (0) alignedtext
grestore
% 1
gsave
0.33333 0.13333 1 nodecolor
newpath 561 1188 moveto
441 1188 lineto
441 1152 lineto
561 1152 lineto
closepath fill
1 setlinewidth
filled
0 0 0 nodecolor
newpath 561 1188 moveto
441 1188 lineto
441 1152 lineto
561 1152 lineto
closepath stroke
0 0 0 nodecolor
14 /Times-Roman set_font
449 1166.3 moveto 104 (ev\(\(fibonacci 10\)\)) alignedtext
0 0 0 nodecolor
14 /Times-Roman set_font
434 1191.8 moveto 7 (1) alignedtext
grestore
% 0->1
gsave
1 setlinewidth
0 0 0 edgecolor
newpath 501 1254.87 moveto
501 1239.41 501 1216.42 501 1198.41 curveto
stroke
0 0 0 edgecolor
newpath 504.5 1198.22 moveto
501 1188.22 lineto
497.5 1198.22 lineto
closepath fill
1 setlinewidth
solid
0 0 0 edgecolor
newpath 504.5 1198.22 moveto
501 1188.22 lineto
497.5 1198.22 lineto
closepath stroke
grestore
% 2
gsave
0.33333 0.13333 1 nodecolor
newpath 587.5 1116 moveto
414.5 1116 lineto
414.5 1080 lineto
587.5 1080 lineto
closepath fill
1 setlinewidth
filled
0 0 0 nodecolor
newpath 587.5 1116 moveto
414.5 1116 lineto
414.5 1080 lineto
587.5 1080 lineto
closepath stroke
0 0 0 nodecolor
14 /Times-Roman set_font
422.5 1094.3 moveto 157 (ev\(\(cdr \(fibonacci2 n 1 0\)\)\)) alignedtext
0 0 0 nodecolor
14 /Times-Roman set_font
407.5 1119.8 moveto 7 (2) alignedtext
grestore
% 1->2
gsave
1 setlinewidth
0 0 0 edgecolor
newpath 501 1151.7 moveto
501 1143.98 501 1134.71 501 1126.11 curveto
stroke
0 0 0 edgecolor
newpath 504.5 1126.1 moveto
501 1116.1 lineto
497.5 1126.1 lineto
closepath fill
1 setlinewidth
solid
0 0 0 edgecolor
newpath 504.5 1126.1 moveto
501 1116.1 lineto
497.5 1126.1 lineto
closepath stroke
grestore
% 3
gsave
0.33333 0.13333 1 nodecolor
newpath 571.5 1044 moveto
430.5 1044 lineto
430.5 1008 lineto
571.5 1008 lineto
closepath fill
1 setlinewidth
filled
0 0 0 nodecolor
newpath 571.5 1044 moveto
430.5 1044 lineto
430.5 1008 lineto
571.5 1008 lineto
closepath stroke
0 0 0 nodecolor
14 /Times-Roman set_font
438.5 1022.3 moveto 125 (ev\(\(fibonacci2 n 1 0\)\)) alignedtext
0 0 0 nodecolor
14 /Times-Roman set_font
423.5 1047.8 moveto 7 (3) alignedtext
grestore
% 2->3
gsave
1 setlinewidth
0 0 0 edgecolor
newpath 501 1079.7 moveto
501 1071.98 501 1062.71 501 1054.11 curveto
stroke
0 0 0 edgecolor
newpath 504.5 1054.1 moveto
501 1044.1 lineto
497.5 1054.1 lineto
closepath fill
1 setlinewidth
solid
0 0 0 edgecolor
newpath 504.5 1054.1 moveto
501 1044.1 lineto
497.5 1054.1 lineto
closepath stroke
grestore
% 4
gsave
0.33333 0.13333 1 nodecolor
newpath 689.5 972 moveto
312.5 972 lineto
312.5 936 lineto
689.5 936 lineto
closepath fill
1 setlinewidth
filled
0 0 0 nodecolor
newpath 689.5 972 moveto
312.5 972 lineto
312.5 936 lineto
689.5 936 lineto
closepath stroke
0 0 0 nodecolor
14 /Times-Roman set_font
320.5 950.3 moveto 361 (ev\(\(if \(= n 0\) \(cons fn_1 fn\) \(fibonacci2 \(- n 1\) fn \(+ fn fn_1\)\)\)\)) alignedtext
0 0 0 nodecolor
14 /Times-Roman set_font
303.5 975.8 moveto 9 (4) alignedtext
grestore
% 3->4
gsave
1 setlinewidth
0 0 0 edgecolor
newpath 501 1007.7 moveto
501 999.98 501 990.71 501 982.11 curveto
stroke
0 0 0 edgecolor
newpath 504.5 982.1 moveto
501 972.1 lineto
497.5 982.1 lineto
closepath fill
1 setlinewidth
solid
0 0 0 edgecolor
newpath 504.5 982.1 moveto
501 972.1 lineto
497.5 982.1 lineto
closepath stroke
grestore
% 5
gsave
0.33333 0.13333 1 nodecolor
newpath 541 900 moveto
461 900 lineto
461 864 lineto
541 864 lineto
closepath fill
1 setlinewidth
filled
0 0 0 nodecolor
newpath 541 900 moveto
461 900 lineto
461 864 lineto
541 864 lineto
closepath stroke
0 0 0 nodecolor
14 /Times-Roman set_font
469 878.3 moveto 64 (ev\(\(= n 0\)\)) alignedtext
0 0 0 nodecolor
14 /Times-Roman set_font
453 903.8 moveto 8 (5) alignedtext
grestore
% 4->5
gsave
1 setlinewidth
0 0 0 edgecolor
newpath 501 935.7 moveto
501 927.98 501 918.71 501 910.11 curveto
stroke
0 0 0 edgecolor
newpath 504.5 910.1 moveto
501 900.1 lineto
497.5 910.1 lineto
closepath fill
1 setlinewidth
solid
0 0 0 edgecolor
newpath 504.5 910.1 moveto
501 900.1 lineto
497.5 910.1 lineto
closepath stroke
grestore
% 6
gsave
0.66667 0.13333 1 nodecolor
newpath 542.5 828 moveto
459.5 828 lineto
459.5 792 lineto
542.5 792 lineto
closepath fill
1 setlinewidth
filled
0 0 0 nodecolor
newpath 542.5 828 moveto
459.5 828 lineto
459.5 792 lineto
542.5 792 lineto
closepath stroke
0 0 0 nodecolor
14 /Times-Roman set_font
467.5 806.3 moveto 67 (ko\({#f,#t}\)) alignedtext
0 0 0 nodecolor
14 /Times-Roman set_font
451.5 831.8 moveto 8 (6) alignedtext
grestore
% 5->6
gsave
1 setlinewidth
0 0 0 edgecolor
newpath 501 863.7 moveto
501 855.98 501 846.71 501 838.11 curveto
stroke
0 0 0 edgecolor
newpath 504.5 838.1 moveto
501 828.1 lineto
497.5 838.1 lineto
closepath fill
1 setlinewidth
solid
0 0 0 edgecolor
newpath 504.5 838.1 moveto
501 828.1 lineto
497.5 838.1 lineto
closepath stroke
grestore
% 7
gsave
0.33333 0.13333 1 nodecolor
newpath 464.5 756 moveto
345.5 756 lineto
345.5 720 lineto
464.5 720 lineto
closepath fill
1 setlinewidth
filled
0 0 0 nodecolor
newpath 464.5 756 moveto
345.5 756 lineto
345.5 720 lineto
464.5 720 lineto
closepath stroke
0 0 0 nodecolor
14 /Times-Roman set_font
353.5 734.3 moveto 103 (ev\(\(cons fn_1 fn\)\)) alignedtext
0 0 0 nodecolor
14 /Times-Roman set_font
338.5 759.8 moveto 7 (7) alignedtext
grestore
% 6->7
gsave
1 setlinewidth
0 0 0 edgecolor
newpath 477.27 791.7 moveto
465.06 782.8 450.01 771.82 436.82 762.2 curveto
stroke
0 0 0 edgecolor
newpath 438.6 759.17 moveto
428.46 756.1 lineto
434.48 764.82 lineto
closepath fill
1 setlinewidth
solid
0 0 0 edgecolor
newpath 438.6 759.17 moveto
428.46 756.1 lineto
434.48 764.82 lineto
closepath stroke
grestore
% 8
gsave
0.33333 0.13333 1 nodecolor
newpath 711.5 756 moveto
482.5 756 lineto
482.5 720 lineto
711.5 720 lineto
closepath fill
1 setlinewidth
filled
0 0 0 nodecolor
newpath 711.5 756 moveto
482.5 756 lineto
482.5 720 lineto
711.5 720 lineto
closepath stroke
0 0 0 nodecolor
14 /Times-Roman set_font
490.5 734.3 moveto 213 (ev\(\(fibonacci2 \(- n 1\) fn \(+ fn fn_1\)\)\)) alignedtext
0 0 0 nodecolor
14 /Times-Roman set_font
475.5 759.8 moveto 7 (8) alignedtext
grestore
% 6->8
gsave
1 setlinewidth
0 0 0 edgecolor
newpath 524.73 791.7 moveto
536.94 782.8 551.99 771.82 565.18 762.2 curveto
stroke
0 0 0 edgecolor
newpath 567.52 764.82 moveto
573.54 756.1 lineto
563.4 759.17 lineto
closepath fill
1 setlinewidth
solid
0 0 0 edgecolor
newpath 567.52 764.82 moveto
573.54 756.1 lineto
563.4 759.17 lineto
closepath stroke
grestore
% 9
gsave
0.66667 0.13333 1 nodecolor
newpath 523.5 684 moveto
286.5 684 lineto
286.5 648 lineto
523.5 648 lineto
closepath fill
1 setlinewidth
filled
0 0 0 nodecolor
newpath 523.5 684 moveto
286.5 684 lineto
286.5 648 lineto
523.5 648 lineto
closepath stroke
0 0 0 nodecolor
14 /Times-Roman set_font
294.5 662.3 moveto 221 (ko\(Cons\(@fn_1-Time\(\),@fn-Time\(\)\)\)) alignedtext
0 0 0 nodecolor
14 /Times-Roman set_font
278.5 687.8 moveto 8 (9) alignedtext
grestore
% 7->9
gsave
1 setlinewidth
0 0 0 edgecolor
newpath 405 719.7 moveto
405 711.98 405 702.71 405 694.11 curveto
stroke
0 0 0 edgecolor
newpath 408.5 694.1 moveto
405 684.1 lineto
401.5 694.1 lineto
closepath fill
1 setlinewidth
solid
0 0 0 edgecolor
newpath 408.5 694.1 moveto
405 684.1 lineto
401.5 694.1 lineto
closepath stroke
grestore
% 10
gsave
0.33333 0.13333 1 nodecolor
newpath 635 684 moveto
559 684 lineto
559 648 lineto
635 648 lineto
closepath fill
1 setlinewidth
filled
0 0 0 nodecolor
newpath 635 684 moveto
559 684 lineto
559 648 lineto
635 648 lineto
closepath stroke
0 0 0 nodecolor
14 /Times-Roman set_font
567 662.3 moveto 60 (ev\(\(- n 1\)\)) alignedtext
0 0 0 nodecolor
14 /Times-Roman set_font
544 687.8 moveto 15 (10) alignedtext
grestore
% 8->10
gsave
1 setlinewidth
0 0 0 edgecolor
newpath 597 719.7 moveto
597 711.98 597 702.71 597 694.11 curveto
stroke
0 0 0 edgecolor
newpath 600.5 694.1 moveto
597 684.1 lineto
593.5 694.1 lineto
closepath fill
1 setlinewidth
solid
0 0 0 edgecolor
newpath 600.5 694.1 moveto
597 684.1 lineto
593.5 694.1 lineto
closepath stroke
grestore
% 11
gsave
0.16667 0.33333 1 nodecolor
newpath 433 612 moveto
377 612 lineto
377 576 lineto
433 576 lineto
closepath fill
1 setlinewidth
filled
0 0 0 nodecolor
newpath 433 612 moveto
377 612 lineto
377 576 lineto
433 576 lineto
closepath stroke
0 0 0 nodecolor
14 /Times-Roman set_font
385 590.3 moveto 40 (ko\(Int\)) alignedtext
0 0 0 nodecolor
14 /Times-Roman set_font
363 615.8 moveto 14 (11) alignedtext
grestore
% 9->11
gsave
1 setlinewidth
0 0 0 edgecolor
newpath 405 647.7 moveto
405 639.98 405 630.71 405 622.11 curveto
stroke
0 0 0 edgecolor
newpath 408.5 622.1 moveto
405 612.1 lineto
401.5 622.1 lineto
closepath fill
1 setlinewidth
solid
0 0 0 edgecolor
newpath 408.5 622.1 moveto
405 612.1 lineto
401.5 622.1 lineto
closepath stroke
grestore
% 12
gsave
0.66667 0.13333 1 nodecolor
newpath 625 612 moveto
569 612 lineto
569 576 lineto
625 576 lineto
closepath fill
1 setlinewidth
filled
0 0 0 nodecolor
newpath 625 612 moveto
569 612 lineto
569 576 lineto
625 576 lineto
closepath stroke
0 0 0 nodecolor
14 /Times-Roman set_font
577 590.3 moveto 40 (ko\(Int\)) alignedtext
0 0 0 nodecolor
14 /Times-Roman set_font
555 615.8 moveto 14 (12) alignedtext
grestore
% 10->12
gsave
1 setlinewidth
0 0 0 edgecolor
newpath 597 647.7 moveto
597 639.98 597 630.71 597 622.11 curveto
stroke
0 0 0 edgecolor
newpath 600.5 622.1 moveto
597 612.1 lineto
593.5 622.1 lineto
closepath fill
1 setlinewidth
solid
0 0 0 edgecolor
newpath 600.5 622.1 moveto
597 612.1 lineto
593.5 622.1 lineto
closepath stroke
grestore
% 13
gsave
0.33333 0.13333 1 nodecolor
newpath 647.5 540 moveto
546.5 540 lineto
546.5 504 lineto
647.5 504 lineto
closepath fill
1 setlinewidth
filled
0 0 0 nodecolor
newpath 647.5 540 moveto
546.5 540 lineto
546.5 504 lineto
647.5 504 lineto
closepath stroke
0 0 0 nodecolor
14 /Times-Roman set_font
554.5 518.3 moveto 85 (ev\(\(+ fn fn_1\)\)) alignedtext
0 0 0 nodecolor
14 /Times-Roman set_font
532.5 543.8 moveto 14 (13) alignedtext
grestore
% 12->13
gsave
1 setlinewidth
0 0 0 edgecolor
newpath 597 575.7 moveto
597 567.98 597 558.71 597 550.11 curveto
stroke
0 0 0 edgecolor
newpath 600.5 550.1 moveto
597 540.1 lineto
593.5 550.1 lineto
closepath fill
1 setlinewidth
solid
0 0 0 edgecolor
newpath 600.5 550.1 moveto
597 540.1 lineto
593.5 550.1 lineto
closepath stroke
grestore
% 14
gsave
0.66667 0.13333 1 nodecolor
newpath 517 468 moveto
461 468 lineto
461 432 lineto
517 432 lineto
closepath fill
1 setlinewidth
filled
0 0 0 nodecolor
newpath 517 468 moveto
461 468 lineto
461 432 lineto
517 432 lineto
closepath stroke
0 0 0 nodecolor
14 /Times-Roman set_font
469 446.3 moveto 40 (ko\(Int\)) alignedtext
0 0 0 nodecolor
14 /Times-Roman set_font
445 471.8 moveto 16 (14) alignedtext
grestore
% 13->14
gsave
1 setlinewidth
0 0 0 edgecolor
newpath 570.58 503.88 moveto
556.59 494.81 539.22 483.55 524.11 473.76 curveto
stroke
0 0 0 edgecolor
newpath 525.82 470.69 moveto
515.52 468.19 lineto
522.01 476.57 lineto
closepath fill
1 setlinewidth
solid
0 0 0 edgecolor
newpath 525.82 470.69 moveto
515.52 468.19 lineto
522.01 476.57 lineto
closepath stroke
grestore
% 15
gsave
0.33333 0.13333 1 nodecolor
newpath 623.5 396 moveto
246.5 396 lineto
246.5 360 lineto
623.5 360 lineto
closepath fill
1 setlinewidth
filled
0 0 0 nodecolor
newpath 623.5 396 moveto
246.5 396 lineto
246.5 360 lineto
623.5 360 lineto
closepath stroke
0 0 0 nodecolor
14 /Times-Roman set_font
254.5 374.3 moveto 361 (ev\(\(if \(= n 0\) \(cons fn_1 fn\) \(fibonacci2 \(- n 1\) fn \(+ fn fn_1\)\)\)\)) alignedtext
0 0 0 nodecolor
14 /Times-Roman set_font
231.5 399.8 moveto 15 (15) alignedtext
grestore
% 14->15
gsave
1 setlinewidth
0 0 0 edgecolor
newpath 475.65 431.7 moveto
469.24 423.39 461.44 413.28 454.39 404.14 curveto
stroke
0 0 0 edgecolor
newpath 457.07 401.88 moveto
448.19 396.1 lineto
451.53 406.16 lineto
closepath fill
1 setlinewidth
solid
0 0 0 edgecolor
newpath 457.07 401.88 moveto
448.19 396.1 lineto
451.53 406.16 lineto
closepath stroke
grestore
% 16
gsave
0.33333 0.13333 1 nodecolor
newpath 475 324 moveto
395 324 lineto
395 288 lineto
475 288 lineto
closepath fill
1 setlinewidth
filled
0 0 0 nodecolor
newpath 475 324 moveto
395 324 lineto
395 288 lineto
475 288 lineto
closepath stroke
0 0 0 nodecolor
14 /Times-Roman set_font
403 302.3 moveto 64 (ev\(\(= n 0\)\)) alignedtext
0 0 0 nodecolor
14 /Times-Roman set_font
380 327.8 moveto 15 (16) alignedtext
grestore
% 15->16
gsave
1 setlinewidth
0 0 0 edgecolor
newpath 435 359.7 moveto
435 351.98 435 342.71 435 334.11 curveto
stroke
0 0 0 edgecolor
newpath 438.5 334.1 moveto
435 324.1 lineto
431.5 334.1 lineto
closepath fill
1 setlinewidth
solid
0 0 0 edgecolor
newpath 438.5 334.1 moveto
435 324.1 lineto
431.5 334.1 lineto
closepath stroke
grestore
% 17
gsave
0.66667 0.13333 1 nodecolor
newpath 476.5 252 moveto
393.5 252 lineto
393.5 216 lineto
476.5 216 lineto
closepath fill
1 setlinewidth
filled
0 0 0 nodecolor
newpath 476.5 252 moveto
393.5 252 lineto
393.5 216 lineto
476.5 216 lineto
closepath stroke
0 0 0 nodecolor
14 /Times-Roman set_font
401.5 230.3 moveto 67 (ko\({#f,#t}\)) alignedtext
0 0 0 nodecolor
14 /Times-Roman set_font
379.5 255.8 moveto 14 (17) alignedtext
grestore
% 16->17
gsave
1 setlinewidth
0 0 0 edgecolor
newpath 435 287.7 moveto
435 279.98 435 270.71 435 262.11 curveto
stroke
0 0 0 edgecolor
newpath 438.5 262.1 moveto
435 252.1 lineto
431.5 262.1 lineto
closepath fill
1 setlinewidth
solid
0 0 0 edgecolor
newpath 438.5 262.1 moveto
435 252.1 lineto
431.5 262.1 lineto
closepath stroke
grestore
% 18
gsave
0.33333 0.13333 1 nodecolor
newpath 376.5 180 moveto
257.5 180 lineto
257.5 144 lineto
376.5 144 lineto
closepath fill
1 setlinewidth
filled
0 0 0 nodecolor
newpath 376.5 180 moveto
257.5 180 lineto
257.5 144 lineto
376.5 144 lineto
closepath stroke
0 0 0 nodecolor
14 /Times-Roman set_font
265.5 158.3 moveto 103 (ev\(\(cons fn_1 fn\)\)) alignedtext
0 0 0 nodecolor
14 /Times-Roman set_font
243.5 183.8 moveto 14 (18) alignedtext
grestore
% 17->18
gsave
1 setlinewidth
0 0 0 edgecolor
newpath 406.13 215.88 moveto
390.71 206.72 371.52 195.34 354.9 185.48 curveto
stroke
0 0 0 edgecolor
newpath 356.36 182.28 moveto
345.98 180.19 lineto
352.79 188.3 lineto
closepath fill
1 setlinewidth
solid
0 0 0 edgecolor
newpath 356.36 182.28 moveto
345.98 180.19 lineto
352.79 188.3 lineto
closepath stroke
grestore
% 19
gsave
0.33333 0.13333 1 nodecolor
newpath 623.5 180 moveto
394.5 180 lineto
394.5 144 lineto
623.5 144 lineto
closepath fill
1 setlinewidth
filled
0 0 0 nodecolor
newpath 623.5 180 moveto
394.5 180 lineto
394.5 144 lineto
623.5 144 lineto
closepath stroke
0 0 0 nodecolor
14 /Times-Roman set_font
402.5 158.3 moveto 213 (ev\(\(fibonacci2 \(- n 1\) fn \(+ fn fn_1\)\)\)) alignedtext
0 0 0 nodecolor
14 /Times-Roman set_font
379.5 183.8 moveto 15 (19) alignedtext
grestore
% 17->19
gsave
1 setlinewidth
0 0 0 edgecolor
newpath 453.29 215.7 moveto
462.43 207.05 473.64 196.45 483.6 187.03 curveto
stroke
0 0 0 edgecolor
newpath 486.06 189.52 moveto
490.92 180.1 lineto
481.25 184.43 lineto
closepath fill
1 setlinewidth
solid
0 0 0 edgecolor
newpath 486.06 189.52 moveto
490.92 180.1 lineto
481.25 184.43 lineto
closepath stroke
grestore
% 20
gsave
0.66667 0.13333 1 nodecolor
newpath 435.5 108 moveto
198.5 108 lineto
198.5 72 lineto
435.5 72 lineto
closepath fill
1 setlinewidth
filled
0 0 0 nodecolor
newpath 435.5 108 moveto
198.5 108 lineto
198.5 72 lineto
435.5 72 lineto
closepath stroke
0 0 0 nodecolor
14 /Times-Roman set_font
206.5 86.3 moveto 221 (ko\(Cons\(@fn_1-Time\(\),@fn-Time\(\)\)\)) alignedtext
0 0 0 nodecolor
14 /Times-Roman set_font
183.5 111.8 moveto 15 (20) alignedtext
grestore
% 18->20
gsave
1 setlinewidth
0 0 0 edgecolor
newpath 317 143.7 moveto
317 135.98 317 126.71 317 118.11 curveto
stroke
0 0 0 edgecolor
newpath 320.5 118.1 moveto
317 108.1 lineto
313.5 118.1 lineto
closepath fill
1 setlinewidth
solid
0 0 0 edgecolor
newpath 320.5 118.1 moveto
317 108.1 lineto
313.5 118.1 lineto
closepath stroke
grestore
% 21
gsave
0.33333 0.13333 1 nodecolor
newpath 585 108 moveto
509 108 lineto
509 72 lineto
585 72 lineto
closepath fill
1 setlinewidth
filled
0 0 0 nodecolor
newpath 585 108 moveto
509 108 lineto
509 72 lineto
585 72 lineto
closepath stroke
0 0 0 nodecolor
14 /Times-Roman set_font
517 86.3 moveto 60 (ev\(\(- n 1\)\)) alignedtext
0 0 0 nodecolor
14 /Times-Roman set_font
495 111.8 moveto 14 (21) alignedtext
grestore
% 19->21
gsave
1 setlinewidth
0 0 0 edgecolor
newpath 518.39 143.7 moveto
522.76 135.64 528.06 125.89 532.9 116.98 curveto
stroke
0 0 0 edgecolor
newpath 536.02 118.56 moveto
537.71 108.1 lineto
529.87 115.22 lineto
closepath fill
1 setlinewidth
solid
0 0 0 edgecolor
newpath 536.02 118.56 moveto
537.71 108.1 lineto
529.87 115.22 lineto
closepath stroke
grestore
% 22
gsave
0.16667 0.33333 1 nodecolor
newpath 345 36 moveto
289 36 lineto
289 0 lineto
345 0 lineto
closepath fill
1 setlinewidth
filled
0 0 0 nodecolor
newpath 345 36 moveto
289 36 lineto
289 0 lineto
345 0 lineto
closepath stroke
0 0 0 nodecolor
14 /Times-Roman set_font
297 14.3 moveto 40 (ko\(Int\)) alignedtext
0 0 0 nodecolor
14 /Times-Roman set_font
275 39.8 moveto 14 (22) alignedtext
grestore
% 20->22
gsave
1 setlinewidth
0 0 0 edgecolor
newpath 317 71.7 moveto
317 63.98 317 54.71 317 46.11 curveto
stroke
0 0 0 edgecolor
newpath 320.5 46.1 moveto
317 36.1 lineto
313.5 46.1 lineto
closepath fill
1 setlinewidth
solid
0 0 0 edgecolor
newpath 320.5 46.1 moveto
317 36.1 lineto
313.5 46.1 lineto
closepath stroke
grestore
% 23
gsave
0.66667 0.13333 1 nodecolor
newpath 627 36 moveto
571 36 lineto
571 0 lineto
627 0 lineto
closepath fill
1 setlinewidth
filled
0 0 0 nodecolor
newpath 627 36 moveto
571 36 lineto
571 0 lineto
627 0 lineto
closepath stroke
0 0 0 nodecolor
14 /Times-Roman set_font
579 14.3 moveto 40 (ko\(Int\)) alignedtext
0 0 0 nodecolor
14 /Times-Roman set_font
557 39.8 moveto 14 (23) alignedtext
grestore
% 21->23
gsave
1 setlinewidth
0 0 0 edgecolor
newpath 559.85 71.7 moveto
566.03 63.39 573.54 53.28 580.32 44.14 curveto
stroke
0 0 0 edgecolor
newpath 583.14 46.22 moveto
586.29 36.1 lineto
577.52 42.04 lineto
closepath fill
1 setlinewidth
solid
0 0 0 edgecolor
newpath 583.14 46.22 moveto
586.29 36.1 lineto
577.52 42.04 lineto
closepath stroke
grestore
% 23->13
gsave
1 setlinewidth
0 0 0 edgecolor
newpath 609.98 36.16 moveto
625.51 62.11 652 113.37 652 161 curveto
652 379 652 379 652 379 curveto
652 421.99 629.81 467.66 613.62 495.26 curveto
stroke
0 0 0 edgecolor
newpath 610.57 493.53 moveto
608.4 503.9 lineto
616.56 497.15 lineto
closepath fill
1 setlinewidth
solid
0 0 0 edgecolor
newpath 610.57 493.53 moveto
608.4 503.9 lineto
616.56 497.15 lineto
closepath stroke
grestore
% stats
gsave
1 setlinewidth
0 0 0 nodecolor
newpath 1139.5 1322 moveto
1139.5 1322 1024.5 1322 1024.5 1322 curveto
1018.5 1322 1012.5 1316 1012.5 1310 curveto
1012.5 1310 1012.5 1236 1012.5 1236 curveto
1012.5 1230 1018.5 1224 1024.5 1224 curveto
1024.5 1224 1139.5 1224 1139.5 1224 curveto
1145.5 1224 1151.5 1230 1151.5 1236 curveto
1151.5 1236 1151.5 1310 1151.5 1310 curveto
1151.5 1316 1145.5 1322 1139.5 1322 curveto
stroke
0 0 0 nodecolor
14 /Times-Roman set_font
1020.5 1306.8 moveto 65 (#nodes: 24) alignedtext
0 0 0 nodecolor
14 /Times-Roman set_font
1020.5 1291.8 moveto 65 (#edges: 24) alignedtext
0 0 0 nodecolor
14 /Times-Roman set_font
1020.5 1276.8 moveto 118 (graph density: 0,043) alignedtext
0 0 0 nodecolor
14 /Times-Roman set_font
1020.5 1261.8 moveto 98 (outdegree min: 1) alignedtext
0 0 0 nodecolor
14 /Times-Roman set_font
1020.5 1246.8 moveto 100 (outdegree max: 2) alignedtext
0 0 0 nodecolor
14 /Times-Roman set_font
1020.5 1231.8 moveto 123 (outdegree avg: 1,000) alignedtext
grestore
% config
gsave
1 setlinewidth
0 0 0 nodecolor
newpath 1278.5 1307 moveto
1278.5 1307 1181.5 1307 1181.5 1307 curveto
1175.5 1307 1169.5 1301 1169.5 1295 curveto
1169.5 1295 1169.5 1251 1169.5 1251 curveto
1169.5 1245 1175.5 1239 1181.5 1239 curveto
1181.5 1239 1278.5 1239 1278.5 1239 curveto
1284.5 1239 1290.5 1245 1290.5 1251 curveto
1290.5 1251 1290.5 1295 1290.5 1295 curveto
1290.5 1301 1284.5 1307 1278.5 1307 curveto
stroke
0 0 0 nodecolor
14 /Times-Roman set_font
1177.5 1291.8 moveto 105 (language: Scheme) alignedtext
0 0 0 nodecolor
14 /Times-Roman set_font
1177.5 1276.8 moveto 90 (machine: AAM) alignedtext
0 0 0 nodecolor
14 /Times-Roman set_font
1177.5 1261.8 moveto 91 (lattice: TypeSet) alignedtext
0 0 0 nodecolor
14 /Times-Roman set_font
1177.5 1246.8 moveto 101 (address: Classical) alignedtext
grestore
endpage
showpage
grestore
%%PageTrailer
%%EndPage: 1
%%Trailer
end
restore
%%EOF
